{
  "lookup": {
    "rules": {
      "[{\"prev_action\": {\"action_name\": \"action_listen\"}, \"user\": {\"intent\": \"looking for job\"}}]": "utter_positions",
      "[{\"prev_action\": {\"action_name\": \"action_listen\"}, \"user\": {\"intent\": \"looking for job\"}}, {\"prev_action\": {\"action_name\": \"utter_positions\"}, \"user\": {\"intent\": \"looking for job\"}}]": "action_listen",
      "[{\"prev_action\": {\"action_name\": \"action_listen\"}, \"user\": {\"intent\": \"greet\"}}]": "utter_greet",
      "[{\"prev_action\": {\"action_name\": \"action_listen\"}, \"user\": {\"intent\": \"greet\"}}, {\"prev_action\": {\"action_name\": \"utter_greet\"}, \"user\": {\"intent\": \"greet\"}}]": "action_listen",
      "[{\"prev_action\": {\"action_name\": \"utter_positions\"}}]": "utter_apply",
      "[{\"prev_action\": {\"action_name\": \"utter_positions\"}}, {\"prev_action\": {\"action_name\": \"utter_apply\"}}]": "action_listen",
      "[{\"prev_action\": {\"action_name\": \"action_listen\"}, \"user\": {\"intent\": \"general query\"}}]": "call_haystack",
      "[{\"prev_action\": {\"action_name\": \"action_listen\"}, \"user\": {\"intent\": \"general query\"}}, {\"prev_action\": {\"action_name\": \"call_haystack\"}, \"user\": {\"intent\": \"general query\"}}]": "action_listen",
      "[{\"prev_action\": {\"action_name\": \"action_listen\"}, \"user\": {\"intent\": \"location\"}}]": "utter_location",
      "[{\"prev_action\": {\"action_name\": \"action_listen\"}, \"user\": {\"intent\": \"location\"}}, {\"prev_action\": {\"action_name\": \"utter_location\"}, \"user\": {\"intent\": \"location\"}}]": "action_listen",
      "[{\"active_loop\": {\"name\": \"should_not_be_set\"}, \"prev_action\": {\"action_name\": \"applicant_form\"}}]": "action_applicant",
      "[{\"active_loop\": {\"name\": \"should_not_be_set\"}, \"prev_action\": {\"action_name\": \"applicant_form\"}}, {\"active_loop\": {\"name\": \"should_not_be_set\"}, \"prev_action\": {\"action_name\": \"action_applicant\"}}]": "utter_submit",
      "[{\"active_loop\": {\"name\": \"should_not_be_set\"}, \"prev_action\": {\"action_name\": \"applicant_form\"}}, {\"active_loop\": {\"name\": \"should_not_be_set\"}, \"prev_action\": {\"action_name\": \"action_applicant\"}}, {\"active_loop\": {\"name\": \"should_not_be_set\"}, \"prev_action\": {\"action_name\": \"utter_submit\"}}]": "action_listen",
      "[{\"prev_action\": {\"action_name\": \"action_listen\"}, \"user\": {\"intent\": \"creator\"}}]": "utter_creator",
      "[{\"prev_action\": {\"action_name\": \"action_listen\"}, \"user\": {\"intent\": \"creator\"}}, {\"prev_action\": {\"action_name\": \"utter_creator\"}, \"user\": {\"intent\": \"creator\"}}]": "action_listen",
      "[{\"prev_action\": {\"action_name\": \"action_listen\"}, \"user\": {\"intent\": \"employee\"}}]": "call_haystack",
      "[{\"prev_action\": {\"action_name\": \"action_listen\"}, \"user\": {\"intent\": \"employee\"}}, {\"prev_action\": {\"action_name\": \"call_haystack\"}, \"user\": {\"intent\": \"employee\"}}]": "action_listen",
      "[{\"prev_action\": {\"action_name\": \"action_listen\"}, \"user\": {\"intent\": \"bot_services\"}}]": "utter_bot_sevices",
      "[{\"prev_action\": {\"action_name\": \"action_listen\"}, \"user\": {\"intent\": \"bot_services\"}}, {\"prev_action\": {\"action_name\": \"utter_bot_sevices\"}, \"user\": {\"intent\": \"bot_services\"}}]": "action_listen",
      "[{\"prev_action\": {\"action_name\": \"action_listen\"}, \"user\": {\"intent\": \"apply\"}}]": "applicant_form",
      "[{\"prev_action\": {\"action_name\": \"action_listen\"}, \"user\": {\"intent\": \"apply\"}}, {\"active_loop\": {\"name\": \"applicant_form\"}, \"prev_action\": {\"action_name\": \"applicant_form\"}, \"user\": {\"intent\": \"apply\"}}]": "action_listen",
      "[{\"prev_action\": {\"action_name\": \"action_listen\"}, \"user\": {\"intent\": \"goodbye\"}}]": "utter_goodbye",
      "[{\"prev_action\": {\"action_name\": \"action_listen\"}, \"user\": {\"intent\": \"goodbye\"}}, {\"prev_action\": {\"action_name\": \"utter_goodbye\"}, \"user\": {\"intent\": \"goodbye\"}}]": "action_listen",
      "[{\"prev_action\": {\"action_name\": \"action_listen\"}, \"user\": {\"intent\": \"bot_challenge\"}}]": "utter_bot",
      "[{\"prev_action\": {\"action_name\": \"action_listen\"}, \"user\": {\"intent\": \"bot_challenge\"}}, {\"prev_action\": {\"action_name\": \"utter_bot\"}, \"user\": {\"intent\": \"bot_challenge\"}}]": "action_listen",
      "[{\"prev_action\": {\"action_name\": \"action_listen\"}, \"user\": {\"intent\": \"salary\"}}]": "utter_salary",
      "[{\"prev_action\": {\"action_name\": \"action_listen\"}, \"user\": {\"intent\": \"salary\"}}, {\"prev_action\": {\"action_name\": \"utter_salary\"}, \"user\": {\"intent\": \"salary\"}}]": "action_listen",
      "[{\"prev_action\": {\"action_name\": \"action_listen\"}, \"user\": {\"intent\": \"services\"}}]": "utter_services",
      "[{\"prev_action\": {\"action_name\": \"action_listen\"}, \"user\": {\"intent\": \"services\"}}, {\"prev_action\": {\"action_name\": \"utter_services\"}, \"user\": {\"intent\": \"services\"}}]": "action_listen"
    },
    "rule_only_slots": [],
    "rule_only_loops": [
      "applicant_form"
    ],
    "rules_for_loop_unhappy_path": {
      "[{\"prev_action\": {\"action_name\": \"action_listen\"}}, {\"active_loop\": {\"name\": \"applicant_form\"}, \"prev_action\": {\"action_name\": \"applicant_form\"}, \"user\": {\"intent\": \"apply\"}}]": "do_not_predict_loop_action"
    },
    "rules_not_in_stories": [
      "[{\"prev_action\": {\"action_name\": \"action_listen\"}, \"user\": {\"intent\": \"salary\"}}]",
      "[{\"prev_action\": {\"action_name\": \"action_listen\"}, \"user\": {\"intent\": \"general query\"}}, {\"prev_action\": {\"action_name\": \"call_haystack\"}, \"user\": {\"intent\": \"general query\"}}]",
      "[{\"prev_action\": {\"action_name\": \"action_listen\"}, \"user\": {\"intent\": \"salary\"}}, {\"prev_action\": {\"action_name\": \"utter_salary\"}, \"user\": {\"intent\": \"salary\"}}]",
      "[{\"prev_action\": {\"action_name\": \"action_listen\"}, \"user\": {\"intent\": \"employee\"}}, {\"prev_action\": {\"action_name\": \"call_haystack\"}, \"user\": {\"intent\": \"employee\"}}]",
      "[{\"prev_action\": {\"action_name\": \"action_listen\"}, \"user\": {\"intent\": \"bot_services\"}}]",
      "[{\"prev_action\": {\"action_name\": \"action_listen\"}, \"user\": {\"intent\": \"bot_services\"}}, {\"prev_action\": {\"action_name\": \"utter_bot_sevices\"}, \"user\": {\"intent\": \"bot_services\"}}]",
      "[{\"prev_action\": {\"action_name\": \"action_listen\"}, \"user\": {\"intent\": \"bot_challenge\"}}]",
      "handling active loops and forms - applicant_form - action_listen",
      "predicting default action with intent session_start",
      "[{\"prev_action\": {\"action_name\": \"action_listen\"}, \"user\": {\"intent\": \"creator\"}}, {\"prev_action\": {\"action_name\": \"utter_creator\"}, \"user\": {\"intent\": \"creator\"}}]",
      "[{\"prev_action\": {\"action_name\": \"action_listen\"}, \"user\": {\"intent\": \"goodbye\"}}]",
      "[{\"prev_action\": {\"action_name\": \"action_listen\"}, \"user\": {\"intent\": \"bot_challenge\"}}, {\"prev_action\": {\"action_name\": \"utter_bot\"}, \"user\": {\"intent\": \"bot_challenge\"}}]",
      "[{\"prev_action\": {\"action_name\": \"action_listen\"}, \"user\": {\"intent\": \"services\"}}]",
      "[{\"prev_action\": {\"action_name\": \"action_listen\"}, \"user\": {\"intent\": \"location\"}}]",
      "[{\"prev_action\": {\"action_name\": \"action_listen\"}, \"user\": {\"intent\": \"location\"}}, {\"prev_action\": {\"action_name\": \"utter_location\"}, \"user\": {\"intent\": \"location\"}}]",
      "[{\"prev_action\": {\"action_name\": \"action_listen\"}, \"user\": {\"intent\": \"general query\"}}]",
      "[{\"prev_action\": {\"action_name\": \"action_listen\"}, \"user\": {\"intent\": \"looking for job\"}}]",
      "[{\"prev_action\": {\"action_name\": \"action_listen\"}, \"user\": {\"intent\": \"services\"}}, {\"prev_action\": {\"action_name\": \"utter_services\"}, \"user\": {\"intent\": \"services\"}}]",
      "[{\"prev_action\": {\"action_name\": \"action_listen\"}, \"user\": {\"intent\": \"looking for job\"}}, {\"prev_action\": {\"action_name\": \"utter_positions\"}, \"user\": {\"intent\": \"looking for job\"}}]",
      "[{\"prev_action\": {\"action_name\": \"action_listen\"}, \"user\": {\"intent\": \"employee\"}}]",
      "[{\"prev_action\": {\"action_name\": \"action_listen\"}, \"user\": {\"intent\": \"creator\"}}]",
      "predicting default action with intent restart",
      "handling active loops and forms - applicant_form",
      "[{\"prev_action\": {\"action_name\": \"action_listen\"}, \"user\": {\"intent\": \"goodbye\"}}, {\"prev_action\": {\"action_name\": \"utter_goodbye\"}, \"user\": {\"intent\": \"goodbye\"}}]",
      "predicting default action with intent back"
    ]
  }
}