[
  {
    "tag_name": "entity",
    "ids_to_tags": {
      "1": "B-date",
      "2": "I-date",
      "3": "L-date",
      "4": "U-date",
      "5": "B-emp_name",
      "6": "I-emp_name",
      "7": "L-emp_name",
      "8": "U-emp_name",
      "9": "B-exp_year",
      "10": "I-exp_year",
      "11": "L-exp_year",
      "12": "U-exp_year",
      "13": "B-gradyear",
      "14": "I-gradyear",
      "15": "L-gradyear",
      "16": "U-gradyear",
      "17": "B-skill",
      "18": "I-skill",
      "19": "L-skill",
      "20": "U-skill",
      "0": "O"
    },
    "tags_to_ids": {
      "B-date": 1,
      "I-date": 2,
      "L-date": 3,
      "U-date": 4,
      "B-emp_name": 5,
      "I-emp_name": 6,
      "L-emp_name": 7,
      "U-emp_name": 8,
      "B-exp_year": 9,
      "I-exp_year": 10,
      "L-exp_year": 11,
      "U-exp_year": 12,
      "B-gradyear": 13,
      "I-gradyear": 14,
      "L-gradyear": 15,
      "U-gradyear": 16,
      "B-skill": 17,
      "I-skill": 18,
      "L-skill": 19,
      "U-skill": 20,
      "O": 0
    },
    "num_tags": 21
  }
]