{"type": "server", "timestamp": "2022-02-16T17:41:54,945+05:30", "level": "WARN", "component": "o.e.c.c.ClusterFormationFailureHelper", "cluster.name": "elasticsearch", "node.name": "auriga-Latitude-E7470", "message": "master not discovered or elected yet, an election requires two nodes with ids [tTQj_ewZQ6io2VmPOd_iDw, x1NqcR0oSK6oWW5erWDdXA], have discovered [{auriga-Latitude-E7470}{x1NqcR0oSK6oWW5erWDdXA}{kn07CRijTF6DYqGZRmVnaQ}{127.0.0.1}{127.0.0.1:9300}{dilmrt}{ml.machine_memory=16424050688, xpack.installed=true, transform.node=true, ml.max_open_jobs=20}] which is not a quorum; discovery will continue using [127.0.0.1:9301, 127.0.0.1:9302, 127.0.0.1:9303, 127.0.0.1:9304, 127.0.0.1:9305, [::1]:9301, [::1]:9302, [::1]:9303, [::1]:9304, [::1]:9305] from hosts providers and [{auriga-Latitude-E7470}{x1NqcR0oSK6oWW5erWDdXA}{kn07CRijTF6DYqGZRmVnaQ}{127.0.0.1}{127.0.0.1:9300}{dilmrt}{ml.machine_memory=16424050688, xpack.installed=true, transform.node=true, ml.max_open_jobs=20}] from last-known cluster state; node term 2, last-accepted version 0 in term 0" }
{"type": "server", "timestamp": "2022-02-17T09:01:46,025+05:30", "level": "INFO", "component": "o.e.x.m.p.NativeController", "cluster.name": "elasticsearch", "node.name": "auriga-Latitude-E7470", "message": "Native controller process has stopped - no new native processes can be started" }
{"type": "server", "timestamp": "2022-02-17T09:01:46,032+05:30", "level": "INFO", "component": "o.e.n.Node", "cluster.name": "elasticsearch", "node.name": "auriga-Latitude-E7470", "message": "stopping ..." }
{"type": "server", "timestamp": "2022-02-17T09:01:46,385+05:30", "level": "INFO", "component": "o.e.x.w.WatcherService", "cluster.name": "elasticsearch", "node.name": "auriga-Latitude-E7470", "message": "stopping watch service, reason [shutdown initiated]" }
{"type": "server", "timestamp": "2022-02-17T09:01:46,388+05:30", "level": "INFO", "component": "o.e.x.w.WatcherLifeCycleService", "cluster.name": "elasticsearch", "node.name": "auriga-Latitude-E7470", "message": "watcher has stopped and shutdown" }
{"type": "server", "timestamp": "2022-02-17T09:01:46,725+05:30", "level": "INFO", "component": "o.e.n.Node", "cluster.name": "elasticsearch", "node.name": "auriga-Latitude-E7470", "message": "stopped" }
{"type": "server", "timestamp": "2022-02-17T09:01:46,726+05:30", "level": "INFO", "component": "o.e.n.Node", "cluster.name": "elasticsearch", "node.name": "auriga-Latitude-E7470", "message": "closing ..." }
{"type": "server", "timestamp": "2022-02-17T09:01:46,748+05:30", "level": "INFO", "component": "o.e.n.Node", "cluster.name": "elasticsearch", "node.name": "auriga-Latitude-E7470", "message": "closed" }
{"type": "server", "timestamp": "2022-02-17T11:08:24,953+05:30", "level": "INFO", "component": "o.e.n.Node", "cluster.name": "elasticsearch", "node.name": "auriga-Latitude-E7470", "message": "version[7.9.2], pid[20811], build[default/tar/d34da0ea4a966c4e49417f2da2f244e3e97b4e6e/2020-09-23T00:45:33.626720Z], OS[Linux/5.13.0-28-generic/amd64], JVM[AdoptOpenJDK/OpenJDK 64-Bit Server VM/15/15+36]" }
{"type": "server", "timestamp": "2022-02-17T11:08:24,958+05:30", "level": "INFO", "component": "o.e.n.Node", "cluster.name": "elasticsearch", "node.name": "auriga-Latitude-E7470", "message": "JVM home [/home/auriga/Desktop/elasctic _search_chat/elasticsearch-7.9.2/jdk]" }
{"type": "server", "timestamp": "2022-02-17T11:08:24,959+05:30", "level": "INFO", "component": "o.e.n.Node", "cluster.name": "elasticsearch", "node.name": "auriga-Latitude-E7470", "message": "JVM arguments [-Xshare:auto, -Des.networkaddress.cache.ttl=60, -Des.networkaddress.cache.negative.ttl=10, -XX:+AlwaysPreTouch, -Xss1m, -Djava.awt.headless=true, -Dfile.encoding=UTF-8, -Djna.nosys=true, -XX:-OmitStackTraceInFastThrow, -XX:+ShowCodeDetailsInExceptionMessages, -Dio.netty.noUnsafe=true, -Dio.netty.noKeySetOptimization=true, -Dio.netty.recycler.maxCapacityPerThread=0, -Dio.netty.allocator.numDirectArenas=0, -Dlog4j.shutdownHookEnabled=false, -Dlog4j2.disable.jmx=true, -Djava.locale.providers=SPI,COMPAT, -Xms1g, -Xmx1g, -XX:+UseG1GC, -XX:G1ReservePercent=25, -XX:InitiatingHeapOccupancyPercent=30, -Djava.io.tmpdir=/tmp/elasticsearch-15531185684670036357, -XX:+HeapDumpOnOutOfMemoryError, -XX:HeapDumpPath=data, -XX:ErrorFile=logs/hs_err_pid%p.log, -Xlog:gc*,gc+age=trace,safepoint:file=logs/gc.log:utctime,pid,tags:filecount=32,filesize=64m, -XX:MaxDirectMemorySize=536870912, -Des.path.home=/home/auriga/Desktop/elasctic _search_chat/elasticsearch-7.9.2, -Des.path.conf=/home/auriga/Desktop/elasctic _search_chat/elasticsearch-7.9.2/config, -Des.distribution.flavor=default, -Des.distribution.type=tar, -Des.bundled_jdk=true]" }
{"type": "server", "timestamp": "2022-02-17T11:08:27,384+05:30", "level": "INFO", "component": "o.e.p.PluginsService", "cluster.name": "elasticsearch", "node.name": "auriga-Latitude-E7470", "message": "loaded module [aggs-matrix-stats]" }
{"type": "server", "timestamp": "2022-02-17T11:08:27,384+05:30", "level": "INFO", "component": "o.e.p.PluginsService", "cluster.name": "elasticsearch", "node.name": "auriga-Latitude-E7470", "message": "loaded module [analysis-common]" }
{"type": "server", "timestamp": "2022-02-17T11:08:27,385+05:30", "level": "INFO", "component": "o.e.p.PluginsService", "cluster.name": "elasticsearch", "node.name": "auriga-Latitude-E7470", "message": "loaded module [constant-keyword]" }
{"type": "server", "timestamp": "2022-02-17T11:08:27,385+05:30", "level": "INFO", "component": "o.e.p.PluginsService", "cluster.name": "elasticsearch", "node.name": "auriga-Latitude-E7470", "message": "loaded module [flattened]" }
{"type": "server", "timestamp": "2022-02-17T11:08:27,385+05:30", "level": "INFO", "component": "o.e.p.PluginsService", "cluster.name": "elasticsearch", "node.name": "auriga-Latitude-E7470", "message": "loaded module [frozen-indices]" }
{"type": "server", "timestamp": "2022-02-17T11:08:27,386+05:30", "level": "INFO", "component": "o.e.p.PluginsService", "cluster.name": "elasticsearch", "node.name": "auriga-Latitude-E7470", "message": "loaded module [ingest-common]" }
{"type": "server", "timestamp": "2022-02-17T11:08:27,386+05:30", "level": "INFO", "component": "o.e.p.PluginsService", "cluster.name": "elasticsearch", "node.name": "auriga-Latitude-E7470", "message": "loaded module [ingest-geoip]" }
{"type": "server", "timestamp": "2022-02-17T11:08:27,386+05:30", "level": "INFO", "component": "o.e.p.PluginsService", "cluster.name": "elasticsearch", "node.name": "auriga-Latitude-E7470", "message": "loaded module [ingest-user-agent]" }
{"type": "server", "timestamp": "2022-02-17T11:08:27,386+05:30", "level": "INFO", "component": "o.e.p.PluginsService", "cluster.name": "elasticsearch", "node.name": "auriga-Latitude-E7470", "message": "loaded module [kibana]" }
{"type": "server", "timestamp": "2022-02-17T11:08:27,387+05:30", "level": "INFO", "component": "o.e.p.PluginsService", "cluster.name": "elasticsearch", "node.name": "auriga-Latitude-E7470", "message": "loaded module [lang-expression]" }
{"type": "server", "timestamp": "2022-02-17T11:08:27,387+05:30", "level": "INFO", "component": "o.e.p.PluginsService", "cluster.name": "elasticsearch", "node.name": "auriga-Latitude-E7470", "message": "loaded module [lang-mustache]" }
{"type": "server", "timestamp": "2022-02-17T11:08:27,387+05:30", "level": "INFO", "component": "o.e.p.PluginsService", "cluster.name": "elasticsearch", "node.name": "auriga-Latitude-E7470", "message": "loaded module [lang-painless]" }
{"type": "server", "timestamp": "2022-02-17T11:08:27,388+05:30", "level": "INFO", "component": "o.e.p.PluginsService", "cluster.name": "elasticsearch", "node.name": "auriga-Latitude-E7470", "message": "loaded module [mapper-extras]" }
{"type": "server", "timestamp": "2022-02-17T11:08:27,388+05:30", "level": "INFO", "component": "o.e.p.PluginsService", "cluster.name": "elasticsearch", "node.name": "auriga-Latitude-E7470", "message": "loaded module [parent-join]" }
{"type": "server", "timestamp": "2022-02-17T11:08:27,388+05:30", "level": "INFO", "component": "o.e.p.PluginsService", "cluster.name": "elasticsearch", "node.name": "auriga-Latitude-E7470", "message": "loaded module [percolator]" }
{"type": "server", "timestamp": "2022-02-17T11:08:27,389+05:30", "level": "INFO", "component": "o.e.p.PluginsService", "cluster.name": "elasticsearch", "node.name": "auriga-Latitude-E7470", "message": "loaded module [rank-eval]" }
{"type": "server", "timestamp": "2022-02-17T11:08:27,389+05:30", "level": "INFO", "component": "o.e.p.PluginsService", "cluster.name": "elasticsearch", "node.name": "auriga-Latitude-E7470", "message": "loaded module [reindex]" }
{"type": "server", "timestamp": "2022-02-17T11:08:27,390+05:30", "level": "INFO", "component": "o.e.p.PluginsService", "cluster.name": "elasticsearch", "node.name": "auriga-Latitude-E7470", "message": "loaded module [repository-url]" }
{"type": "server", "timestamp": "2022-02-17T11:08:27,390+05:30", "level": "INFO", "component": "o.e.p.PluginsService", "cluster.name": "elasticsearch", "node.name": "auriga-Latitude-E7470", "message": "loaded module [search-business-rules]" }
{"type": "server", "timestamp": "2022-02-17T11:08:27,390+05:30", "level": "INFO", "component": "o.e.p.PluginsService", "cluster.name": "elasticsearch", "node.name": "auriga-Latitude-E7470", "message": "loaded module [searchable-snapshots]" }
{"type": "server", "timestamp": "2022-02-17T11:08:27,390+05:30", "level": "INFO", "component": "o.e.p.PluginsService", "cluster.name": "elasticsearch", "node.name": "auriga-Latitude-E7470", "message": "loaded module [spatial]" }
{"type": "server", "timestamp": "2022-02-17T11:08:27,391+05:30", "level": "INFO", "component": "o.e.p.PluginsService", "cluster.name": "elasticsearch", "node.name": "auriga-Latitude-E7470", "message": "loaded module [tasks]" }
{"type": "server", "timestamp": "2022-02-17T11:08:27,391+05:30", "level": "INFO", "component": "o.e.p.PluginsService", "cluster.name": "elasticsearch", "node.name": "auriga-Latitude-E7470", "message": "loaded module [transform]" }
{"type": "server", "timestamp": "2022-02-17T11:08:27,391+05:30", "level": "INFO", "component": "o.e.p.PluginsService", "cluster.name": "elasticsearch", "node.name": "auriga-Latitude-E7470", "message": "loaded module [transport-netty4]" }
{"type": "server", "timestamp": "2022-02-17T11:08:27,391+05:30", "level": "INFO", "component": "o.e.p.PluginsService", "cluster.name": "elasticsearch", "node.name": "auriga-Latitude-E7470", "message": "loaded module [vectors]" }
{"type": "server", "timestamp": "2022-02-17T11:08:27,392+05:30", "level": "INFO", "component": "o.e.p.PluginsService", "cluster.name": "elasticsearch", "node.name": "auriga-Latitude-E7470", "message": "loaded module [wildcard]" }
{"type": "server", "timestamp": "2022-02-17T11:08:27,392+05:30", "level": "INFO", "component": "o.e.p.PluginsService", "cluster.name": "elasticsearch", "node.name": "auriga-Latitude-E7470", "message": "loaded module [x-pack-analytics]" }
{"type": "server", "timestamp": "2022-02-17T11:08:27,392+05:30", "level": "INFO", "component": "o.e.p.PluginsService", "cluster.name": "elasticsearch", "node.name": "auriga-Latitude-E7470", "message": "loaded module [x-pack-async]" }
{"type": "server", "timestamp": "2022-02-17T11:08:27,393+05:30", "level": "INFO", "component": "o.e.p.PluginsService", "cluster.name": "elasticsearch", "node.name": "auriga-Latitude-E7470", "message": "loaded module [x-pack-async-search]" }
{"type": "server", "timestamp": "2022-02-17T11:08:27,393+05:30", "level": "INFO", "component": "o.e.p.PluginsService", "cluster.name": "elasticsearch", "node.name": "auriga-Latitude-E7470", "message": "loaded module [x-pack-autoscaling]" }
{"type": "server", "timestamp": "2022-02-17T11:08:27,393+05:30", "level": "INFO", "component": "o.e.p.PluginsService", "cluster.name": "elasticsearch", "node.name": "auriga-Latitude-E7470", "message": "loaded module [x-pack-ccr]" }
{"type": "server", "timestamp": "2022-02-17T11:08:27,394+05:30", "level": "INFO", "component": "o.e.p.PluginsService", "cluster.name": "elasticsearch", "node.name": "auriga-Latitude-E7470", "message": "loaded module [x-pack-core]" }
{"type": "server", "timestamp": "2022-02-17T11:08:27,394+05:30", "level": "INFO", "component": "o.e.p.PluginsService", "cluster.name": "elasticsearch", "node.name": "auriga-Latitude-E7470", "message": "loaded module [x-pack-data-streams]" }
{"type": "server", "timestamp": "2022-02-17T11:08:27,394+05:30", "level": "INFO", "component": "o.e.p.PluginsService", "cluster.name": "elasticsearch", "node.name": "auriga-Latitude-E7470", "message": "loaded module [x-pack-deprecation]" }
{"type": "server", "timestamp": "2022-02-17T11:08:27,395+05:30", "level": "INFO", "component": "o.e.p.PluginsService", "cluster.name": "elasticsearch", "node.name": "auriga-Latitude-E7470", "message": "loaded module [x-pack-enrich]" }
{"type": "server", "timestamp": "2022-02-17T11:08:27,395+05:30", "level": "INFO", "component": "o.e.p.PluginsService", "cluster.name": "elasticsearch", "node.name": "auriga-Latitude-E7470", "message": "loaded module [x-pack-eql]" }
{"type": "server", "timestamp": "2022-02-17T11:08:27,395+05:30", "level": "INFO", "component": "o.e.p.PluginsService", "cluster.name": "elasticsearch", "node.name": "auriga-Latitude-E7470", "message": "loaded module [x-pack-graph]" }
{"type": "server", "timestamp": "2022-02-17T11:08:27,396+05:30", "level": "INFO", "component": "o.e.p.PluginsService", "cluster.name": "elasticsearch", "node.name": "auriga-Latitude-E7470", "message": "loaded module [x-pack-identity-provider]" }
{"type": "server", "timestamp": "2022-02-17T11:08:27,396+05:30", "level": "INFO", "component": "o.e.p.PluginsService", "cluster.name": "elasticsearch", "node.name": "auriga-Latitude-E7470", "message": "loaded module [x-pack-ilm]" }
{"type": "server", "timestamp": "2022-02-17T11:08:27,396+05:30", "level": "INFO", "component": "o.e.p.PluginsService", "cluster.name": "elasticsearch", "node.name": "auriga-Latitude-E7470", "message": "loaded module [x-pack-logstash]" }
{"type": "server", "timestamp": "2022-02-17T11:08:27,397+05:30", "level": "INFO", "component": "o.e.p.PluginsService", "cluster.name": "elasticsearch", "node.name": "auriga-Latitude-E7470", "message": "loaded module [x-pack-ml]" }
{"type": "server", "timestamp": "2022-02-17T11:08:27,397+05:30", "level": "INFO", "component": "o.e.p.PluginsService", "cluster.name": "elasticsearch", "node.name": "auriga-Latitude-E7470", "message": "loaded module [x-pack-monitoring]" }
{"type": "server", "timestamp": "2022-02-17T11:08:27,397+05:30", "level": "INFO", "component": "o.e.p.PluginsService", "cluster.name": "elasticsearch", "node.name": "auriga-Latitude-E7470", "message": "loaded module [x-pack-ql]" }
{"type": "server", "timestamp": "2022-02-17T11:08:27,398+05:30", "level": "INFO", "component": "o.e.p.PluginsService", "cluster.name": "elasticsearch", "node.name": "auriga-Latitude-E7470", "message": "loaded module [x-pack-rollup]" }
{"type": "server", "timestamp": "2022-02-17T11:08:27,398+05:30", "level": "INFO", "component": "o.e.p.PluginsService", "cluster.name": "elasticsearch", "node.name": "auriga-Latitude-E7470", "message": "loaded module [x-pack-security]" }
{"type": "server", "timestamp": "2022-02-17T11:08:27,398+05:30", "level": "INFO", "component": "o.e.p.PluginsService", "cluster.name": "elasticsearch", "node.name": "auriga-Latitude-E7470", "message": "loaded module [x-pack-sql]" }
{"type": "server", "timestamp": "2022-02-17T11:08:27,398+05:30", "level": "INFO", "component": "o.e.p.PluginsService", "cluster.name": "elasticsearch", "node.name": "auriga-Latitude-E7470", "message": "loaded module [x-pack-stack]" }
{"type": "server", "timestamp": "2022-02-17T11:08:27,399+05:30", "level": "INFO", "component": "o.e.p.PluginsService", "cluster.name": "elasticsearch", "node.name": "auriga-Latitude-E7470", "message": "loaded module [x-pack-voting-only-node]" }
{"type": "server", "timestamp": "2022-02-17T11:08:27,399+05:30", "level": "INFO", "component": "o.e.p.PluginsService", "cluster.name": "elasticsearch", "node.name": "auriga-Latitude-E7470", "message": "loaded module [x-pack-watcher]" }
{"type": "server", "timestamp": "2022-02-17T11:08:27,400+05:30", "level": "INFO", "component": "o.e.p.PluginsService", "cluster.name": "elasticsearch", "node.name": "auriga-Latitude-E7470", "message": "no plugins loaded" }
{"type": "server", "timestamp": "2022-02-17T11:08:27,448+05:30", "level": "INFO", "component": "o.e.e.NodeEnvironment", "cluster.name": "elasticsearch", "node.name": "auriga-Latitude-E7470", "message": "using [1] data paths, mounts [[/home (/dev/sda6)]], net usable_space [61.2gb], net total_space [91.1gb], types [ext4]" }
{"type": "server", "timestamp": "2022-02-17T11:08:27,448+05:30", "level": "INFO", "component": "o.e.e.NodeEnvironment", "cluster.name": "elasticsearch", "node.name": "auriga-Latitude-E7470", "message": "heap size [1gb], compressed ordinary object pointers [true]" }
{"type": "server", "timestamp": "2022-02-17T11:08:27,548+05:30", "level": "INFO", "component": "o.e.n.Node", "cluster.name": "elasticsearch", "node.name": "auriga-Latitude-E7470", "message": "node name [auriga-Latitude-E7470], node ID [x1NqcR0oSK6oWW5erWDdXA], cluster name [elasticsearch]" }
{"type": "server", "timestamp": "2022-02-17T11:08:31,382+05:30", "level": "INFO", "component": "o.e.x.m.p.l.CppLogMessageHandler", "cluster.name": "elasticsearch", "node.name": "auriga-Latitude-E7470", "message": "[controller/21010] [Main.cc@114] controller (64 bit): Version 7.9.2 (Build 6a60f0cf2dd5a5) Copyright (c) 2020 Elasticsearch BV" }
{"type": "server", "timestamp": "2022-02-17T11:08:32,352+05:30", "level": "INFO", "component": "o.e.x.s.a.s.FileRolesStore", "cluster.name": "elasticsearch", "node.name": "auriga-Latitude-E7470", "message": "parsed [0] roles from file [/home/auriga/Desktop/elasctic _search_chat/elasticsearch-7.9.2/config/roles.yml]" }
{"type": "server", "timestamp": "2022-02-17T11:08:33,620+05:30", "level": "INFO", "component": "o.e.t.NettyAllocator", "cluster.name": "elasticsearch", "node.name": "auriga-Latitude-E7470", "message": "creating NettyAllocator with the following configs: [name=unpooled, factors={es.unsafe.use_unpooled_allocator=false, g1gc_enabled=true, g1gc_region_size=1mb, heap_size=1gb}]" }
{"type": "server", "timestamp": "2022-02-17T11:08:33,713+05:30", "level": "INFO", "component": "o.e.d.DiscoveryModule", "cluster.name": "elasticsearch", "node.name": "auriga-Latitude-E7470", "message": "using discovery type [zen] and seed hosts providers [settings]" }
{"type": "server", "timestamp": "2022-02-17T11:08:34,203+05:30", "level": "WARN", "component": "o.e.g.DanglingIndicesState", "cluster.name": "elasticsearch", "node.name": "auriga-Latitude-E7470", "message": "gateway.auto_import_dangling_indices is disabled, dangling indices will not be automatically detected or imported and must be managed manually" }
{"type": "server", "timestamp": "2022-02-17T11:08:34,687+05:30", "level": "INFO", "component": "o.e.n.Node", "cluster.name": "elasticsearch", "node.name": "auriga-Latitude-E7470", "message": "initialized" }
{"type": "server", "timestamp": "2022-02-17T11:08:34,688+05:30", "level": "INFO", "component": "o.e.n.Node", "cluster.name": "elasticsearch", "node.name": "auriga-Latitude-E7470", "message": "starting ..." }
{"type": "server", "timestamp": "2022-02-17T11:08:34,805+05:30", "level": "INFO", "component": "o.e.t.TransportService", "cluster.name": "elasticsearch", "node.name": "auriga-Latitude-E7470", "message": "publish_address {127.0.0.1:9301}, bound_addresses {[::1]:9301}, {127.0.0.1:9301}" }
{"type": "server", "timestamp": "2022-02-17T11:08:35,044+05:30", "level": "WARN", "component": "o.e.b.BootstrapChecks", "cluster.name": "elasticsearch", "node.name": "auriga-Latitude-E7470", "message": "the default discovery settings are unsuitable for production use; at least one of [discovery.seed_hosts, discovery.seed_providers, cluster.initial_master_nodes] must be configured" }
{"type": "server", "timestamp": "2022-02-17T11:08:35,057+05:30", "level": "INFO", "component": "o.e.c.c.ClusterBootstrapService", "cluster.name": "elasticsearch", "node.name": "auriga-Latitude-E7470", "message": "no discovery configuration found, will perform best-effort cluster bootstrapping after [3s] unless existing master is discovered" }
{"type": "server", "timestamp": "2022-02-17T11:08:45,066+05:30", "level": "WARN", "component": "o.e.c.c.ClusterFormationFailureHelper", "cluster.name": "elasticsearch", "node.name": "auriga-Latitude-E7470", "message": "master not discovered or elected yet, an election requires two nodes with ids [tTQj_ewZQ6io2VmPOd_iDw, x1NqcR0oSK6oWW5erWDdXA], have discovered [{auriga-Latitude-E7470}{x1NqcR0oSK6oWW5erWDdXA}{QFJLHfN4TBaHizwcyl_VFw}{127.0.0.1}{127.0.0.1:9301}{dilmrt}{ml.machine_memory=16424050688, xpack.installed=true, transform.node=true, ml.max_open_jobs=20}, {auriga-Latitude-E7470}{x1NqcR0oSK6oWW5erWDdXA}{jBrru0WqQfmgxj1luy6kqA}{127.0.0.1}{127.0.0.1:9300}{dilmrt}{ml.machine_memory=16424050688, ml.max_open_jobs=20, xpack.installed=true, transform.node=true}] which is not a quorum; discovery will continue using [127.0.0.1:9300, 127.0.0.1:9302, 127.0.0.1:9303, 127.0.0.1:9304, 127.0.0.1:9305, [::1]:9300, [::1]:9302, [::1]:9303, [::1]:9304, [::1]:9305] from hosts providers and [{auriga-Latitude-E7470}{x1NqcR0oSK6oWW5erWDdXA}{QFJLHfN4TBaHizwcyl_VFw}{127.0.0.1}{127.0.0.1:9301}{dilmrt}{ml.machine_memory=16424050688, xpack.installed=true, transform.node=true, ml.max_open_jobs=20}] from last-known cluster state; node term 2, last-accepted version 0 in term 0" }
{"type": "server", "timestamp": "2022-02-17T11:08:55,074+05:30", "level": "WARN", "component": "o.e.c.c.ClusterFormationFailureHelper", "cluster.name": "elasticsearch", "node.name": "auriga-Latitude-E7470", "message": "master not discovered or elected yet, an election requires two nodes with ids [tTQj_ewZQ6io2VmPOd_iDw, x1NqcR0oSK6oWW5erWDdXA], have discovered [{auriga-Latitude-E7470}{x1NqcR0oSK6oWW5erWDdXA}{QFJLHfN4TBaHizwcyl_VFw}{127.0.0.1}{127.0.0.1:9301}{dilmrt}{ml.machine_memory=16424050688, xpack.installed=true, transform.node=true, ml.max_open_jobs=20}, {auriga-Latitude-E7470}{x1NqcR0oSK6oWW5erWDdXA}{jBrru0WqQfmgxj1luy6kqA}{127.0.0.1}{127.0.0.1:9300}{dilmrt}{ml.machine_memory=16424050688, ml.max_open_jobs=20, xpack.installed=true, transform.node=true}] which is not a quorum; discovery will continue using [127.0.0.1:9300, 127.0.0.1:9302, 127.0.0.1:9303, 127.0.0.1:9304, 127.0.0.1:9305, [::1]:9300, [::1]:9302, [::1]:9303, [::1]:9304, [::1]:9305] from hosts providers and [{auriga-Latitude-E7470}{x1NqcR0oSK6oWW5erWDdXA}{QFJLHfN4TBaHizwcyl_VFw}{127.0.0.1}{127.0.0.1:9301}{dilmrt}{ml.machine_memory=16424050688, xpack.installed=true, transform.node=true, ml.max_open_jobs=20}] from last-known cluster state; node term 2, last-accepted version 0 in term 0" }
{"type": "server", "timestamp": "2022-02-17T11:09:05,073+05:30", "level": "WARN", "component": "o.e.n.Node", "cluster.name": "elasticsearch", "node.name": "auriga-Latitude-E7470", "message": "timed out while waiting for initial discovery state - timeout: 30s" }
{"type": "server", "timestamp": "2022-02-17T11:09:05,079+05:30", "level": "WARN", "component": "o.e.c.c.ClusterFormationFailureHelper", "cluster.name": "elasticsearch", "node.name": "auriga-Latitude-E7470", "message": "master not discovered or elected yet, an election requires two nodes with ids [tTQj_ewZQ6io2VmPOd_iDw, x1NqcR0oSK6oWW5erWDdXA], have discovered [{auriga-Latitude-E7470}{x1NqcR0oSK6oWW5erWDdXA}{QFJLHfN4TBaHizwcyl_VFw}{127.0.0.1}{127.0.0.1:9301}{dilmrt}{ml.machine_memory=16424050688, xpack.installed=true, transform.node=true, ml.max_open_jobs=20}, {auriga-Latitude-E7470}{x1NqcR0oSK6oWW5erWDdXA}{jBrru0WqQfmgxj1luy6kqA}{127.0.0.1}{127.0.0.1:9300}{dilmrt}{ml.machine_memory=16424050688, ml.max_open_jobs=20, xpack.installed=true, transform.node=true}] which is not a quorum; discovery will continue using [127.0.0.1:9300, 127.0.0.1:9302, 127.0.0.1:9303, 127.0.0.1:9304, 127.0.0.1:9305, [::1]:9300, [::1]:9302, [::1]:9303, [::1]:9304, [::1]:9305] from hosts providers and [{auriga-Latitude-E7470}{x1NqcR0oSK6oWW5erWDdXA}{QFJLHfN4TBaHizwcyl_VFw}{127.0.0.1}{127.0.0.1:9301}{dilmrt}{ml.machine_memory=16424050688, xpack.installed=true, transform.node=true, ml.max_open_jobs=20}] from last-known cluster state; node term 2, last-accepted version 0 in term 0" }
{"type": "server", "timestamp": "2022-02-17T11:09:05,089+05:30", "level": "INFO", "component": "o.e.h.AbstractHttpServerTransport", "cluster.name": "elasticsearch", "node.name": "auriga-Latitude-E7470", "message": "publish_address {127.0.0.1:9202}, bound_addresses {[::1]:9202}, {127.0.0.1:9202}" }
{"type": "server", "timestamp": "2022-02-17T11:09:05,090+05:30", "level": "INFO", "component": "o.e.n.Node", "cluster.name": "elasticsearch", "node.name": "auriga-Latitude-E7470", "message": "started" }
{"type": "server", "timestamp": "2022-02-17T11:09:15,085+05:30", "level": "WARN", "component": "o.e.c.c.ClusterFormationFailureHelper", "cluster.name": "elasticsearch", "node.name": "auriga-Latitude-E7470", "message": "master not discovered or elected yet, an election requires two nodes with ids [tTQj_ewZQ6io2VmPOd_iDw, x1NqcR0oSK6oWW5erWDdXA], have discovered [{auriga-Latitude-E7470}{x1NqcR0oSK6oWW5erWDdXA}{QFJLHfN4TBaHizwcyl_VFw}{127.0.0.1}{127.0.0.1:9301}{dilmrt}{ml.machine_memory=16424050688, xpack.installed=true, transform.node=true, ml.max_open_jobs=20}, {auriga-Latitude-E7470}{x1NqcR0oSK6oWW5erWDdXA}{jBrru0WqQfmgxj1luy6kqA}{127.0.0.1}{127.0.0.1:9300}{dilmrt}{ml.machine_memory=16424050688, ml.max_open_jobs=20, xpack.installed=true, transform.node=true}] which is not a quorum; discovery will continue using [127.0.0.1:9300, 127.0.0.1:9302, 127.0.0.1:9303, 127.0.0.1:9304, 127.0.0.1:9305, [::1]:9300, [::1]:9302, [::1]:9303, [::1]:9304, [::1]:9305] from hosts providers and [{auriga-Latitude-E7470}{x1NqcR0oSK6oWW5erWDdXA}{QFJLHfN4TBaHizwcyl_VFw}{127.0.0.1}{127.0.0.1:9301}{dilmrt}{ml.machine_memory=16424050688, xpack.installed=true, transform.node=true, ml.max_open_jobs=20}] from last-known cluster state; node term 2, last-accepted version 0 in term 0" }
{"type": "server", "timestamp": "2022-02-17T11:09:25,095+05:30", "level": "WARN", "component": "o.e.c.c.ClusterFormationFailureHelper", "cluster.name": "elasticsearch", "node.name": "auriga-Latitude-E7470", "message": "master not discovered or elected yet, an election requires two nodes with ids [tTQj_ewZQ6io2VmPOd_iDw, x1NqcR0oSK6oWW5erWDdXA], have discovered [{auriga-Latitude-E7470}{x1NqcR0oSK6oWW5erWDdXA}{QFJLHfN4TBaHizwcyl_VFw}{127.0.0.1}{127.0.0.1:9301}{dilmrt}{ml.machine_memory=16424050688, xpack.installed=true, transform.node=true, ml.max_open_jobs=20}, {auriga-Latitude-E7470}{x1NqcR0oSK6oWW5erWDdXA}{jBrru0WqQfmgxj1luy6kqA}{127.0.0.1}{127.0.0.1:9300}{dilmrt}{ml.machine_memory=16424050688, ml.max_open_jobs=20, xpack.installed=true, transform.node=true}] which is not a quorum; discovery will continue using [127.0.0.1:9300, 127.0.0.1:9302, 127.0.0.1:9303, 127.0.0.1:9304, 127.0.0.1:9305, [::1]:9300, [::1]:9302, [::1]:9303, [::1]:9304, [::1]:9305] from hosts providers and [{auriga-Latitude-E7470}{x1NqcR0oSK6oWW5erWDdXA}{QFJLHfN4TBaHizwcyl_VFw}{127.0.0.1}{127.0.0.1:9301}{dilmrt}{ml.machine_memory=16424050688, xpack.installed=true, transform.node=true, ml.max_open_jobs=20}] from last-known cluster state; node term 2, last-accepted version 0 in term 0" }
{"type": "server", "timestamp": "2022-02-17T11:09:35,099+05:30", "level": "WARN", "component": "o.e.c.c.ClusterFormationFailureHelper", "cluster.name": "elasticsearch", "node.name": "auriga-Latitude-E7470", "message": "master not discovered or elected yet, an election requires two nodes with ids [tTQj_ewZQ6io2VmPOd_iDw, x1NqcR0oSK6oWW5erWDdXA], have discovered [{auriga-Latitude-E7470}{x1NqcR0oSK6oWW5erWDdXA}{QFJLHfN4TBaHizwcyl_VFw}{127.0.0.1}{127.0.0.1:9301}{dilmrt}{ml.machine_memory=16424050688, xpack.installed=true, transform.node=true, ml.max_open_jobs=20}, {auriga-Latitude-E7470}{x1NqcR0oSK6oWW5erWDdXA}{jBrru0WqQfmgxj1luy6kqA}{127.0.0.1}{127.0.0.1:9300}{dilmrt}{ml.machine_memory=16424050688, ml.max_open_jobs=20, xpack.installed=true, transform.node=true}] which is not a quorum; discovery will continue using [127.0.0.1:9300, 127.0.0.1:9302, 127.0.0.1:9303, 127.0.0.1:9304, 127.0.0.1:9305, [::1]:9300, [::1]:9302, [::1]:9303, [::1]:9304, [::1]:9305] from hosts providers and [{auriga-Latitude-E7470}{x1NqcR0oSK6oWW5erWDdXA}{QFJLHfN4TBaHizwcyl_VFw}{127.0.0.1}{127.0.0.1:9301}{dilmrt}{ml.machine_memory=16424050688, xpack.installed=true, transform.node=true, ml.max_open_jobs=20}] from last-known cluster state; node term 2, last-accepted version 0 in term 0" }
{"type": "server", "timestamp": "2022-02-17T11:09:45,104+05:30", "level": "WARN", "component": "o.e.c.c.ClusterFormationFailureHelper", "cluster.name": "elasticsearch", "node.name": "auriga-Latitude-E7470", "message": "master not discovered or elected yet, an election requires two nodes with ids [tTQj_ewZQ6io2VmPOd_iDw, x1NqcR0oSK6oWW5erWDdXA], have discovered [{auriga-Latitude-E7470}{x1NqcR0oSK6oWW5erWDdXA}{QFJLHfN4TBaHizwcyl_VFw}{127.0.0.1}{127.0.0.1:9301}{dilmrt}{ml.machine_memory=16424050688, xpack.installed=true, transform.node=true, ml.max_open_jobs=20}, {auriga-Latitude-E7470}{x1NqcR0oSK6oWW5erWDdXA}{jBrru0WqQfmgxj1luy6kqA}{127.0.0.1}{127.0.0.1:9300}{dilmrt}{ml.machine_memory=16424050688, ml.max_open_jobs=20, xpack.installed=true, transform.node=true}] which is not a quorum; discovery will continue using [127.0.0.1:9300, 127.0.0.1:9302, 127.0.0.1:9303, 127.0.0.1:9304, 127.0.0.1:9305, [::1]:9300, [::1]:9302, [::1]:9303, [::1]:9304, [::1]:9305] from hosts providers and [{auriga-Latitude-E7470}{x1NqcR0oSK6oWW5erWDdXA}{QFJLHfN4TBaHizwcyl_VFw}{127.0.0.1}{127.0.0.1:9301}{dilmrt}{ml.machine_memory=16424050688, xpack.installed=true, transform.node=true, ml.max_open_jobs=20}] from last-known cluster state; node term 2, last-accepted version 0 in term 0" }
{"type": "server", "timestamp": "2022-02-17T11:09:55,113+05:30", "level": "WARN", "component": "o.e.c.c.ClusterFormationFailureHelper", "cluster.name": "elasticsearch", "node.name": "auriga-Latitude-E7470", "message": "master not discovered or elected yet, an election requires two nodes with ids [tTQj_ewZQ6io2VmPOd_iDw, x1NqcR0oSK6oWW5erWDdXA], have discovered [{auriga-Latitude-E7470}{x1NqcR0oSK6oWW5erWDdXA}{QFJLHfN4TBaHizwcyl_VFw}{127.0.0.1}{127.0.0.1:9301}{dilmrt}{ml.machine_memory=16424050688, xpack.installed=true, transform.node=true, ml.max_open_jobs=20}, {auriga-Latitude-E7470}{x1NqcR0oSK6oWW5erWDdXA}{jBrru0WqQfmgxj1luy6kqA}{127.0.0.1}{127.0.0.1:9300}{dilmrt}{ml.machine_memory=16424050688, ml.max_open_jobs=20, xpack.installed=true, transform.node=true}] which is not a quorum; discovery will continue using [127.0.0.1:9300, 127.0.0.1:9302, 127.0.0.1:9303, 127.0.0.1:9304, 127.0.0.1:9305, [::1]:9300, [::1]:9302, [::1]:9303, [::1]:9304, [::1]:9305] from hosts providers and [{auriga-Latitude-E7470}{x1NqcR0oSK6oWW5erWDdXA}{QFJLHfN4TBaHizwcyl_VFw}{127.0.0.1}{127.0.0.1:9301}{dilmrt}{ml.machine_memory=16424050688, xpack.installed=true, transform.node=true, ml.max_open_jobs=20}] from last-known cluster state; node term 2, last-accepted version 0 in term 0" }
{"type": "server", "timestamp": "2022-02-17T11:10:05,119+05:30", "level": "WARN", "component": "o.e.c.c.ClusterFormationFailureHelper", "cluster.name": "elasticsearch", "node.name": "auriga-Latitude-E7470", "message": "master not discovered or elected yet, an election requires two nodes with ids [tTQj_ewZQ6io2VmPOd_iDw, x1NqcR0oSK6oWW5erWDdXA], have discovered [{auriga-Latitude-E7470}{x1NqcR0oSK6oWW5erWDdXA}{QFJLHfN4TBaHizwcyl_VFw}{127.0.0.1}{127.0.0.1:9301}{dilmrt}{ml.machine_memory=16424050688, xpack.installed=true, transform.node=true, ml.max_open_jobs=20}, {auriga-Latitude-E7470}{x1NqcR0oSK6oWW5erWDdXA}{jBrru0WqQfmgxj1luy6kqA}{127.0.0.1}{127.0.0.1:9300}{dilmrt}{ml.machine_memory=16424050688, ml.max_open_jobs=20, xpack.installed=true, transform.node=true}] which is not a quorum; discovery will continue using [127.0.0.1:9300, 127.0.0.1:9302, 127.0.0.1:9303, 127.0.0.1:9304, 127.0.0.1:9305, [::1]:9300, [::1]:9302, [::1]:9303, [::1]:9304, [::1]:9305] from hosts providers and [{auriga-Latitude-E7470}{x1NqcR0oSK6oWW5erWDdXA}{QFJLHfN4TBaHizwcyl_VFw}{127.0.0.1}{127.0.0.1:9301}{dilmrt}{ml.machine_memory=16424050688, xpack.installed=true, transform.node=true, ml.max_open_jobs=20}] from last-known cluster state; node term 2, last-accepted version 0 in term 0" }
{"type": "server", "timestamp": "2022-02-17T11:10:15,123+05:30", "level": "WARN", "component": "o.e.c.c.ClusterFormationFailureHelper", "cluster.name": "elasticsearch", "node.name": "auriga-Latitude-E7470", "message": "master not discovered or elected yet, an election requires two nodes with ids [tTQj_ewZQ6io2VmPOd_iDw, x1NqcR0oSK6oWW5erWDdXA], have discovered [{auriga-Latitude-E7470}{x1NqcR0oSK6oWW5erWDdXA}{QFJLHfN4TBaHizwcyl_VFw}{127.0.0.1}{127.0.0.1:9301}{dilmrt}{ml.machine_memory=16424050688, xpack.installed=true, transform.node=true, ml.max_open_jobs=20}, {auriga-Latitude-E7470}{x1NqcR0oSK6oWW5erWDdXA}{jBrru0WqQfmgxj1luy6kqA}{127.0.0.1}{127.0.0.1:9300}{dilmrt}{ml.machine_memory=16424050688, ml.max_open_jobs=20, xpack.installed=true, transform.node=true}] which is not a quorum; discovery will continue using [127.0.0.1:9300, 127.0.0.1:9302, 127.0.0.1:9303, 127.0.0.1:9304, 127.0.0.1:9305, [::1]:9300, [::1]:9302, [::1]:9303, [::1]:9304, [::1]:9305] from hosts providers and [{auriga-Latitude-E7470}{x1NqcR0oSK6oWW5erWDdXA}{QFJLHfN4TBaHizwcyl_VFw}{127.0.0.1}{127.0.0.1:9301}{dilmrt}{ml.machine_memory=16424050688, xpack.installed=true, transform.node=true, ml.max_open_jobs=20}] from last-known cluster state; node term 2, last-accepted version 0 in term 0" }
{"type": "server", "timestamp": "2022-02-17T11:10:25,128+05:30", "level": "WARN", "component": "o.e.c.c.ClusterFormationFailureHelper", "cluster.name": "elasticsearch", "node.name": "auriga-Latitude-E7470", "message": "master not discovered or elected yet, an election requires two nodes with ids [tTQj_ewZQ6io2VmPOd_iDw, x1NqcR0oSK6oWW5erWDdXA], have discovered [{auriga-Latitude-E7470}{x1NqcR0oSK6oWW5erWDdXA}{QFJLHfN4TBaHizwcyl_VFw}{127.0.0.1}{127.0.0.1:9301}{dilmrt}{ml.machine_memory=16424050688, xpack.installed=true, transform.node=true, ml.max_open_jobs=20}, {auriga-Latitude-E7470}{x1NqcR0oSK6oWW5erWDdXA}{jBrru0WqQfmgxj1luy6kqA}{127.0.0.1}{127.0.0.1:9300}{dilmrt}{ml.machine_memory=16424050688, ml.max_open_jobs=20, xpack.installed=true, transform.node=true}] which is not a quorum; discovery will continue using [127.0.0.1:9300, 127.0.0.1:9302, 127.0.0.1:9303, 127.0.0.1:9304, 127.0.0.1:9305, [::1]:9300, [::1]:9302, [::1]:9303, [::1]:9304, [::1]:9305] from hosts providers and [{auriga-Latitude-E7470}{x1NqcR0oSK6oWW5erWDdXA}{QFJLHfN4TBaHizwcyl_VFw}{127.0.0.1}{127.0.0.1:9301}{dilmrt}{ml.machine_memory=16424050688, xpack.installed=true, transform.node=true, ml.max_open_jobs=20}] from last-known cluster state; node term 2, last-accepted version 0 in term 0" }
{"type": "server", "timestamp": "2022-02-17T11:10:35,133+05:30", "level": "WARN", "component": "o.e.c.c.ClusterFormationFailureHelper", "cluster.name": "elasticsearch", "node.name": "auriga-Latitude-E7470", "message": "master not discovered or elected yet, an election requires two nodes with ids [tTQj_ewZQ6io2VmPOd_iDw, x1NqcR0oSK6oWW5erWDdXA], have discovered [{auriga-Latitude-E7470}{x1NqcR0oSK6oWW5erWDdXA}{QFJLHfN4TBaHizwcyl_VFw}{127.0.0.1}{127.0.0.1:9301}{dilmrt}{ml.machine_memory=16424050688, xpack.installed=true, transform.node=true, ml.max_open_jobs=20}, {auriga-Latitude-E7470}{x1NqcR0oSK6oWW5erWDdXA}{jBrru0WqQfmgxj1luy6kqA}{127.0.0.1}{127.0.0.1:9300}{dilmrt}{ml.machine_memory=16424050688, ml.max_open_jobs=20, xpack.installed=true, transform.node=true}] which is not a quorum; discovery will continue using [127.0.0.1:9300, 127.0.0.1:9302, 127.0.0.1:9303, 127.0.0.1:9304, 127.0.0.1:9305, [::1]:9300, [::1]:9302, [::1]:9303, [::1]:9304, [::1]:9305] from hosts providers and [{auriga-Latitude-E7470}{x1NqcR0oSK6oWW5erWDdXA}{QFJLHfN4TBaHizwcyl_VFw}{127.0.0.1}{127.0.0.1:9301}{dilmrt}{ml.machine_memory=16424050688, xpack.installed=true, transform.node=true, ml.max_open_jobs=20}] from last-known cluster state; node term 2, last-accepted version 0 in term 0" }
{"type": "server", "timestamp": "2022-02-17T11:10:45,139+05:30", "level": "WARN", "component": "o.e.c.c.ClusterFormationFailureHelper", "cluster.name": "elasticsearch", "node.name": "auriga-Latitude-E7470", "message": "master not discovered or elected yet, an election requires two nodes with ids [tTQj_ewZQ6io2VmPOd_iDw, x1NqcR0oSK6oWW5erWDdXA], have discovered [{auriga-Latitude-E7470}{x1NqcR0oSK6oWW5erWDdXA}{QFJLHfN4TBaHizwcyl_VFw}{127.0.0.1}{127.0.0.1:9301}{dilmrt}{ml.machine_memory=16424050688, xpack.installed=true, transform.node=true, ml.max_open_jobs=20}, {auriga-Latitude-E7470}{x1NqcR0oSK6oWW5erWDdXA}{jBrru0WqQfmgxj1luy6kqA}{127.0.0.1}{127.0.0.1:9300}{dilmrt}{ml.machine_memory=16424050688, ml.max_open_jobs=20, xpack.installed=true, transform.node=true}] which is not a quorum; discovery will continue using [127.0.0.1:9300, 127.0.0.1:9302, 127.0.0.1:9303, 127.0.0.1:9304, 127.0.0.1:9305, [::1]:9300, [::1]:9302, [::1]:9303, [::1]:9304, [::1]:9305] from hosts providers and [{auriga-Latitude-E7470}{x1NqcR0oSK6oWW5erWDdXA}{QFJLHfN4TBaHizwcyl_VFw}{127.0.0.1}{127.0.0.1:9301}{dilmrt}{ml.machine_memory=16424050688, xpack.installed=true, transform.node=true, ml.max_open_jobs=20}] from last-known cluster state; node term 2, last-accepted version 0 in term 0" }
{"type": "server", "timestamp": "2022-02-17T11:10:55,145+05:30", "level": "WARN", "component": "o.e.c.c.ClusterFormationFailureHelper", "cluster.name": "elasticsearch", "node.name": "auriga-Latitude-E7470", "message": "master not discovered or elected yet, an election requires two nodes with ids [tTQj_ewZQ6io2VmPOd_iDw, x1NqcR0oSK6oWW5erWDdXA], have discovered [{auriga-Latitude-E7470}{x1NqcR0oSK6oWW5erWDdXA}{QFJLHfN4TBaHizwcyl_VFw}{127.0.0.1}{127.0.0.1:9301}{dilmrt}{ml.machine_memory=16424050688, xpack.installed=true, transform.node=true, ml.max_open_jobs=20}, {auriga-Latitude-E7470}{x1NqcR0oSK6oWW5erWDdXA}{jBrru0WqQfmgxj1luy6kqA}{127.0.0.1}{127.0.0.1:9300}{dilmrt}{ml.machine_memory=16424050688, ml.max_open_jobs=20, xpack.installed=true, transform.node=true}] which is not a quorum; discovery will continue using [127.0.0.1:9300, 127.0.0.1:9302, 127.0.0.1:9303, 127.0.0.1:9304, 127.0.0.1:9305, [::1]:9300, [::1]:9302, [::1]:9303, [::1]:9304, [::1]:9305] from hosts providers and [{auriga-Latitude-E7470}{x1NqcR0oSK6oWW5erWDdXA}{QFJLHfN4TBaHizwcyl_VFw}{127.0.0.1}{127.0.0.1:9301}{dilmrt}{ml.machine_memory=16424050688, xpack.installed=true, transform.node=true, ml.max_open_jobs=20}] from last-known cluster state; node term 2, last-accepted version 0 in term 0" }
{"type": "server", "timestamp": "2022-02-17T11:11:05,150+05:30", "level": "WARN", "component": "o.e.c.c.ClusterFormationFailureHelper", "cluster.name": "elasticsearch", "node.name": "auriga-Latitude-E7470", "message": "master not discovered or elected yet, an election requires two nodes with ids [tTQj_ewZQ6io2VmPOd_iDw, x1NqcR0oSK6oWW5erWDdXA], have discovered [{auriga-Latitude-E7470}{x1NqcR0oSK6oWW5erWDdXA}{QFJLHfN4TBaHizwcyl_VFw}{127.0.0.1}{127.0.0.1:9301}{dilmrt}{ml.machine_memory=16424050688, xpack.installed=true, transform.node=true, ml.max_open_jobs=20}, {auriga-Latitude-E7470}{x1NqcR0oSK6oWW5erWDdXA}{jBrru0WqQfmgxj1luy6kqA}{127.0.0.1}{127.0.0.1:9300}{dilmrt}{ml.machine_memory=16424050688, ml.max_open_jobs=20, xpack.installed=true, transform.node=true}] which is not a quorum; discovery will continue using [127.0.0.1:9300, 127.0.0.1:9302, 127.0.0.1:9303, 127.0.0.1:9304, 127.0.0.1:9305, [::1]:9300, [::1]:9302, [::1]:9303, [::1]:9304, [::1]:9305] from hosts providers and [{auriga-Latitude-E7470}{x1NqcR0oSK6oWW5erWDdXA}{QFJLHfN4TBaHizwcyl_VFw}{127.0.0.1}{127.0.0.1:9301}{dilmrt}{ml.machine_memory=16424050688, xpack.installed=true, transform.node=true, ml.max_open_jobs=20}] from last-known cluster state; node term 2, last-accepted version 0 in term 0" }
{"type": "server", "timestamp": "2022-02-17T11:11:15,155+05:30", "level": "WARN", "component": "o.e.c.c.ClusterFormationFailureHelper", "cluster.name": "elasticsearch", "node.name": "auriga-Latitude-E7470", "message": "master not discovered or elected yet, an election requires two nodes with ids [tTQj_ewZQ6io2VmPOd_iDw, x1NqcR0oSK6oWW5erWDdXA], have discovered [{auriga-Latitude-E7470}{x1NqcR0oSK6oWW5erWDdXA}{QFJLHfN4TBaHizwcyl_VFw}{127.0.0.1}{127.0.0.1:9301}{dilmrt}{ml.machine_memory=16424050688, xpack.installed=true, transform.node=true, ml.max_open_jobs=20}, {auriga-Latitude-E7470}{x1NqcR0oSK6oWW5erWDdXA}{jBrru0WqQfmgxj1luy6kqA}{127.0.0.1}{127.0.0.1:9300}{dilmrt}{ml.machine_memory=16424050688, ml.max_open_jobs=20, xpack.installed=true, transform.node=true}] which is not a quorum; discovery will continue using [127.0.0.1:9300, 127.0.0.1:9302, 127.0.0.1:9303, 127.0.0.1:9304, 127.0.0.1:9305, [::1]:9300, [::1]:9302, [::1]:9303, [::1]:9304, [::1]:9305] from hosts providers and [{auriga-Latitude-E7470}{x1NqcR0oSK6oWW5erWDdXA}{QFJLHfN4TBaHizwcyl_VFw}{127.0.0.1}{127.0.0.1:9301}{dilmrt}{ml.machine_memory=16424050688, xpack.installed=true, transform.node=true, ml.max_open_jobs=20}] from last-known cluster state; node term 2, last-accepted version 0 in term 0" }
{"type": "server", "timestamp": "2022-02-17T11:11:25,160+05:30", "level": "WARN", "component": "o.e.c.c.ClusterFormationFailureHelper", "cluster.name": "elasticsearch", "node.name": "auriga-Latitude-E7470", "message": "master not discovered or elected yet, an election requires two nodes with ids [tTQj_ewZQ6io2VmPOd_iDw, x1NqcR0oSK6oWW5erWDdXA], have discovered [{auriga-Latitude-E7470}{x1NqcR0oSK6oWW5erWDdXA}{QFJLHfN4TBaHizwcyl_VFw}{127.0.0.1}{127.0.0.1:9301}{dilmrt}{ml.machine_memory=16424050688, xpack.installed=true, transform.node=true, ml.max_open_jobs=20}, {auriga-Latitude-E7470}{x1NqcR0oSK6oWW5erWDdXA}{jBrru0WqQfmgxj1luy6kqA}{127.0.0.1}{127.0.0.1:9300}{dilmrt}{ml.machine_memory=16424050688, ml.max_open_jobs=20, xpack.installed=true, transform.node=true}] which is not a quorum; discovery will continue using [127.0.0.1:9300, 127.0.0.1:9302, 127.0.0.1:9303, 127.0.0.1:9304, 127.0.0.1:9305, [::1]:9300, [::1]:9302, [::1]:9303, [::1]:9304, [::1]:9305] from hosts providers and [{auriga-Latitude-E7470}{x1NqcR0oSK6oWW5erWDdXA}{QFJLHfN4TBaHizwcyl_VFw}{127.0.0.1}{127.0.0.1:9301}{dilmrt}{ml.machine_memory=16424050688, xpack.installed=true, transform.node=true, ml.max_open_jobs=20}] from last-known cluster state; node term 2, last-accepted version 0 in term 0" }
{"type": "server", "timestamp": "2022-02-17T11:11:35,163+05:30", "level": "WARN", "component": "o.e.c.c.ClusterFormationFailureHelper", "cluster.name": "elasticsearch", "node.name": "auriga-Latitude-E7470", "message": "master not discovered or elected yet, an election requires two nodes with ids [tTQj_ewZQ6io2VmPOd_iDw, x1NqcR0oSK6oWW5erWDdXA], have discovered [{auriga-Latitude-E7470}{x1NqcR0oSK6oWW5erWDdXA}{QFJLHfN4TBaHizwcyl_VFw}{127.0.0.1}{127.0.0.1:9301}{dilmrt}{ml.machine_memory=16424050688, xpack.installed=true, transform.node=true, ml.max_open_jobs=20}, {auriga-Latitude-E7470}{x1NqcR0oSK6oWW5erWDdXA}{jBrru0WqQfmgxj1luy6kqA}{127.0.0.1}{127.0.0.1:9300}{dilmrt}{ml.machine_memory=16424050688, ml.max_open_jobs=20, xpack.installed=true, transform.node=true}] which is not a quorum; discovery will continue using [127.0.0.1:9300, 127.0.0.1:9302, 127.0.0.1:9303, 127.0.0.1:9304, 127.0.0.1:9305, [::1]:9300, [::1]:9302, [::1]:9303, [::1]:9304, [::1]:9305] from hosts providers and [{auriga-Latitude-E7470}{x1NqcR0oSK6oWW5erWDdXA}{QFJLHfN4TBaHizwcyl_VFw}{127.0.0.1}{127.0.0.1:9301}{dilmrt}{ml.machine_memory=16424050688, xpack.installed=true, transform.node=true, ml.max_open_jobs=20}] from last-known cluster state; node term 2, last-accepted version 0 in term 0" }
{"type": "server", "timestamp": "2022-02-17T11:11:45,167+05:30", "level": "WARN", "component": "o.e.c.c.ClusterFormationFailureHelper", "cluster.name": "elasticsearch", "node.name": "auriga-Latitude-E7470", "message": "master not discovered or elected yet, an election requires two nodes with ids [tTQj_ewZQ6io2VmPOd_iDw, x1NqcR0oSK6oWW5erWDdXA], have discovered [{auriga-Latitude-E7470}{x1NqcR0oSK6oWW5erWDdXA}{QFJLHfN4TBaHizwcyl_VFw}{127.0.0.1}{127.0.0.1:9301}{dilmrt}{ml.machine_memory=16424050688, xpack.installed=true, transform.node=true, ml.max_open_jobs=20}, {auriga-Latitude-E7470}{x1NqcR0oSK6oWW5erWDdXA}{jBrru0WqQfmgxj1luy6kqA}{127.0.0.1}{127.0.0.1:9300}{dilmrt}{ml.machine_memory=16424050688, ml.max_open_jobs=20, xpack.installed=true, transform.node=true}] which is not a quorum; discovery will continue using [127.0.0.1:9300, 127.0.0.1:9302, 127.0.0.1:9303, 127.0.0.1:9304, 127.0.0.1:9305, [::1]:9300, [::1]:9302, [::1]:9303, [::1]:9304, [::1]:9305] from hosts providers and [{auriga-Latitude-E7470}{x1NqcR0oSK6oWW5erWDdXA}{QFJLHfN4TBaHizwcyl_VFw}{127.0.0.1}{127.0.0.1:9301}{dilmrt}{ml.machine_memory=16424050688, xpack.installed=true, transform.node=true, ml.max_open_jobs=20}] from last-known cluster state; node term 2, last-accepted version 0 in term 0" }
{"type": "server", "timestamp": "2022-02-17T11:11:55,172+05:30", "level": "WARN", "component": "o.e.c.c.ClusterFormationFailureHelper", "cluster.name": "elasticsearch", "node.name": "auriga-Latitude-E7470", "message": "master not discovered or elected yet, an election requires two nodes with ids [tTQj_ewZQ6io2VmPOd_iDw, x1NqcR0oSK6oWW5erWDdXA], have discovered [{auriga-Latitude-E7470}{x1NqcR0oSK6oWW5erWDdXA}{QFJLHfN4TBaHizwcyl_VFw}{127.0.0.1}{127.0.0.1:9301}{dilmrt}{ml.machine_memory=16424050688, xpack.installed=true, transform.node=true, ml.max_open_jobs=20}, {auriga-Latitude-E7470}{x1NqcR0oSK6oWW5erWDdXA}{jBrru0WqQfmgxj1luy6kqA}{127.0.0.1}{127.0.0.1:9300}{dilmrt}{ml.machine_memory=16424050688, ml.max_open_jobs=20, xpack.installed=true, transform.node=true}] which is not a quorum; discovery will continue using [127.0.0.1:9300, 127.0.0.1:9302, 127.0.0.1:9303, 127.0.0.1:9304, 127.0.0.1:9305, [::1]:9300, [::1]:9302, [::1]:9303, [::1]:9304, [::1]:9305] from hosts providers and [{auriga-Latitude-E7470}{x1NqcR0oSK6oWW5erWDdXA}{QFJLHfN4TBaHizwcyl_VFw}{127.0.0.1}{127.0.0.1:9301}{dilmrt}{ml.machine_memory=16424050688, xpack.installed=true, transform.node=true, ml.max_open_jobs=20}] from last-known cluster state; node term 2, last-accepted version 0 in term 0" }
{"type": "server", "timestamp": "2022-02-17T11:12:05,179+05:30", "level": "WARN", "component": "o.e.c.c.ClusterFormationFailureHelper", "cluster.name": "elasticsearch", "node.name": "auriga-Latitude-E7470", "message": "master not discovered or elected yet, an election requires two nodes with ids [tTQj_ewZQ6io2VmPOd_iDw, x1NqcR0oSK6oWW5erWDdXA], have discovered [{auriga-Latitude-E7470}{x1NqcR0oSK6oWW5erWDdXA}{QFJLHfN4TBaHizwcyl_VFw}{127.0.0.1}{127.0.0.1:9301}{dilmrt}{ml.machine_memory=16424050688, xpack.installed=true, transform.node=true, ml.max_open_jobs=20}, {auriga-Latitude-E7470}{x1NqcR0oSK6oWW5erWDdXA}{jBrru0WqQfmgxj1luy6kqA}{127.0.0.1}{127.0.0.1:9300}{dilmrt}{ml.machine_memory=16424050688, ml.max_open_jobs=20, xpack.installed=true, transform.node=true}] which is not a quorum; discovery will continue using [127.0.0.1:9300, 127.0.0.1:9302, 127.0.0.1:9303, 127.0.0.1:9304, 127.0.0.1:9305, [::1]:9300, [::1]:9302, [::1]:9303, [::1]:9304, [::1]:9305] from hosts providers and [{auriga-Latitude-E7470}{x1NqcR0oSK6oWW5erWDdXA}{QFJLHfN4TBaHizwcyl_VFw}{127.0.0.1}{127.0.0.1:9301}{dilmrt}{ml.machine_memory=16424050688, xpack.installed=true, transform.node=true, ml.max_open_jobs=20}] from last-known cluster state; node term 2, last-accepted version 0 in term 0" }
