[2022-04-01T11:29:24.947+0000][512167][gc] Using G1
[2022-04-01T11:29:26.564+0000][512167][gc,init] Version: 15+36 (release)
[2022-04-01T11:29:26.564+0000][512167][gc,init] CPUs: 4 total, 4 available
[2022-04-01T11:29:26.564+0000][512167][gc,init] Memory: 15663M
[2022-04-01T11:29:26.564+0000][512167][gc,init] Large Page Support: Disabled
[2022-04-01T11:29:26.564+0000][512167][gc,init] NUMA Support: Disabled
[2022-04-01T11:29:26.564+0000][512167][gc,init] Compressed Oops: Enabled (32-bit)
[2022-04-01T11:29:26.564+0000][512167][gc,init] Heap Region Size: 1M
[2022-04-01T11:29:26.564+0000][512167][gc,init] Heap Min Capacity: 1G
[2022-04-01T11:29:26.564+0000][512167][gc,init] Heap Initial Capacity: 1G
[2022-04-01T11:29:26.564+0000][512167][gc,init] Heap Max Capacity: 1G
[2022-04-01T11:29:26.564+0000][512167][gc,init] Pre-touch: Enabled
[2022-04-01T11:29:26.564+0000][512167][gc,init] Parallel Workers: 4
[2022-04-01T11:29:26.564+0000][512167][gc,init] Concurrent Workers: 1
[2022-04-01T11:29:26.564+0000][512167][gc,init] Concurrent Refinement Workers: 4
[2022-04-01T11:29:26.564+0000][512167][gc,init] Periodic GC: Disabled
[2022-04-01T11:29:26.564+0000][512167][gc,cds ] Mark closed archive regions in map: [0x00000000fff00000, 0x00000000fff7bff8]
[2022-04-01T11:29:26.564+0000][512167][gc,cds ] Mark open archive regions in map: [0x00000000ffe00000, 0x00000000ffe51ff8]
[2022-04-01T11:29:26.564+0000][512167][gc,metaspace] CDS archive(s) mapped at: [0x0000000800000000-0x0000000800b29000-0x0000000800b29000), size 11702272, SharedBaseAddress: 0x0000000800000000, ArchiveRelocationMode: 0.
[2022-04-01T11:29:26.564+0000][512167][gc,metaspace] Compressed class space mapped at: 0x0000000800b2c000-0x0000000840b2c000, size: 1073741824
[2022-04-01T11:29:26.566+0000][512167][gc,metaspace] Narrow klass base: 0x0000000800000000, Narrow klass shift: 3, Narrow klass range: 0x100000000
[2022-04-01T11:29:28.331+0000][512167][safepoint   ] Safepoint "Cleanup", Time since last: 1746728844 ns, Reaching safepoint: 313361 ns, At safepoint: 13100 ns, Total: 326461 ns
[2022-04-01T11:29:29.358+0000][512167][safepoint   ] Safepoint "Cleanup", Time since last: 1026353384 ns, Reaching safepoint: 163147 ns, At safepoint: 3953 ns, Total: 167100 ns
[2022-04-01T11:29:30.838+0000][512167][safepoint   ] Safepoint "Cleanup", Time since last: 1480036024 ns, Reaching safepoint: 296655 ns, At safepoint: 5513 ns, Total: 302168 ns
[2022-04-01T11:29:31.936+0000][512167][safepoint   ] Safepoint "Cleanup", Time since last: 1097144250 ns, Reaching safepoint: 1078361 ns, At safepoint: 12285 ns, Total: 1090646 ns
[2022-04-01T11:29:32.937+0000][512167][safepoint   ] Safepoint "Cleanup", Time since last: 1000280039 ns, Reaching safepoint: 160153 ns, At safepoint: 6224 ns, Total: 166377 ns
[2022-04-01T11:29:33.950+0000][512167][safepoint   ] Safepoint "Cleanup", Time since last: 1005491475 ns, Reaching safepoint: 7991382 ns, At safepoint: 35745 ns, Total: 8027127 ns
[2022-04-01T11:29:34.428+0000][512167][gc,start    ] GC(0) Pause Young (Normal) (G1 Evacuation Pause)
[2022-04-01T11:29:34.432+0000][512167][gc,task     ] GC(0) Using 4 workers of 4 for evacuation
[2022-04-01T11:29:34.432+0000][512167][gc,age      ] GC(0) Desired survivor size 3670016 bytes, new threshold 15 (max threshold 15)
[2022-04-01T11:29:34.470+0000][512167][gc,age      ] GC(0) Age table with threshold 15 (max threshold 15)
[2022-04-01T11:29:34.470+0000][512167][gc,age      ] GC(0) - age   1:    5891008 bytes,    5891008 total
[2022-04-01T11:29:34.470+0000][512167][gc,phases   ] GC(0)   Pre Evacuate Collection Set: 0.3ms
[2022-04-01T11:29:34.470+0000][512167][gc,phases   ] GC(0)   Merge Heap Roots: 0.1ms
[2022-04-01T11:29:34.470+0000][512167][gc,phases   ] GC(0)   Evacuate Collection Set: 21.6ms
[2022-04-01T11:29:34.470+0000][512167][gc,phases   ] GC(0)   Post Evacuate Collection Set: 15.8ms
[2022-04-01T11:29:34.470+0000][512167][gc,phases   ] GC(0)   Other: 4.8ms
[2022-04-01T11:29:34.470+0000][512167][gc,heap     ] GC(0) Eden regions: 51->0(45)
[2022-04-01T11:29:34.470+0000][512167][gc,heap     ] GC(0) Survivor regions: 0->6(7)
[2022-04-01T11:29:34.470+0000][512167][gc,heap     ] GC(0) Old regions: 0->0
[2022-04-01T11:29:34.470+0000][512167][gc,heap     ] GC(0) Archive regions: 2->2
[2022-04-01T11:29:34.470+0000][512167][gc,heap     ] GC(0) Humongous regions: 1->1
[2022-04-01T11:29:34.470+0000][512167][gc,metaspace] GC(0) Metaspace: 13598K(14080K)->13598K(14080K) NonClass: 11996K(12288K)->11996K(12288K) Class: 1602K(1792K)->1602K(1792K)
[2022-04-01T11:29:34.470+0000][512167][gc          ] GC(0) Pause Young (Normal) (G1 Evacuation Pause) 52M->7M(1024M) 42.677ms
[2022-04-01T11:29:34.470+0000][512167][gc,cpu      ] GC(0) User=0.03s Sys=0.01s Real=0.04s
[2022-04-01T11:29:34.470+0000][512167][safepoint   ] Safepoint "G1CollectForAllocation", Time since last: 476830620 ns, Reaching safepoint: 258512 ns, At safepoint: 42772288 ns, Total: 43030800 ns
[2022-04-01T11:29:35.482+0000][512167][safepoint   ] Safepoint "Cleanup", Time since last: 1002493003 ns, Reaching safepoint: 8949738 ns, At safepoint: 10679 ns, Total: 8960417 ns
[2022-04-01T11:29:36.483+0000][512167][safepoint   ] Safepoint "Cleanup", Time since last: 1000188294 ns, Reaching safepoint: 1137432 ns, At safepoint: 15228 ns, Total: 1152660 ns
[2022-04-01T11:29:37.484+0000][512167][safepoint   ] Safepoint "Cleanup", Time since last: 1000200590 ns, Reaching safepoint: 340955 ns, At safepoint: 17889 ns, Total: 358844 ns
[2022-04-01T11:29:37.828+0000][512167][gc,start    ] GC(1) Pause Young (Normal) (G1 Evacuation Pause)
[2022-04-01T11:29:37.828+0000][512167][gc,task     ] GC(1) Using 4 workers of 4 for evacuation
[2022-04-01T11:29:37.828+0000][512167][gc,age      ] GC(1) Desired survivor size 3670016 bytes, new threshold 1 (max threshold 15)
[2022-04-01T11:29:37.913+0000][512167][gc,age      ] GC(1) Age table with threshold 1 (max threshold 15)
[2022-04-01T11:29:37.913+0000][512167][gc,age      ] GC(1) - age   1:    1854728 bytes,    1854728 total
[2022-04-01T11:29:37.914+0000][512167][gc,phases   ] GC(1)   Pre Evacuate Collection Set: 0.5ms
[2022-04-01T11:29:37.914+0000][512167][gc,phases   ] GC(1)   Merge Heap Roots: 0.1ms
[2022-04-01T11:29:37.914+0000][512167][gc,phases   ] GC(1)   Evacuate Collection Set: 82.4ms
[2022-04-01T11:29:37.914+0000][512167][gc,phases   ] GC(1)   Post Evacuate Collection Set: 2.1ms
[2022-04-01T11:29:37.914+0000][512167][gc,phases   ] GC(1)   Other: 0.5ms
[2022-04-01T11:29:37.914+0000][512167][gc,heap     ] GC(1) Eden regions: 45->0(53)
[2022-04-01T11:29:37.914+0000][512167][gc,heap     ] GC(1) Survivor regions: 6->3(7)
[2022-04-01T11:29:37.914+0000][512167][gc,heap     ] GC(1) Old regions: 0->6
[2022-04-01T11:29:37.914+0000][512167][gc,heap     ] GC(1) Archive regions: 2->2
[2022-04-01T11:29:37.914+0000][512167][gc,heap     ] GC(1) Humongous regions: 1->1
[2022-04-01T11:29:37.914+0000][512167][gc,metaspace] GC(1) Metaspace: 14615K(15232K)->14615K(15232K) NonClass: 12918K(13312K)->12918K(13312K) Class: 1696K(1920K)->1696K(1920K)
[2022-04-01T11:29:37.914+0000][512167][gc          ] GC(1) Pause Young (Normal) (G1 Evacuation Pause) 52M->9M(1024M) 85.809ms
[2022-04-01T11:29:37.914+0000][512167][gc,cpu      ] GC(1) User=0.06s Sys=0.00s Real=0.08s
[2022-04-01T11:29:37.914+0000][512167][safepoint   ] Safepoint "G1CollectForAllocation", Time since last: 344289847 ns, Reaching safepoint: 114368 ns, At safepoint: 85977383 ns, Total: 86091751 ns
[2022-04-01T11:29:38.921+0000][512167][safepoint   ] Safepoint "Cleanup", Time since last: 1001321560 ns, Reaching safepoint: 6002016 ns, At safepoint: 10654 ns, Total: 6012670 ns
[2022-04-01T11:29:38.968+0000][512167][safepoint   ] Safepoint "ICBufferFull", Time since last: 46309291 ns, Reaching safepoint: 172544 ns, At safepoint: 11117 ns, Total: 183661 ns
[2022-04-01T11:29:39.015+0000][512167][safepoint   ] Safepoint "ICBufferFull", Time since last: 47336703 ns, Reaching safepoint: 107665 ns, At safepoint: 7362 ns, Total: 115027 ns
[2022-04-01T11:29:39.087+0000][512167][safepoint   ] Safepoint "ICBufferFull", Time since last: 71307223 ns, Reaching safepoint: 326457 ns, At safepoint: 9703 ns, Total: 336160 ns
[2022-04-01T11:29:39.107+0000][512167][safepoint   ] Safepoint "ICBufferFull", Time since last: 19443502 ns, Reaching safepoint: 168176 ns, At safepoint: 5731 ns, Total: 173907 ns
[2022-04-01T11:29:39.127+0000][512167][safepoint   ] Safepoint "ICBufferFull", Time since last: 19939196 ns, Reaching safepoint: 237536 ns, At safepoint: 12787 ns, Total: 250323 ns
[2022-04-01T11:29:39.174+0000][512167][safepoint   ] Safepoint "ICBufferFull", Time since last: 47363387 ns, Reaching safepoint: 155820 ns, At safepoint: 7974 ns, Total: 163794 ns
[2022-04-01T11:29:39.203+0000][512167][safepoint   ] Safepoint "ICBufferFull", Time since last: 28536415 ns, Reaching safepoint: 212432 ns, At safepoint: 8977 ns, Total: 221409 ns
[2022-04-01T11:29:39.242+0000][512167][safepoint   ] Safepoint "ICBufferFull", Time since last: 39155882 ns, Reaching safepoint: 252435 ns, At safepoint: 11326 ns, Total: 263761 ns
[2022-04-01T11:29:39.295+0000][512167][safepoint   ] Safepoint "ICBufferFull", Time since last: 51745347 ns, Reaching safepoint: 696618 ns, At safepoint: 14751 ns, Total: 711369 ns
[2022-04-01T11:29:39.333+0000][512167][safepoint   ] Safepoint "ICBufferFull", Time since last: 37654791 ns, Reaching safepoint: 241746 ns, At safepoint: 16128 ns, Total: 257874 ns
[2022-04-01T11:29:39.351+0000][512167][safepoint   ] Safepoint "ICBufferFull", Time since last: 18366188 ns, Reaching safepoint: 125688 ns, At safepoint: 5641 ns, Total: 131329 ns
[2022-04-01T11:29:39.377+0000][512167][safepoint   ] Safepoint "ICBufferFull", Time since last: 25627273 ns, Reaching safepoint: 155543 ns, At safepoint: 5437 ns, Total: 160980 ns
[2022-04-01T11:29:39.400+0000][512167][safepoint   ] Safepoint "ICBufferFull", Time since last: 22743595 ns, Reaching safepoint: 136450 ns, At safepoint: 5234 ns, Total: 141684 ns
[2022-04-01T11:29:39.429+0000][512167][safepoint   ] Safepoint "ICBufferFull", Time since last: 29169468 ns, Reaching safepoint: 149502 ns, At safepoint: 6463 ns, Total: 155965 ns
[2022-04-01T11:29:39.457+0000][512167][safepoint   ] Safepoint "ICBufferFull", Time since last: 27831537 ns, Reaching safepoint: 158605 ns, At safepoint: 22420 ns, Total: 181025 ns
[2022-04-01T11:29:39.471+0000][512167][safepoint   ] Safepoint "ICBufferFull", Time since last: 13160411 ns, Reaching safepoint: 126439 ns, At safepoint: 6074 ns, Total: 132513 ns
[2022-04-01T11:29:39.487+0000][512167][safepoint   ] Safepoint "ICBufferFull", Time since last: 15990163 ns, Reaching safepoint: 230010 ns, At safepoint: 12111 ns, Total: 242121 ns
[2022-04-01T11:29:39.519+0000][512167][safepoint   ] Safepoint "ICBufferFull", Time since last: 31579007 ns, Reaching safepoint: 120855 ns, At safepoint: 8626 ns, Total: 129481 ns
[2022-04-01T11:29:39.572+0000][512167][safepoint   ] Safepoint "ICBufferFull", Time since last: 53530204 ns, Reaching safepoint: 87271 ns, At safepoint: 5651 ns, Total: 92922 ns
[2022-04-01T11:29:39.594+0000][512167][safepoint   ] Safepoint "ICBufferFull", Time since last: 22099812 ns, Reaching safepoint: 124623 ns, At safepoint: 17248 ns, Total: 141871 ns
[2022-04-01T11:29:39.619+0000][512167][safepoint   ] Safepoint "ICBufferFull", Time since last: 24181309 ns, Reaching safepoint: 295249 ns, At safepoint: 8674 ns, Total: 303923 ns
[2022-04-01T11:29:39.647+0000][512167][safepoint   ] Safepoint "ICBufferFull", Time since last: 27679209 ns, Reaching safepoint: 267971 ns, At safepoint: 24608 ns, Total: 292579 ns
[2022-04-01T11:29:39.661+0000][512167][safepoint   ] Safepoint "ICBufferFull", Time since last: 13691427 ns, Reaching safepoint: 201925 ns, At safepoint: 12330 ns, Total: 214255 ns
[2022-04-01T11:29:39.679+0000][512167][safepoint   ] Safepoint "ICBufferFull", Time since last: 17006050 ns, Reaching safepoint: 1483197 ns, At safepoint: 48204 ns, Total: 1531401 ns
[2022-04-01T11:29:39.688+0000][512167][safepoint   ] Safepoint "ICBufferFull", Time since last: 8505235 ns, Reaching safepoint: 167661 ns, At safepoint: 9976 ns, Total: 177637 ns
[2022-04-01T11:29:39.707+0000][512167][safepoint   ] Safepoint "ICBufferFull", Time since last: 19203628 ns, Reaching safepoint: 150246 ns, At safepoint: 10189 ns, Total: 160435 ns
[2022-04-01T11:29:39.717+0000][512167][safepoint   ] Safepoint "ICBufferFull", Time since last: 8496677 ns, Reaching safepoint: 1274138 ns, At safepoint: 34426 ns, Total: 1308564 ns
[2022-04-01T11:29:39.727+0000][512167][safepoint   ] Safepoint "ICBufferFull", Time since last: 9493309 ns, Reaching safepoint: 145195 ns, At safepoint: 5963 ns, Total: 151158 ns
[2022-04-01T11:29:39.751+0000][512167][safepoint   ] Safepoint "ICBufferFull", Time since last: 23472714 ns, Reaching safepoint: 934052 ns, At safepoint: 22429 ns, Total: 956481 ns
[2022-04-01T11:29:39.767+0000][512167][safepoint   ] Safepoint "ICBufferFull", Time since last: 15527323 ns, Reaching safepoint: 303573 ns, At safepoint: 17753 ns, Total: 321326 ns
[2022-04-01T11:29:39.786+0000][512167][safepoint   ] Safepoint "ICBufferFull", Time since last: 16475735 ns, Reaching safepoint: 2110347 ns, At safepoint: 36754 ns, Total: 2147101 ns
[2022-04-01T11:29:39.792+0000][512167][safepoint   ] Safepoint "ICBufferFull", Time since last: 5508413 ns, Reaching safepoint: 1173166 ns, At safepoint: 17822 ns, Total: 1190988 ns
[2022-04-01T11:29:39.820+0000][512167][safepoint   ] Safepoint "ICBufferFull", Time since last: 27540016 ns, Reaching safepoint: 153904 ns, At safepoint: 6656 ns, Total: 160560 ns
[2022-04-01T11:29:39.837+0000][512167][safepoint   ] Safepoint "ICBufferFull", Time since last: 17117539 ns, Reaching safepoint: 164830 ns, At safepoint: 6593 ns, Total: 171423 ns
[2022-04-01T11:29:39.853+0000][512167][safepoint   ] Safepoint "ICBufferFull", Time since last: 15646560 ns, Reaching safepoint: 286976 ns, At safepoint: 4787 ns, Total: 291763 ns
[2022-04-01T11:29:39.870+0000][512167][safepoint   ] Safepoint "ICBufferFull", Time since last: 16874556 ns, Reaching safepoint: 135140 ns, At safepoint: 4277 ns, Total: 139417 ns
[2022-04-01T11:29:39.982+0000][512167][safepoint   ] Safepoint "ICBufferFull", Time since last: 111739874 ns, Reaching safepoint: 193817 ns, At safepoint: 6227 ns, Total: 200044 ns
[2022-04-01T11:29:40.077+0000][512167][safepoint   ] Safepoint "ICBufferFull", Time since last: 94968781 ns, Reaching safepoint: 244771 ns, At safepoint: 8002 ns, Total: 252773 ns
[2022-04-01T11:29:40.096+0000][512167][safepoint   ] Safepoint "ICBufferFull", Time since last: 18808545 ns, Reaching safepoint: 138020 ns, At safepoint: 4371 ns, Total: 142391 ns
[2022-04-01T11:29:41.078+0000][512167][gc,start    ] GC(2) Pause Young (Normal) (G1 Evacuation Pause)
[2022-04-01T11:29:41.078+0000][512167][gc,task     ] GC(2) Using 4 workers of 4 for evacuation
[2022-04-01T11:29:41.079+0000][512167][gc,age      ] GC(2) Desired survivor size 3670016 bytes, new threshold 15 (max threshold 15)
[2022-04-01T11:29:41.128+0000][512167][gc,age      ] GC(2) Age table with threshold 15 (max threshold 15)
[2022-04-01T11:29:41.128+0000][512167][gc,age      ] GC(2) - age   1:    2447160 bytes,    2447160 total
[2022-04-01T11:29:41.129+0000][512167][gc,age      ] GC(2) - age   2:    1011208 bytes,    3458368 total
[2022-04-01T11:29:41.129+0000][512167][gc,phases   ] GC(2)   Pre Evacuate Collection Set: 0.4ms
[2022-04-01T11:29:41.129+0000][512167][gc,phases   ] GC(2)   Merge Heap Roots: 0.2ms
[2022-04-01T11:29:41.129+0000][512167][gc,phases   ] GC(2)   Evacuate Collection Set: 47.5ms
[2022-04-01T11:29:41.129+0000][512167][gc,phases   ] GC(2)   Post Evacuate Collection Set: 1.4ms
[2022-04-01T11:29:41.129+0000][512167][gc,phases   ] GC(2)   Other: 1.6ms
[2022-04-01T11:29:41.129+0000][512167][gc,heap     ] GC(2) Eden regions: 53->0(610)
[2022-04-01T11:29:41.129+0000][512167][gc,heap     ] GC(2) Survivor regions: 3->4(7)
[2022-04-01T11:29:41.129+0000][512167][gc,heap     ] GC(2) Old regions: 6->6
[2022-04-01T11:29:41.129+0000][512167][gc,heap     ] GC(2) Archive regions: 2->2
[2022-04-01T11:29:41.130+0000][512167][gc,heap     ] GC(2) Humongous regions: 2->1
[2022-04-01T11:29:41.130+0000][512167][gc,metaspace] GC(2) Metaspace: 16322K(16768K)->16322K(16768K) NonClass: 14370K(14592K)->14370K(14592K) Class: 1952K(2176K)->1952K(2176K)
[2022-04-01T11:29:41.130+0000][512167][gc          ] GC(2) Pause Young (Normal) (G1 Evacuation Pause) 63M->11M(1024M) 51.183ms
[2022-04-01T11:29:41.130+0000][512167][gc,cpu      ] GC(2) User=0.03s Sys=0.00s Real=0.05s
[2022-04-01T11:29:41.130+0000][512167][safepoint   ] Safepoint "G1CollectForAllocation", Time since last: 981622058 ns, Reaching safepoint: 253138 ns, At safepoint: 51311890 ns, Total: 51565028 ns
[2022-04-01T11:29:42.140+0000][512167][safepoint   ] Safepoint "Cleanup", Time since last: 1000125567 ns, Reaching safepoint: 10019980 ns, At safepoint: 20359 ns, Total: 10040339 ns
[2022-04-01T11:29:43.142+0000][512167][safepoint   ] Safepoint "Cleanup", Time since last: 1000245407 ns, Reaching safepoint: 2308653 ns, At safepoint: 19666 ns, Total: 2328319 ns
[2022-04-01T11:29:44.143+0000][512167][safepoint   ] Safepoint "Cleanup", Time since last: 1000524502 ns, Reaching safepoint: 94166 ns, At safepoint: 10024 ns, Total: 104190 ns
[2022-04-01T11:29:46.003+0000][512167][safepoint   ] Safepoint "Cleanup", Time since last: 1859575733 ns, Reaching safepoint: 669290 ns, At safepoint: 11726 ns, Total: 681016 ns
[2022-04-01T11:29:47.004+0000][512167][safepoint   ] Safepoint "Cleanup", Time since last: 1000190037 ns, Reaching safepoint: 167944 ns, At safepoint: 6753 ns, Total: 174697 ns
[2022-04-01T11:29:48.020+0000][512167][safepoint   ] Safepoint "Cleanup", Time since last: 1000161800 ns, Reaching safepoint: 16464682 ns, At safepoint: 146518 ns, Total: 16611200 ns
[2022-04-01T11:29:49.029+0000][512167][safepoint   ] Safepoint "Cleanup", Time since last: 1006965571 ns, Reaching safepoint: 1577459 ns, At safepoint: 15917 ns, Total: 1593376 ns
[2022-04-01T11:29:50.029+0000][512167][safepoint   ] Safepoint "Cleanup", Time since last: 1000229133 ns, Reaching safepoint: 206774 ns, At safepoint: 7511 ns, Total: 214285 ns
[2022-04-01T11:29:51.417+0000][512167][safepoint   ] Safepoint "Cleanup", Time since last: 1373545778 ns, Reaching safepoint: 14403299 ns, At safepoint: 16229 ns, Total: 14419528 ns
[2022-04-01T11:29:52.165+0000][512167][gc,start    ] GC(3) Pause Young (Normal) (G1 Evacuation Pause)
[2022-04-01T11:29:52.165+0000][512167][gc,task     ] GC(3) Using 4 workers of 4 for evacuation
[2022-04-01T11:29:52.165+0000][512167][gc,age      ] GC(3) Desired survivor size 40370176 bytes, new threshold 15 (max threshold 15)
[2022-04-01T11:29:52.223+0000][512167][gc,age      ] GC(3) Age table with threshold 15 (max threshold 15)
[2022-04-01T11:29:52.223+0000][512167][gc,age      ] GC(3) - age   1:    7286824 bytes,    7286824 total
[2022-04-01T11:29:52.223+0000][512167][gc,age      ] GC(3) - age   2:    1367224 bytes,    8654048 total
[2022-04-01T11:29:52.223+0000][512167][gc,age      ] GC(3) - age   3:    1010968 bytes,    9665016 total
[2022-04-01T11:29:52.223+0000][512167][gc,phases   ] GC(3)   Pre Evacuate Collection Set: 0.4ms
[2022-04-01T11:29:52.223+0000][512167][gc,phases   ] GC(3)   Merge Heap Roots: 0.2ms
[2022-04-01T11:29:52.223+0000][512167][gc,phases   ] GC(3)   Evacuate Collection Set: 56.3ms
[2022-04-01T11:29:52.223+0000][512167][gc,phases   ] GC(3)   Post Evacuate Collection Set: 1.1ms
[2022-04-01T11:29:52.223+0000][512167][gc,phases   ] GC(3)   Other: 0.6ms
[2022-04-01T11:29:52.223+0000][512167][gc,heap     ] GC(3) Eden regions: 610->0(496)
[2022-04-01T11:29:52.223+0000][512167][gc,heap     ] GC(3) Survivor regions: 4->10(77)
[2022-04-01T11:29:52.223+0000][512167][gc,heap     ] GC(3) Old regions: 6->6
[2022-04-01T11:29:52.223+0000][512167][gc,heap     ] GC(3) Archive regions: 2->2
[2022-04-01T11:29:52.223+0000][512167][gc,heap     ] GC(3) Humongous regions: 1->1
[2022-04-01T11:29:52.223+0000][512167][gc,metaspace] GC(3) Metaspace: 20018K(21120K)->20018K(21120K) NonClass: 17638K(18432K)->17638K(18432K) Class: 2379K(2688K)->2379K(2688K)
[2022-04-01T11:29:52.223+0000][512167][gc          ] GC(3) Pause Young (Normal) (G1 Evacuation Pause) 621M->17M(1024M) 58.768ms
[2022-04-01T11:29:52.224+0000][512167][gc,cpu      ] GC(3) User=0.07s Sys=0.00s Real=0.06s
[2022-04-01T11:29:52.224+0000][512167][safepoint   ] Safepoint "G1CollectForAllocation", Time since last: 747021090 ns, Reaching safepoint: 302333 ns, At safepoint: 58882870 ns, Total: 59185203 ns
[2022-04-01T11:29:54.434+0000][512167][gc,start    ] GC(4) Pause Young (Concurrent Start) (Metadata GC Threshold)
[2022-04-01T11:29:54.434+0000][512167][gc,task     ] GC(4) Using 4 workers of 4 for evacuation
[2022-04-01T11:29:54.434+0000][512167][gc,age      ] GC(4) Desired survivor size 33554432 bytes, new threshold 15 (max threshold 15)
[2022-04-01T11:29:54.485+0000][512167][gc,age      ] GC(4) Age table with threshold 15 (max threshold 15)
[2022-04-01T11:29:54.485+0000][512167][gc,age      ] GC(4) - age   1:     273544 bytes,     273544 total
[2022-04-01T11:29:54.485+0000][512167][gc,age      ] GC(4) - age   2:    6386464 bytes,    6660008 total
[2022-04-01T11:29:54.485+0000][512167][gc,age      ] GC(4) - age   3:    1367224 bytes,    8027232 total
[2022-04-01T11:29:54.485+0000][512167][gc,age      ] GC(4) - age   4:    1010824 bytes,    9038056 total
[2022-04-01T11:29:54.485+0000][512167][gc,phases   ] GC(4)   Pre Evacuate Collection Set: 0.3ms
[2022-04-01T11:29:54.485+0000][512167][gc,phases   ] GC(4)   Merge Heap Roots: 0.1ms
[2022-04-01T11:29:54.485+0000][512167][gc,phases   ] GC(4)   Evacuate Collection Set: 43.3ms
[2022-04-01T11:29:54.485+0000][512167][gc,phases   ] GC(4)   Post Evacuate Collection Set: 6.5ms
[2022-04-01T11:29:54.485+0000][512167][gc,phases   ] GC(4)   Other: 0.7ms
[2022-04-01T11:29:54.485+0000][512167][gc,heap     ] GC(4) Eden regions: 122->0(604)
[2022-04-01T11:29:54.485+0000][512167][gc,heap     ] GC(4) Survivor regions: 10->10(64)
[2022-04-01T11:29:54.485+0000][512167][gc,heap     ] GC(4) Old regions: 6->6
[2022-04-01T11:29:54.485+0000][512167][gc,heap     ] GC(4) Archive regions: 2->2
[2022-04-01T11:29:54.485+0000][512167][gc,heap     ] GC(4) Humongous regions: 1->1
[2022-04-01T11:29:54.485+0000][512167][gc,metaspace] GC(4) Metaspace: 20203K(21296K)->20203K(21296K) NonClass: 17789K(18608K)->17789K(18608K) Class: 2414K(2688K)->2414K(2688K)
[2022-04-01T11:29:54.485+0000][512167][gc          ] GC(4) Pause Young (Concurrent Start) (Metadata GC Threshold) 138M->16M(1024M) 51.034ms
[2022-04-01T11:29:54.485+0000][512167][gc,cpu      ] GC(4) User=0.06s Sys=0.00s Real=0.05s
[2022-04-01T11:29:54.485+0000][512167][gc          ] GC(5) Concurrent Cycle
[2022-04-01T11:29:54.485+0000][512167][gc,marking  ] GC(5) Concurrent Clear Claimed Marks
[2022-04-01T11:29:54.485+0000][512167][gc,marking  ] GC(5) Concurrent Clear Claimed Marks 0.035ms
[2022-04-01T11:29:54.485+0000][512167][gc,marking  ] GC(5) Concurrent Scan Root Regions
[2022-04-01T11:29:54.486+0000][512167][safepoint   ] Safepoint "CollectForMetadataAllocation", Time since last: 2210365412 ns, Reaching safepoint: 211323 ns, At safepoint: 51373658 ns, Total: 51584981 ns
[2022-04-01T11:29:54.492+0000][512167][gc,marking  ] GC(5) Concurrent Scan Root Regions 6.476ms
[2022-04-01T11:29:54.492+0000][512167][gc,marking  ] GC(5) Concurrent Mark (29.574s)
[2022-04-01T11:29:54.492+0000][512167][gc,marking  ] GC(5) Concurrent Mark From Roots
[2022-04-01T11:29:54.492+0000][512167][gc,task     ] GC(5) Using 1 workers of 1 for marking
[2022-04-01T11:29:54.542+0000][512167][gc,marking  ] GC(5) Concurrent Mark From Roots 49.827ms
[2022-04-01T11:29:54.542+0000][512167][gc,marking  ] GC(5) Concurrent Preclean
[2022-04-01T11:29:54.542+0000][512167][gc,marking  ] GC(5) Concurrent Preclean 0.287ms
[2022-04-01T11:29:54.542+0000][512167][gc,marking  ] GC(5) Concurrent Mark (29.574s, 29.625s) 50.308ms
[2022-04-01T11:29:54.560+0000][512167][gc,start    ] GC(5) Pause Remark
[2022-04-01T11:29:54.569+0000][512167][gc          ] GC(5) Pause Remark 21M->21M(1024M) 8.549ms
[2022-04-01T11:29:54.569+0000][512167][gc,cpu      ] GC(5) User=0.01s Sys=0.00s Real=0.01s
[2022-04-01T11:29:54.569+0000][512167][safepoint   ] Safepoint "G1Concurrent", Time since last: 57035977 ns, Reaching safepoint: 17651625 ns, At safepoint: 8827179 ns, Total: 26478804 ns
[2022-04-01T11:29:54.569+0000][512167][gc,marking  ] GC(5) Concurrent Rebuild Remembered Sets
[2022-04-01T11:29:54.593+0000][512167][gc,marking  ] GC(5) Concurrent Rebuild Remembered Sets 24.025ms
[2022-04-01T11:29:54.599+0000][512167][gc,start    ] GC(5) Pause Cleanup
[2022-04-01T11:29:54.599+0000][512167][gc          ] GC(5) Pause Cleanup 24M->24M(1024M) 0.598ms
[2022-04-01T11:29:54.600+0000][512167][gc,cpu      ] GC(5) User=0.00s Sys=0.00s Real=0.00s
[2022-04-01T11:29:54.600+0000][512167][safepoint   ] Safepoint "G1Concurrent", Time since last: 24371511 ns, Reaching safepoint: 5432267 ns, At safepoint: 725283 ns, Total: 6157550 ns
[2022-04-01T11:29:54.600+0000][512167][gc,marking  ] GC(5) Concurrent Cleanup for Next Mark
[2022-04-01T11:29:54.606+0000][512167][gc,marking  ] GC(5) Concurrent Cleanup for Next Mark 6.653ms
[2022-04-01T11:29:54.606+0000][512167][gc          ] GC(5) Concurrent Cycle 120.919ms
[2022-04-01T11:29:55.600+0000][512167][safepoint   ] Safepoint "Cleanup", Time since last: 1000103865 ns, Reaching safepoint: 128483 ns, At safepoint: 10895 ns, Total: 139378 ns
[2022-04-01T11:29:56.604+0000][512167][safepoint   ] Safepoint "Cleanup", Time since last: 1000145402 ns, Reaching safepoint: 4290825 ns, At safepoint: 9137 ns, Total: 4299962 ns
[2022-04-01T11:29:57.615+0000][512167][safepoint   ] Safepoint "Cleanup", Time since last: 1000303181 ns, Reaching safepoint: 10230334 ns, At safepoint: 14559 ns, Total: 10244893 ns
[2022-04-01T11:29:58.627+0000][512167][safepoint   ] Safepoint "Cleanup", Time since last: 1000213940 ns, Reaching safepoint: 11628906 ns, At safepoint: 8628 ns, Total: 11637534 ns
[2022-04-01T11:29:59.627+0000][512167][safepoint   ] Safepoint "Cleanup", Time since last: 1000175236 ns, Reaching safepoint: 245336 ns, At safepoint: 19363 ns, Total: 264699 ns
[2022-04-01T11:30:00.633+0000][512167][safepoint   ] Safepoint "Cleanup", Time since last: 1000190666 ns, Reaching safepoint: 5609287 ns, At safepoint: 20729 ns, Total: 5630016 ns
[2022-04-01T11:30:01.633+0000][512167][safepoint   ] Safepoint "Cleanup", Time since last: 1000235294 ns, Reaching safepoint: 252572 ns, At safepoint: 17996 ns, Total: 270568 ns
[2022-04-01T11:30:01.792+0000][512167][gc,start    ] GC(6) Pause Young (Normal) (G1 Evacuation Pause)
[2022-04-01T11:30:01.793+0000][512167][gc,task     ] GC(6) Using 4 workers of 4 for evacuation
[2022-04-01T11:30:01.793+0000][512167][gc,age      ] GC(6) Desired survivor size 40370176 bytes, new threshold 15 (max threshold 15)
[2022-04-01T11:30:01.865+0000][512167][gc,age      ] GC(6) Age table with threshold 15 (max threshold 15)
[2022-04-01T11:30:01.865+0000][512167][gc,age      ] GC(6) - age   1:    3890232 bytes,    3890232 total
[2022-04-01T11:30:01.865+0000][512167][gc,age      ] GC(6) - age   2:     246744 bytes,    4136976 total
[2022-04-01T11:30:01.865+0000][512167][gc,age      ] GC(6) - age   3:    6383560 bytes,   10520536 total
[2022-04-01T11:30:01.865+0000][512167][gc,age      ] GC(6) - age   4:    1366200 bytes,   11886736 total
[2022-04-01T11:30:01.865+0000][512167][gc,age      ] GC(6) - age   5:    1010760 bytes,   12897496 total
[2022-04-01T11:30:01.865+0000][512167][gc,phases   ] GC(6)   Pre Evacuate Collection Set: 0.4ms
[2022-04-01T11:30:01.865+0000][512167][gc,phases   ] GC(6)   Merge Heap Roots: 0.3ms
[2022-04-01T11:30:01.865+0000][512167][gc,phases   ] GC(6)   Evacuate Collection Set: 68.8ms
[2022-04-01T11:30:01.865+0000][512167][gc,phases   ] GC(6)   Post Evacuate Collection Set: 2.5ms
[2022-04-01T11:30:01.865+0000][512167][gc,phases   ] GC(6)   Other: 0.7ms
[2022-04-01T11:30:01.865+0000][512167][gc,heap     ] GC(6) Eden regions: 604->0(601)
[2022-04-01T11:30:01.865+0000][512167][gc,heap     ] GC(6) Survivor regions: 10->13(77)
[2022-04-01T11:30:01.865+0000][512167][gc,heap     ] GC(6) Old regions: 6->6
[2022-04-01T11:30:01.865+0000][512167][gc,heap     ] GC(6) Archive regions: 2->2
[2022-04-01T11:30:01.865+0000][512167][gc,heap     ] GC(6) Humongous regions: 1->1
[2022-04-01T11:30:01.865+0000][512167][gc,metaspace] GC(6) Metaspace: 20806K(22192K)->20806K(22192K) NonClass: 18291K(19376K)->18291K(19376K) Class: 2514K(2816K)->2514K(2816K)
[2022-04-01T11:30:01.865+0000][512167][gc          ] GC(6) Pause Young (Normal) (G1 Evacuation Pause) 620M->20M(1024M) 72.910ms
[2022-04-01T11:30:01.865+0000][512167][gc,cpu      ] GC(6) User=0.06s Sys=0.00s Real=0.07s
[2022-04-01T11:30:01.866+0000][512167][safepoint   ] Safepoint "G1CollectForAllocation", Time since last: 158836609 ns, Reaching safepoint: 130714 ns, At safepoint: 73164251 ns, Total: 73294965 ns
[2022-04-01T11:30:02.879+0000][512167][safepoint   ] Safepoint "Cleanup", Time since last: 1009817102 ns, Reaching safepoint: 3629389 ns, At safepoint: 10509 ns, Total: 3639898 ns
[2022-04-01T11:30:03.886+0000][512167][safepoint   ] Safepoint "Cleanup", Time since last: 1000307816 ns, Reaching safepoint: 6896866 ns, At safepoint: 16804 ns, Total: 6913670 ns
[2022-04-01T11:30:04.887+0000][512167][safepoint   ] Safepoint "Cleanup", Time since last: 1000209021 ns, Reaching safepoint: 245700 ns, At safepoint: 6429 ns, Total: 252129 ns
[2022-04-01T11:30:05.887+0000][512167][safepoint   ] Safepoint "Cleanup", Time since last: 1000211919 ns, Reaching safepoint: 566505 ns, At safepoint: 24068 ns, Total: 590573 ns
[2022-04-01T11:30:06.888+0000][512167][safepoint   ] Safepoint "Cleanup", Time since last: 1000267664 ns, Reaching safepoint: 227063 ns, At safepoint: 7216 ns, Total: 234279 ns
[2022-04-01T11:30:08.133+0000][512167][safepoint   ] Safepoint "Cleanup", Time since last: 1238900714 ns, Reaching safepoint: 6263575 ns, At safepoint: 38973 ns, Total: 6302548 ns
[2022-04-01T11:30:09.135+0000][512167][safepoint   ] Safepoint "Cleanup", Time since last: 1001227060 ns, Reaching safepoint: 162918 ns, At safepoint: 18962 ns, Total: 181880 ns
[2022-04-01T11:30:10.136+0000][512167][safepoint   ] Safepoint "Cleanup", Time since last: 1000548281 ns, Reaching safepoint: 407919 ns, At safepoint: 5717 ns, Total: 413636 ns
[2022-04-01T11:30:11.140+0000][512167][safepoint   ] Safepoint "Cleanup", Time since last: 1000953280 ns, Reaching safepoint: 3626095 ns, At safepoint: 28670 ns, Total: 3654765 ns
[2022-04-01T11:30:12.141+0000][512167][safepoint   ] Safepoint "Cleanup", Time since last: 1000391877 ns, Reaching safepoint: 179770 ns, At safepoint: 9422 ns, Total: 189192 ns
[2022-04-01T11:30:13.722+0000][512167][safepoint   ] Safepoint "Cleanup", Time since last: 1573356536 ns, Reaching safepoint: 8188387 ns, At safepoint: 13492 ns, Total: 8201879 ns
[2022-04-01T11:30:15.625+0000][512167][safepoint   ] Safepoint "Cleanup", Time since last: 1902513523 ns, Reaching safepoint: 317746 ns, At safepoint: 12338 ns, Total: 330084 ns
[2022-04-01T11:30:16.631+0000][512167][safepoint   ] Safepoint "Cleanup", Time since last: 1003780285 ns, Reaching safepoint: 2170433 ns, At safepoint: 23069 ns, Total: 2193502 ns
[2022-04-01T11:30:17.647+0000][512167][safepoint   ] Safepoint "Cleanup", Time since last: 1001482712 ns, Reaching safepoint: 14112661 ns, At safepoint: 25794 ns, Total: 14138455 ns
[2022-04-01T11:30:18.655+0000][512167][safepoint   ] Safepoint "Cleanup", Time since last: 1007781828 ns, Reaching safepoint: 757995 ns, At safepoint: 7523 ns, Total: 765518 ns
[2022-04-01T11:30:18.837+0000][512167][gc,start    ] GC(7) Pause Young (Concurrent Start) (Metadata GC Threshold)
[2022-04-01T11:30:18.837+0000][512167][gc,task     ] GC(7) Using 4 workers of 4 for evacuation
[2022-04-01T11:30:18.837+0000][512167][gc,age      ] GC(7) Desired survivor size 40370176 bytes, new threshold 15 (max threshold 15)
[2022-04-01T11:30:19.031+0000][512167][gc,age      ] GC(7) Age table with threshold 15 (max threshold 15)
[2022-04-01T11:30:19.031+0000][512167][gc,age      ] GC(7) - age   1:   31589472 bytes,   31589472 total
[2022-04-01T11:30:19.031+0000][512167][gc,age      ] GC(7) - age   2:    2786192 bytes,   34375664 total
[2022-04-01T11:30:19.031+0000][512167][gc,age      ] GC(7) - age   3:     242248 bytes,   34617912 total
[2022-04-01T11:30:19.031+0000][512167][gc,age      ] GC(7) - age   4:    6336240 bytes,   40954152 total
[2022-04-01T11:30:19.031+0000][512167][gc,age      ] GC(7) - age   5:    1342512 bytes,   42296664 total
[2022-04-01T11:30:19.031+0000][512167][gc,age      ] GC(7) - age   6:     963408 bytes,   43260072 total
[2022-04-01T11:30:19.031+0000][512167][gc,phases   ] GC(7)   Pre Evacuate Collection Set: 0.5ms
[2022-04-01T11:30:19.031+0000][512167][gc,phases   ] GC(7)   Merge Heap Roots: 0.2ms
[2022-04-01T11:30:19.031+0000][512167][gc,phases   ] GC(7)   Evacuate Collection Set: 178.7ms
[2022-04-01T11:30:19.031+0000][512167][gc,phases   ] GC(7)   Post Evacuate Collection Set: 14.0ms
[2022-04-01T11:30:19.031+0000][512167][gc,phases   ] GC(7)   Other: 0.5ms
[2022-04-01T11:30:19.031+0000][512167][gc,heap     ] GC(7) Eden regions: 278->0(213)
[2022-04-01T11:30:19.031+0000][512167][gc,heap     ] GC(7) Survivor regions: 13->42(77)
[2022-04-01T11:30:19.031+0000][512167][gc,heap     ] GC(7) Old regions: 6->6
[2022-04-01T11:30:19.031+0000][512167][gc,heap     ] GC(7) Archive regions: 2->2
[2022-04-01T11:30:19.031+0000][512167][gc,heap     ] GC(7) Humongous regions: 1->1
[2022-04-01T11:30:19.031+0000][512167][gc,metaspace] GC(7) Metaspace: 33565K(35888K)->33565K(35888K) NonClass: 29278K(30896K)->29278K(30896K) Class: 4286K(4992K)->4286K(4992K)
[2022-04-01T11:30:19.031+0000][512167][gc          ] GC(7) Pause Young (Concurrent Start) (Metadata GC Threshold) 298M->49M(1024M) 193.948ms
[2022-04-01T11:30:19.031+0000][512167][gc,cpu      ] GC(7) User=0.25s Sys=0.00s Real=0.20s
[2022-04-01T11:30:19.031+0000][512167][gc          ] GC(8) Concurrent Cycle
[2022-04-01T11:30:19.031+0000][512167][gc,marking  ] GC(8) Concurrent Clear Claimed Marks
[2022-04-01T11:30:19.031+0000][512167][gc,marking  ] GC(8) Concurrent Clear Claimed Marks 0.100ms
[2022-04-01T11:30:19.031+0000][512167][gc,marking  ] GC(8) Concurrent Scan Root Regions
[2022-04-01T11:30:19.031+0000][512167][safepoint   ] Safepoint "CollectForMetadataAllocation", Time since last: 181619079 ns, Reaching safepoint: 100520 ns, At safepoint: 194249666 ns, Total: 194350186 ns
[2022-04-01T11:30:19.148+0000][512167][safepoint   ] Safepoint "CollectForMetadataAllocation", Time since last: 115807931 ns, Reaching safepoint: 141183 ns, At safepoint: 376491 ns, Total: 517674 ns
[2022-04-01T11:30:19.233+0000][512167][gc,marking  ] GC(8) Concurrent Scan Root Regions 202.099ms
[2022-04-01T11:30:19.233+0000][512167][gc,marking  ] GC(8) Concurrent Mark (54.316s)
[2022-04-01T11:30:19.233+0000][512167][gc,marking  ] GC(8) Concurrent Mark From Roots
[2022-04-01T11:30:19.233+0000][512167][gc,task     ] GC(8) Using 1 workers of 1 for marking
[2022-04-01T11:30:19.286+0000][512167][gc,marking  ] GC(8) Concurrent Mark From Roots 52.819ms
[2022-04-01T11:30:19.286+0000][512167][gc,marking  ] GC(8) Concurrent Preclean
[2022-04-01T11:30:19.286+0000][512167][gc,marking  ] GC(8) Concurrent Preclean 0.146ms
[2022-04-01T11:30:19.287+0000][512167][gc,marking  ] GC(8) Concurrent Mark (54.316s, 54.369s) 53.085ms
[2022-04-01T11:30:19.287+0000][512167][gc,start    ] GC(8) Pause Remark
[2022-04-01T11:30:19.308+0000][512167][gc          ] GC(8) Pause Remark 52M->52M(1024M) 21.003ms
[2022-04-01T11:30:19.308+0000][512167][gc,cpu      ] GC(8) User=0.01s Sys=0.00s Real=0.02s
[2022-04-01T11:30:19.308+0000][512167][safepoint   ] Safepoint "G1Concurrent", Time since last: 139164226 ns, Reaching safepoint: 269483 ns, At safepoint: 21118357 ns, Total: 21387840 ns
[2022-04-01T11:30:19.310+0000][512167][gc,marking  ] GC(8) Concurrent Rebuild Remembered Sets
[2022-04-01T11:30:19.335+0000][512167][gc,marking  ] GC(8) Concurrent Rebuild Remembered Sets 24.817ms
[2022-04-01T11:30:19.336+0000][512167][gc,start    ] GC(8) Pause Cleanup
[2022-04-01T11:30:19.337+0000][512167][gc          ] GC(8) Pause Cleanup 52M->52M(1024M) 0.707ms
[2022-04-01T11:30:19.337+0000][512167][gc,cpu      ] GC(8) User=0.00s Sys=0.00s Real=0.00s
[2022-04-01T11:30:19.337+0000][512167][safepoint   ] Safepoint "G1Concurrent", Time since last: 26981621 ns, Reaching safepoint: 977398 ns, At safepoint: 849864 ns, Total: 1827262 ns
[2022-04-01T11:30:19.337+0000][512167][gc,marking  ] GC(8) Concurrent Cleanup for Next Mark
[2022-04-01T11:30:19.349+0000][512167][gc,marking  ] GC(8) Concurrent Cleanup for Next Mark 11.554ms
[2022-04-01T11:30:19.349+0000][512167][gc          ] GC(8) Concurrent Cycle 317.605ms
[2022-04-01T11:30:20.337+0000][512167][safepoint   ] Safepoint "Cleanup", Time since last: 1000111314 ns, Reaching safepoint: 318790 ns, At safepoint: 21391 ns, Total: 340181 ns
[2022-04-01T11:30:21.345+0000][512167][safepoint   ] Safepoint "Cleanup", Time since last: 1000608203 ns, Reaching safepoint: 6984583 ns, At safepoint: 11160 ns, Total: 6995743 ns
[2022-04-01T11:30:22.353+0000][512167][safepoint   ] Safepoint "Cleanup", Time since last: 1000186306 ns, Reaching safepoint: 7751093 ns, At safepoint: 23298 ns, Total: 7774391 ns
[2022-04-01T11:30:23.358+0000][512167][safepoint   ] Safepoint "Cleanup", Time since last: 1000253860 ns, Reaching safepoint: 4358314 ns, At safepoint: 8319 ns, Total: 4366633 ns
[2022-04-01T11:30:24.450+0000][512167][safepoint   ] Safepoint "Cleanup", Time since last: 1092338128 ns, Reaching safepoint: 126481 ns, At safepoint: 4664 ns, Total: 131145 ns
[2022-04-01T11:30:25.451+0000][512167][safepoint   ] Safepoint "Cleanup", Time since last: 1000374516 ns, Reaching safepoint: 161346 ns, At safepoint: 10845 ns, Total: 172191 ns
[2022-04-01T11:30:26.451+0000][512167][safepoint   ] Safepoint "Cleanup", Time since last: 1000150895 ns, Reaching safepoint: 215401 ns, At safepoint: 21742 ns, Total: 237143 ns
[2022-04-01T11:30:27.451+0000][512167][safepoint   ] Safepoint "Cleanup", Time since last: 1000151460 ns, Reaching safepoint: 146538 ns, At safepoint: 9738 ns, Total: 156276 ns
[2022-04-01T11:30:28.462+0000][512167][safepoint   ] Safepoint "Cleanup", Time since last: 1000209279 ns, Reaching safepoint: 10385440 ns, At safepoint: 10868 ns, Total: 10396308 ns
[2022-04-01T11:30:29.821+0000][512167][safepoint   ] Safepoint "Cleanup", Time since last: 1358697673 ns, Reaching safepoint: 185446 ns, At safepoint: 11641 ns, Total: 197087 ns
[2022-04-01T11:30:30.824+0000][512167][safepoint   ] Safepoint "Cleanup", Time since last: 1002022756 ns, Reaching safepoint: 698791 ns, At safepoint: 17099 ns, Total: 715890 ns
[2022-04-01T11:30:31.832+0000][512167][safepoint   ] Safepoint "Cleanup", Time since last: 1007777676 ns, Reaching safepoint: 289546 ns, At safepoint: 13878 ns, Total: 303424 ns
[2022-04-01T11:30:32.294+0000][512167][gc,start    ] GC(9) Pause Young (Concurrent Start) (G1 Evacuation Pause)
[2022-04-01T11:30:32.294+0000][512167][gc,task     ] GC(9) Using 4 workers of 4 for evacuation
[2022-04-01T11:30:32.294+0000][512167][gc,age      ] GC(9) Desired survivor size 16777216 bytes, new threshold 1 (max threshold 15)
[2022-04-01T11:30:32.451+0000][512167][gc,age      ] GC(9) Age table with threshold 1 (max threshold 15)
[2022-04-01T11:30:32.451+0000][512167][gc,age      ] GC(9) - age   1:    7678792 bytes,    7678792 total
[2022-04-01T11:30:32.452+0000][512167][gc,phases   ] GC(9)   Pre Evacuate Collection Set: 0.3ms
[2022-04-01T11:30:32.452+0000][512167][gc,phases   ] GC(9)   Merge Heap Roots: 0.1ms
[2022-04-01T11:30:32.452+0000][512167][gc,phases   ] GC(9)   Evacuate Collection Set: 148.3ms
[2022-04-01T11:30:32.452+0000][512167][gc,phases   ] GC(9)   Post Evacuate Collection Set: 8.4ms
[2022-04-01T11:30:32.452+0000][512167][gc,phases   ] GC(9)   Other: 0.5ms
[2022-04-01T11:30:32.452+0000][512167][gc,heap     ] GC(9) Eden regions: 212->0(476)
[2022-04-01T11:30:32.452+0000][512167][gc,heap     ] GC(9) Survivor regions: 42->8(32)
[2022-04-01T11:30:32.452+0000][512167][gc,heap     ] GC(9) Old regions: 6->48
[2022-04-01T11:30:32.452+0000][512167][gc,heap     ] GC(9) Archive regions: 2->2
[2022-04-01T11:30:32.452+0000][512167][gc,heap     ] GC(9) Humongous regions: 1->1
[2022-04-01T11:30:32.452+0000][512167][gc,metaspace] GC(9) Metaspace: 53465K(56424K)->53465K(56424K) NonClass: 46423K(48488K)->46423K(48488K) Class: 7042K(7936K)->7042K(7936K)
[2022-04-01T11:30:32.452+0000][512167][gc          ] GC(9) Pause Young (Concurrent Start) (G1 Evacuation Pause) 261M->57M(1024M) 157.725ms
[2022-04-01T11:30:32.452+0000][512167][gc,cpu      ] GC(9) User=0.24s Sys=0.00s Real=0.16s
[2022-04-01T11:30:32.452+0000][512167][safepoint   ] Safepoint "G1CollectForAllocation", Time since last: 462275401 ns, Reaching safepoint: 99224 ns, At safepoint: 157834832 ns, Total: 157934056 ns
[2022-04-01T11:30:32.452+0000][512167][gc          ] GC(10) Concurrent Cycle
[2022-04-01T11:30:32.452+0000][512167][gc,marking  ] GC(10) Concurrent Clear Claimed Marks
[2022-04-01T11:30:32.452+0000][512167][gc,marking  ] GC(10) Concurrent Clear Claimed Marks 0.079ms
[2022-04-01T11:30:32.452+0000][512167][gc,marking  ] GC(10) Concurrent Scan Root Regions
[2022-04-01T11:30:32.605+0000][512167][gc,marking  ] GC(10) Concurrent Scan Root Regions 153.438ms
[2022-04-01T11:30:32.605+0000][512167][gc,marking  ] GC(10) Concurrent Mark (67.688s)
[2022-04-01T11:30:32.605+0000][512167][gc,marking  ] GC(10) Concurrent Mark From Roots
[2022-04-01T11:30:32.606+0000][512167][gc,task     ] GC(10) Using 1 workers of 1 for marking
[2022-04-01T11:30:32.637+0000][512167][gc,marking  ] GC(10) Concurrent Mark From Roots 31.766ms
[2022-04-01T11:30:32.637+0000][512167][gc,marking  ] GC(10) Concurrent Preclean
[2022-04-01T11:30:32.638+0000][512167][gc,marking  ] GC(10) Concurrent Preclean 0.228ms
[2022-04-01T11:30:32.638+0000][512167][gc,marking  ] GC(10) Concurrent Mark (67.688s, 67.720s) 32.138ms
[2022-04-01T11:30:32.638+0000][512167][gc,start    ] GC(10) Pause Remark
[2022-04-01T11:30:32.647+0000][512167][gc          ] GC(10) Pause Remark 58M->58M(1024M) 9.088ms
[2022-04-01T11:30:32.647+0000][512167][gc,cpu      ] GC(10) User=0.01s Sys=0.00s Real=0.02s
[2022-04-01T11:30:32.647+0000][512167][safepoint   ] Safepoint "G1Concurrent", Time since last: 185863191 ns, Reaching safepoint: 194137 ns, At safepoint: 9195155 ns, Total: 9389292 ns
[2022-04-01T11:30:32.647+0000][512167][gc,marking  ] GC(10) Concurrent Rebuild Remembered Sets
[2022-04-01T11:30:32.734+0000][512167][gc,marking  ] GC(10) Concurrent Rebuild Remembered Sets 86.570ms
[2022-04-01T11:30:32.735+0000][512167][gc,start    ] GC(10) Pause Cleanup
[2022-04-01T11:30:32.735+0000][512167][gc          ] GC(10) Pause Cleanup 58M->58M(1024M) 0.398ms
[2022-04-01T11:30:32.735+0000][512167][gc,cpu      ] GC(10) User=0.00s Sys=0.00s Real=0.00s
[2022-04-01T11:30:32.735+0000][512167][safepoint   ] Safepoint "G1Concurrent", Time since last: 86721156 ns, Reaching safepoint: 843338 ns, At safepoint: 518767 ns, Total: 1362105 ns
[2022-04-01T11:30:32.737+0000][512167][gc,marking  ] GC(10) Concurrent Cleanup for Next Mark
[2022-04-01T11:30:32.738+0000][512167][gc,marking  ] GC(10) Concurrent Cleanup for Next Mark 1.507ms
[2022-04-01T11:30:32.738+0000][512167][gc          ] GC(10) Concurrent Cycle 286.239ms
[2022-04-01T11:30:33.737+0000][512167][safepoint   ] Safepoint "Cleanup", Time since last: 1000104909 ns, Reaching safepoint: 1554728 ns, At safepoint: 16883 ns, Total: 1571611 ns
[2022-04-01T11:30:34.742+0000][512167][safepoint   ] Safepoint "Cleanup", Time since last: 1000144097 ns, Reaching safepoint: 4860910 ns, At safepoint: 15703 ns, Total: 4876613 ns
[2022-04-01T11:30:35.947+0000][512167][safepoint   ] Safepoint "Cleanup", Time since last: 1202470253 ns, Reaching safepoint: 2263833 ns, At safepoint: 13662 ns, Total: 2277495 ns
[2022-04-01T11:30:37.513+0000][512167][safepoint   ] Safepoint "Cleanup", Time since last: 1565046313 ns, Reaching safepoint: 863460 ns, At safepoint: 19676 ns, Total: 883136 ns
[2022-04-01T11:30:38.531+0000][512167][safepoint   ] Safepoint "Cleanup", Time since last: 1018143331 ns, Reaching safepoint: 240414 ns, At safepoint: 13048 ns, Total: 253462 ns
[2022-04-01T11:30:40.143+0000][512167][safepoint   ] Safepoint "Cleanup", Time since last: 1600982081 ns, Reaching safepoint: 11162747 ns, At safepoint: 11602 ns, Total: 11174349 ns
[2022-04-01T11:30:41.148+0000][512167][safepoint   ] Safepoint "Cleanup", Time since last: 1002957322 ns, Reaching safepoint: 1588643 ns, At safepoint: 12565 ns, Total: 1601208 ns
[2022-04-01T11:30:42.148+0000][512167][safepoint   ] Safepoint "Cleanup", Time since last: 1000170255 ns, Reaching safepoint: 113402 ns, At safepoint: 7558 ns, Total: 120960 ns
[2022-04-01T11:30:43.162+0000][512167][safepoint   ] Safepoint "Cleanup", Time since last: 1013754776 ns, Reaching safepoint: 346935 ns, At safepoint: 6333 ns, Total: 353268 ns
[2022-04-01T11:30:44.163+0000][512167][safepoint   ] Safepoint "Cleanup", Time since last: 1000841849 ns, Reaching safepoint: 247924 ns, At safepoint: 9419 ns, Total: 257343 ns
[2022-04-01T11:30:45.169+0000][512167][safepoint   ] Safepoint "Cleanup", Time since last: 1005506704 ns, Reaching safepoint: 226411 ns, At safepoint: 11550 ns, Total: 237961 ns
[2022-04-01T11:30:46.169+0000][512167][safepoint   ] Safepoint "Cleanup", Time since last: 1000374076 ns, Reaching safepoint: 102668 ns, At safepoint: 5091 ns, Total: 107759 ns
[2022-04-01T11:30:47.173+0000][512167][safepoint   ] Safepoint "Cleanup", Time since last: 1000382849 ns, Reaching safepoint: 3639627 ns, At safepoint: 13634 ns, Total: 3653261 ns
[2022-04-01T11:30:48.174+0000][512167][safepoint   ] Safepoint "Cleanup", Time since last: 1000268598 ns, Reaching safepoint: 100507 ns, At safepoint: 8169 ns, Total: 108676 ns
[2022-04-01T11:30:49.175+0000][512167][safepoint   ] Safepoint "Cleanup", Time since last: 1001300046 ns, Reaching safepoint: 147402 ns, At safepoint: 6458 ns, Total: 153860 ns
[2022-04-01T11:30:50.176+0000][512167][safepoint   ] Safepoint "Cleanup", Time since last: 1000360699 ns, Reaching safepoint: 90904 ns, At safepoint: 7564 ns, Total: 98468 ns
[2022-04-01T11:30:51.176+0000][512167][safepoint   ] Safepoint "Cleanup", Time since last: 1000081037 ns, Reaching safepoint: 115100 ns, At safepoint: 5151 ns, Total: 120251 ns
[2022-04-01T11:30:52.176+0000][512167][safepoint   ] Safepoint "Cleanup", Time since last: 1000307224 ns, Reaching safepoint: 180485 ns, At safepoint: 8279 ns, Total: 188764 ns
[2022-04-01T11:30:53.177+0000][512167][safepoint   ] Safepoint "Cleanup", Time since last: 1000112732 ns, Reaching safepoint: 99474 ns, At safepoint: 4171 ns, Total: 103645 ns
[2022-04-01T11:30:54.177+0000][512167][safepoint   ] Safepoint "Cleanup", Time since last: 1000279318 ns, Reaching safepoint: 276295 ns, At safepoint: 16870 ns, Total: 293165 ns
[2022-04-01T11:30:55.178+0000][512167][safepoint   ] Safepoint "Cleanup", Time since last: 1000481407 ns, Reaching safepoint: 289844 ns, At safepoint: 10829 ns, Total: 300673 ns
[2022-04-01T11:30:56.178+0000][512167][safepoint   ] Safepoint "Cleanup", Time since last: 1000230433 ns, Reaching safepoint: 148573 ns, At safepoint: 5715 ns, Total: 154288 ns
[2022-04-01T11:30:57.180+0000][512167][safepoint   ] Safepoint "Cleanup", Time since last: 1001177218 ns, Reaching safepoint: 140273 ns, At safepoint: 5629 ns, Total: 145902 ns
[2022-04-01T11:30:58.182+0000][512167][safepoint   ] Safepoint "Cleanup", Time since last: 1001802098 ns, Reaching safepoint: 126620 ns, At safepoint: 5082 ns, Total: 131702 ns
[2022-04-01T11:30:59.182+0000][512167][safepoint   ] Safepoint "Cleanup", Time since last: 1000275445 ns, Reaching safepoint: 99939 ns, At safepoint: 5510 ns, Total: 105449 ns
[2022-04-01T11:31:00.182+0000][512167][safepoint   ] Safepoint "Cleanup", Time since last: 1000267129 ns, Reaching safepoint: 148723 ns, At safepoint: 12814 ns, Total: 161537 ns
[2022-04-01T11:31:01.183+0000][512167][safepoint   ] Safepoint "Cleanup", Time since last: 1000460037 ns, Reaching safepoint: 93583 ns, At safepoint: 5990 ns, Total: 99573 ns
[2022-04-01T11:31:02.183+0000][512167][safepoint   ] Safepoint "Cleanup", Time since last: 1000245796 ns, Reaching safepoint: 104798 ns, At safepoint: 9143 ns, Total: 113941 ns
[2022-04-01T11:31:03.184+0000][512167][safepoint   ] Safepoint "Cleanup", Time since last: 1000123323 ns, Reaching safepoint: 211150 ns, At safepoint: 4754 ns, Total: 215904 ns
[2022-04-01T11:31:04.184+0000][512167][safepoint   ] Safepoint "Cleanup", Time since last: 1000269216 ns, Reaching safepoint: 323052 ns, At safepoint: 10208 ns, Total: 333260 ns
[2022-04-01T11:31:05.185+0000][512167][safepoint   ] Safepoint "Cleanup", Time since last: 1000410169 ns, Reaching safepoint: 222848 ns, At safepoint: 31260 ns, Total: 254108 ns
[2022-04-01T11:31:06.186+0000][512167][safepoint   ] Safepoint "Cleanup", Time since last: 1000998118 ns, Reaching safepoint: 215130 ns, At safepoint: 10079 ns, Total: 225209 ns
[2022-04-01T11:31:07.187+0000][512167][safepoint   ] Safepoint "Cleanup", Time since last: 1000449376 ns, Reaching safepoint: 243487 ns, At safepoint: 14049 ns, Total: 257536 ns
[2022-04-01T11:31:08.188+0000][512167][safepoint   ] Safepoint "Cleanup", Time since last: 1000796837 ns, Reaching safepoint: 113527 ns, At safepoint: 7629 ns, Total: 121156 ns
[2022-04-01T11:31:09.188+0000][512167][safepoint   ] Safepoint "Cleanup", Time since last: 1000269079 ns, Reaching safepoint: 191235 ns, At safepoint: 9301 ns, Total: 200536 ns
[2022-04-01T11:31:10.189+0000][512167][safepoint   ] Safepoint "Cleanup", Time since last: 1000552596 ns, Reaching safepoint: 159355 ns, At safepoint: 6101 ns, Total: 165456 ns
[2022-04-01T11:31:11.191+0000][512167][safepoint   ] Safepoint "Cleanup", Time since last: 1000188420 ns, Reaching safepoint: 1639888 ns, At safepoint: 14662 ns, Total: 1654550 ns
[2022-04-01T11:31:12.194+0000][512167][safepoint   ] Safepoint "Cleanup", Time since last: 1003251255 ns, Reaching safepoint: 389259 ns, At safepoint: 19563 ns, Total: 408822 ns
[2022-04-01T11:31:13.202+0000][512167][safepoint   ] Safepoint "Cleanup", Time since last: 1007598992 ns, Reaching safepoint: 221835 ns, At safepoint: 6997 ns, Total: 228832 ns
[2022-04-01T11:31:14.203+0000][512167][safepoint   ] Safepoint "Cleanup", Time since last: 1000262783 ns, Reaching safepoint: 163356 ns, At safepoint: 5036 ns, Total: 168392 ns
[2022-04-01T11:31:15.203+0000][512167][safepoint   ] Safepoint "Cleanup", Time since last: 1000139745 ns, Reaching safepoint: 218322 ns, At safepoint: 9066 ns, Total: 227388 ns
[2022-04-01T11:31:16.204+0000][512167][safepoint   ] Safepoint "Cleanup", Time since last: 1000401549 ns, Reaching safepoint: 567385 ns, At safepoint: 23789 ns, Total: 591174 ns
[2022-04-01T11:31:18.205+0000][512167][safepoint   ] Safepoint "Cleanup", Time since last: 2000713418 ns, Reaching safepoint: 107119 ns, At safepoint: 6669 ns, Total: 113788 ns
[2022-04-01T11:31:19.205+0000][512167][safepoint   ] Safepoint "Cleanup", Time since last: 1000229693 ns, Reaching safepoint: 220190 ns, At safepoint: 11397 ns, Total: 231587 ns
[2022-04-01T11:31:20.206+0000][512167][safepoint   ] Safepoint "Cleanup", Time since last: 1000169806 ns, Reaching safepoint: 316639 ns, At safepoint: 11717 ns, Total: 328356 ns
[2022-04-01T11:31:21.207+0000][512167][safepoint   ] Safepoint "Cleanup", Time since last: 1000669862 ns, Reaching safepoint: 290374 ns, At safepoint: 17598 ns, Total: 307972 ns
[2022-04-01T11:31:23.208+0000][512167][safepoint   ] Safepoint "Cleanup", Time since last: 2000728746 ns, Reaching safepoint: 283690 ns, At safepoint: 19082 ns, Total: 302772 ns
[2022-04-01T11:31:24.208+0000][512167][safepoint   ] Safepoint "Cleanup", Time since last: 1000117364 ns, Reaching safepoint: 119503 ns, At safepoint: 4748 ns, Total: 124251 ns
[2022-04-01T11:31:25.209+0000][512167][safepoint   ] Safepoint "Cleanup", Time since last: 1001129476 ns, Reaching safepoint: 116640 ns, At safepoint: 16467 ns, Total: 133107 ns
[2022-04-01T11:31:26.211+0000][512167][safepoint   ] Safepoint "Cleanup", Time since last: 1001163559 ns, Reaching safepoint: 134566 ns, At safepoint: 8080 ns, Total: 142646 ns
[2022-04-01T11:31:27.212+0000][512167][safepoint   ] Safepoint "Cleanup", Time since last: 1000715815 ns, Reaching safepoint: 150234 ns, At safepoint: 10583 ns, Total: 160817 ns
[2022-04-01T11:31:28.212+0000][512167][safepoint   ] Safepoint "Cleanup", Time since last: 1000163954 ns, Reaching safepoint: 227416 ns, At safepoint: 13981 ns, Total: 241397 ns
[2022-04-01T11:31:29.213+0000][512167][safepoint   ] Safepoint "Cleanup", Time since last: 1000408775 ns, Reaching safepoint: 125189 ns, At safepoint: 9684 ns, Total: 134873 ns
[2022-04-01T11:31:35.231+0000][512167][safepoint   ] Safepoint "Cleanup", Time since last: 6018270073 ns, Reaching safepoint: 209116 ns, At safepoint: 8954 ns, Total: 218070 ns
[2022-04-01T11:31:36.232+0000][512167][safepoint   ] Safepoint "Cleanup", Time since last: 1000540861 ns, Reaching safepoint: 386859 ns, At safepoint: 13730 ns, Total: 400589 ns
[2022-04-01T11:31:37.233+0000][512167][safepoint   ] Safepoint "Cleanup", Time since last: 1000539444 ns, Reaching safepoint: 213447 ns, At safepoint: 12661 ns, Total: 226108 ns
[2022-04-01T11:31:41.235+0000][512167][safepoint   ] Safepoint "Cleanup", Time since last: 4002212744 ns, Reaching safepoint: 310718 ns, At safepoint: 13604 ns, Total: 324322 ns
[2022-04-01T11:31:42.236+0000][512167][safepoint   ] Safepoint "Cleanup", Time since last: 1000507228 ns, Reaching safepoint: 327122 ns, At safepoint: 17014 ns, Total: 344136 ns
[2022-04-01T11:31:43.237+0000][512167][safepoint   ] Safepoint "Cleanup", Time since last: 1000249308 ns, Reaching safepoint: 372172 ns, At safepoint: 16126 ns, Total: 388298 ns
[2022-04-01T11:31:44.237+0000][512167][safepoint   ] Safepoint "Cleanup", Time since last: 1000260845 ns, Reaching safepoint: 297087 ns, At safepoint: 12675 ns, Total: 309762 ns
[2022-04-01T11:31:45.238+0000][512167][safepoint   ] Safepoint "Cleanup", Time since last: 1000468288 ns, Reaching safepoint: 374221 ns, At safepoint: 16410 ns, Total: 390631 ns
[2022-04-01T11:31:49.241+0000][512167][safepoint   ] Safepoint "Cleanup", Time since last: 4002515507 ns, Reaching safepoint: 310527 ns, At safepoint: 17419 ns, Total: 327946 ns
[2022-04-01T11:31:51.242+0000][512167][safepoint   ] Safepoint "Cleanup", Time since last: 2000776042 ns, Reaching safepoint: 191343 ns, At safepoint: 15349 ns, Total: 206692 ns
[2022-04-01T11:31:52.246+0000][512167][safepoint   ] Safepoint "Cleanup", Time since last: 1003870994 ns, Reaching safepoint: 314677 ns, At safepoint: 16010 ns, Total: 330687 ns
[2022-04-01T11:31:55.256+0000][512167][safepoint   ] Safepoint "Cleanup", Time since last: 3008668639 ns, Reaching safepoint: 982188 ns, At safepoint: 38839 ns, Total: 1021027 ns
[2022-04-01T11:31:56.257+0000][512167][safepoint   ] Safepoint "Cleanup", Time since last: 1000749037 ns, Reaching safepoint: 316669 ns, At safepoint: 9978 ns, Total: 326647 ns
[2022-04-01T11:31:58.259+0000][512167][safepoint   ] Safepoint "Cleanup", Time since last: 2001378547 ns, Reaching safepoint: 338331 ns, At safepoint: 11527 ns, Total: 349858 ns
[2022-04-01T11:31:59.259+0000][512167][safepoint   ] Safepoint "Cleanup", Time since last: 1000400391 ns, Reaching safepoint: 289866 ns, At safepoint: 18907 ns, Total: 308773 ns
[2022-04-01T11:32:00.265+0000][512167][safepoint   ] Safepoint "Cleanup", Time since last: 1000969923 ns, Reaching safepoint: 4200369 ns, At safepoint: 6266 ns, Total: 4206635 ns
[2022-04-01T11:32:01.266+0000][512167][safepoint   ] Safepoint "Cleanup", Time since last: 1001468927 ns, Reaching safepoint: 218994 ns, At safepoint: 10681 ns, Total: 229675 ns
[2022-04-01T11:32:02.268+0000][512167][safepoint   ] Safepoint "Cleanup", Time since last: 1000948174 ns, Reaching safepoint: 310001 ns, At safepoint: 10237 ns, Total: 320238 ns
[2022-04-01T11:32:03.268+0000][512167][safepoint   ] Safepoint "Cleanup", Time since last: 1000246010 ns, Reaching safepoint: 481995 ns, At safepoint: 9146 ns, Total: 491141 ns
[2022-04-01T11:32:04.270+0000][512167][safepoint   ] Safepoint "Cleanup", Time since last: 1001230383 ns, Reaching safepoint: 158120 ns, At safepoint: 5586 ns, Total: 163706 ns
[2022-04-01T11:32:05.271+0000][512167][safepoint   ] Safepoint "Cleanup", Time since last: 1000695825 ns, Reaching safepoint: 350722 ns, At safepoint: 14547 ns, Total: 365269 ns
[2022-04-01T11:32:06.272+0000][512167][safepoint   ] Safepoint "Cleanup", Time since last: 1000237226 ns, Reaching safepoint: 484459 ns, At safepoint: 22285 ns, Total: 506744 ns
[2022-04-01T11:32:09.279+0000][512167][safepoint   ] Safepoint "Cleanup", Time since last: 3007631108 ns, Reaching safepoint: 193642 ns, At safepoint: 10720 ns, Total: 204362 ns
[2022-04-01T11:32:11.282+0000][512167][safepoint   ] Safepoint "Cleanup", Time since last: 2002699792 ns, Reaching safepoint: 184215 ns, At safepoint: 6388 ns, Total: 190603 ns
[2022-04-01T11:32:14.302+0000][512167][safepoint   ] Safepoint "Cleanup", Time since last: 3019337828 ns, Reaching safepoint: 353735 ns, At safepoint: 17753 ns, Total: 371488 ns
[2022-04-01T11:32:15.302+0000][512167][safepoint   ] Safepoint "Cleanup", Time since last: 1000271577 ns, Reaching safepoint: 228569 ns, At safepoint: 23740 ns, Total: 252309 ns
[2022-04-01T11:32:16.303+0000][512167][safepoint   ] Safepoint "Cleanup", Time since last: 1000204182 ns, Reaching safepoint: 188795 ns, At safepoint: 8009 ns, Total: 196804 ns
[2022-04-01T11:32:17.303+0000][512167][safepoint   ] Safepoint "Cleanup", Time since last: 1000187355 ns, Reaching safepoint: 376613 ns, At safepoint: 13537 ns, Total: 390150 ns
[2022-04-01T11:32:18.304+0000][512167][safepoint   ] Safepoint "Cleanup", Time since last: 1000280211 ns, Reaching safepoint: 238977 ns, At safepoint: 11136 ns, Total: 250113 ns
[2022-04-01T11:32:19.305+0000][512167][safepoint   ] Safepoint "Cleanup", Time since last: 1000427283 ns, Reaching safepoint: 305033 ns, At safepoint: 14267 ns, Total: 319300 ns
[2022-04-01T11:32:20.305+0000][512167][safepoint   ] Safepoint "Cleanup", Time since last: 1000205146 ns, Reaching safepoint: 344562 ns, At safepoint: 15281 ns, Total: 359843 ns
[2022-04-01T11:32:21.306+0000][512167][safepoint   ] Safepoint "Cleanup", Time since last: 1000222343 ns, Reaching safepoint: 408358 ns, At safepoint: 20756 ns, Total: 429114 ns
[2022-04-01T11:32:22.307+0000][512167][safepoint   ] Safepoint "Cleanup", Time since last: 1001111375 ns, Reaching safepoint: 361685 ns, At safepoint: 10499 ns, Total: 372184 ns
[2022-04-01T11:32:25.308+0000][512167][safepoint   ] Safepoint "Cleanup", Time since last: 3000789433 ns, Reaching safepoint: 277507 ns, At safepoint: 10141 ns, Total: 287648 ns
[2022-04-01T11:32:28.310+0000][512167][safepoint   ] Safepoint "Cleanup", Time since last: 3001578022 ns, Reaching safepoint: 296825 ns, At safepoint: 13279 ns, Total: 310104 ns
[2022-04-01T11:32:30.311+0000][512167][safepoint   ] Safepoint "Cleanup", Time since last: 2000714842 ns, Reaching safepoint: 99472 ns, At safepoint: 7192 ns, Total: 106664 ns
[2022-04-01T11:32:38.318+0000][512167][safepoint   ] Safepoint "Cleanup", Time since last: 8007116938 ns, Reaching safepoint: 163963 ns, At safepoint: 8084 ns, Total: 172047 ns
[2022-04-01T11:32:39.319+0000][512167][safepoint   ] Safepoint "Cleanup", Time since last: 1000289419 ns, Reaching safepoint: 145636 ns, At safepoint: 8244 ns, Total: 153880 ns
[2022-04-01T11:32:40.322+0000][512167][safepoint   ] Safepoint "Cleanup", Time since last: 1000229759 ns, Reaching safepoint: 2566001 ns, At safepoint: 71012 ns, Total: 2637013 ns
[2022-04-01T11:32:41.322+0000][512167][safepoint   ] Safepoint "Cleanup", Time since last: 1000326530 ns, Reaching safepoint: 233652 ns, At safepoint: 14349 ns, Total: 248001 ns
[2022-04-01T11:32:43.338+0000][512167][safepoint   ] Safepoint "Cleanup", Time since last: 2015672913 ns, Reaching safepoint: 160400 ns, At safepoint: 6051 ns, Total: 166451 ns
[2022-04-01T11:32:44.339+0000][512167][safepoint   ] Safepoint "Cleanup", Time since last: 1000135911 ns, Reaching safepoint: 178517 ns, At safepoint: 7150 ns, Total: 185667 ns
[2022-04-01T11:32:45.340+0000][512167][safepoint   ] Safepoint "Cleanup", Time since last: 1000410207 ns, Reaching safepoint: 497271 ns, At safepoint: 62605 ns, Total: 559876 ns
[2022-04-01T11:32:48.343+0000][512167][safepoint   ] Safepoint "Cleanup", Time since last: 3003401221 ns, Reaching safepoint: 178873 ns, At safepoint: 6279 ns, Total: 185152 ns
[2022-04-01T11:32:49.344+0000][512167][safepoint   ] Safepoint "Cleanup", Time since last: 1000161090 ns, Reaching safepoint: 550503 ns, At safepoint: 17771 ns, Total: 568274 ns
[2022-04-01T11:32:50.344+0000][512167][safepoint   ] Safepoint "Cleanup", Time since last: 1000253497 ns, Reaching safepoint: 389366 ns, At safepoint: 16207 ns, Total: 405573 ns
[2022-04-01T11:32:51.345+0000][512167][safepoint   ] Safepoint "Cleanup", Time since last: 1000440034 ns, Reaching safepoint: 263235 ns, At safepoint: 17036 ns, Total: 280271 ns
[2022-04-01T11:32:54.353+0000][512167][safepoint   ] Safepoint "Cleanup", Time since last: 3007637382 ns, Reaching safepoint: 212849 ns, At safepoint: 18235 ns, Total: 231084 ns
[2022-04-01T11:32:58.363+0000][512167][safepoint   ] Safepoint "Cleanup", Time since last: 4009662295 ns, Reaching safepoint: 249430 ns, At safepoint: 33148 ns, Total: 282578 ns
[2022-04-01T11:33:00.364+0000][512167][safepoint   ] Safepoint "Cleanup", Time since last: 2000360501 ns, Reaching safepoint: 223828 ns, At safepoint: 8871 ns, Total: 232699 ns
[2022-04-01T11:33:01.364+0000][512167][safepoint   ] Safepoint "Cleanup", Time since last: 1000171937 ns, Reaching safepoint: 176937 ns, At safepoint: 10917 ns, Total: 187854 ns
[2022-04-01T11:33:02.364+0000][512167][safepoint   ] Safepoint "Cleanup", Time since last: 1000184990 ns, Reaching safepoint: 278092 ns, At safepoint: 11055 ns, Total: 289147 ns
[2022-04-01T11:33:05.365+0000][512167][safepoint   ] Safepoint "Cleanup", Time since last: 3000539695 ns, Reaching safepoint: 129344 ns, At safepoint: 8027 ns, Total: 137371 ns
[2022-04-01T11:33:06.366+0000][512167][safepoint   ] Safepoint "Cleanup", Time since last: 1000275792 ns, Reaching safepoint: 249686 ns, At safepoint: 11000 ns, Total: 260686 ns
[2022-04-01T11:33:08.366+0000][512167][safepoint   ] Safepoint "Cleanup", Time since last: 2000247111 ns, Reaching safepoint: 225285 ns, At safepoint: 9119 ns, Total: 234404 ns
[2022-04-01T11:33:11.371+0000][512167][safepoint   ] Safepoint "Cleanup", Time since last: 3004509651 ns, Reaching safepoint: 195311 ns, At safepoint: 9504 ns, Total: 204815 ns
[2022-04-01T11:33:12.371+0000][512167][safepoint   ] Safepoint "Cleanup", Time since last: 1000149530 ns, Reaching safepoint: 178870 ns, At safepoint: 8284 ns, Total: 187154 ns
[2022-04-01T11:33:13.373+0000][512167][safepoint   ] Safepoint "Cleanup", Time since last: 1001186081 ns, Reaching safepoint: 198273 ns, At safepoint: 7044 ns, Total: 205317 ns
[2022-04-01T11:33:14.373+0000][512167][safepoint   ] Safepoint "Cleanup", Time since last: 1000186396 ns, Reaching safepoint: 313386 ns, At safepoint: 9050 ns, Total: 322436 ns
[2022-04-01T11:33:20.375+0000][512167][safepoint   ] Safepoint "Cleanup", Time since last: 6001233418 ns, Reaching safepoint: 212946 ns, At safepoint: 6652 ns, Total: 219598 ns
[2022-04-01T11:33:21.379+0000][512167][safepoint   ] Safepoint "Cleanup", Time since last: 1004524642 ns, Reaching safepoint: 354681 ns, At safepoint: 14406 ns, Total: 369087 ns
[2022-04-01T11:33:24.381+0000][512167][safepoint   ] Safepoint "Cleanup", Time since last: 3000720472 ns, Reaching safepoint: 802713 ns, At safepoint: 21651 ns, Total: 824364 ns
[2022-04-01T11:33:26.382+0000][512167][safepoint   ] Safepoint "Cleanup", Time since last: 2001142907 ns, Reaching safepoint: 145250 ns, At safepoint: 5897 ns, Total: 151147 ns
[2022-04-01T11:33:27.383+0000][512167][safepoint   ] Safepoint "Cleanup", Time since last: 1000175974 ns, Reaching safepoint: 244053 ns, At safepoint: 9983 ns, Total: 254036 ns
[2022-04-01T11:33:28.383+0000][512167][safepoint   ] Safepoint "Cleanup", Time since last: 1000362217 ns, Reaching safepoint: 245082 ns, At safepoint: 12937 ns, Total: 258019 ns
[2022-04-01T11:33:29.384+0000][512167][safepoint   ] Safepoint "Cleanup", Time since last: 1000671571 ns, Reaching safepoint: 205442 ns, At safepoint: 8066 ns, Total: 213508 ns
[2022-04-01T11:33:31.385+0000][512167][safepoint   ] Safepoint "Cleanup", Time since last: 2001061639 ns, Reaching safepoint: 227535 ns, At safepoint: 7484 ns, Total: 235019 ns
[2022-04-01T11:33:32.386+0000][512167][safepoint   ] Safepoint "Cleanup", Time since last: 1000189674 ns, Reaching safepoint: 463227 ns, At safepoint: 21543 ns, Total: 484770 ns
[2022-04-01T11:33:36.395+0000][512167][safepoint   ] Safepoint "Cleanup", Time since last: 4008966441 ns, Reaching safepoint: 257603 ns, At safepoint: 8820 ns, Total: 266423 ns
[2022-04-01T11:33:38.396+0000][512167][safepoint   ] Safepoint "Cleanup", Time since last: 2000275555 ns, Reaching safepoint: 238534 ns, At safepoint: 8943 ns, Total: 247477 ns
[2022-04-01T11:33:39.396+0000][512167][safepoint   ] Safepoint "Cleanup", Time since last: 1000160456 ns, Reaching safepoint: 188354 ns, At safepoint: 6710 ns, Total: 195064 ns
[2022-04-01T11:33:40.399+0000][512167][safepoint   ] Safepoint "Cleanup", Time since last: 1001815271 ns, Reaching safepoint: 373156 ns, At safepoint: 16590 ns, Total: 389746 ns
[2022-04-01T11:33:44.402+0000][512167][safepoint   ] Safepoint "Cleanup", Time since last: 4003120058 ns, Reaching safepoint: 276363 ns, At safepoint: 11914 ns, Total: 288277 ns
[2022-04-01T11:33:45.403+0000][512167][safepoint   ] Safepoint "Cleanup", Time since last: 1001294121 ns, Reaching safepoint: 285105 ns, At safepoint: 10639 ns, Total: 295744 ns
[2022-04-01T11:33:47.404+0000][512167][safepoint   ] Safepoint "Cleanup", Time since last: 2000743595 ns, Reaching safepoint: 189391 ns, At safepoint: 10335 ns, Total: 199726 ns
[2022-04-01T11:33:51.408+0000][512167][safepoint   ] Safepoint "Cleanup", Time since last: 4003142703 ns, Reaching safepoint: 303976 ns, At safepoint: 21169 ns, Total: 325145 ns
[2022-04-01T11:33:54.410+0000][512167][safepoint   ] Safepoint "Cleanup", Time since last: 3001586094 ns, Reaching safepoint: 271136 ns, At safepoint: 19835 ns, Total: 290971 ns
[2022-04-01T11:34:00.426+0000][512167][safepoint   ] Safepoint "Cleanup", Time since last: 6016429774 ns, Reaching safepoint: 178900 ns, At safepoint: 8222 ns, Total: 187122 ns
[2022-04-01T11:34:02.434+0000][512167][safepoint   ] Safepoint "Cleanup", Time since last: 2007426346 ns, Reaching safepoint: 114840 ns, At safepoint: 10498 ns, Total: 125338 ns
[2022-04-01T11:34:07.437+0000][512167][safepoint   ] Safepoint "Cleanup", Time since last: 5002624618 ns, Reaching safepoint: 224104 ns, At safepoint: 7230 ns, Total: 231334 ns
[2022-04-01T11:34:08.437+0000][512167][safepoint   ] Safepoint "Cleanup", Time since last: 1000142393 ns, Reaching safepoint: 219411 ns, At safepoint: 9375 ns, Total: 228786 ns
[2022-04-01T11:34:10.443+0000][512167][safepoint   ] Safepoint "Cleanup", Time since last: 2005353173 ns, Reaching safepoint: 244244 ns, At safepoint: 10468 ns, Total: 254712 ns
[2022-04-01T11:34:16.460+0000][512167][safepoint   ] Safepoint "Cleanup", Time since last: 6017581916 ns, Reaching safepoint: 106549 ns, At safepoint: 6104 ns, Total: 112653 ns
[2022-04-01T11:34:19.461+0000][512167][safepoint   ] Safepoint "Cleanup", Time since last: 3000506982 ns, Reaching safepoint: 257387 ns, At safepoint: 9012 ns, Total: 266399 ns
[2022-04-01T11:34:21.462+0000][512167][safepoint   ] Safepoint "Cleanup", Time since last: 2000541930 ns, Reaching safepoint: 477573 ns, At safepoint: 13981 ns, Total: 491554 ns
[2022-04-01T11:34:23.468+0000][512167][safepoint   ] Safepoint "Cleanup", Time since last: 2005058030 ns, Reaching safepoint: 179890 ns, At safepoint: 5919 ns, Total: 185809 ns
[2022-04-01T11:34:24.471+0000][512167][safepoint   ] Safepoint "Cleanup", Time since last: 1002818496 ns, Reaching safepoint: 179518 ns, At safepoint: 6629 ns, Total: 186147 ns
[2022-04-01T11:34:27.472+0000][512167][safepoint   ] Safepoint "Cleanup", Time since last: 3000927820 ns, Reaching safepoint: 166869 ns, At safepoint: 6722 ns, Total: 173591 ns
[2022-04-01T11:34:29.484+0000][512167][safepoint   ] Safepoint "Cleanup", Time since last: 2012281024 ns, Reaching safepoint: 154501 ns, At safepoint: 10562 ns, Total: 165063 ns
[2022-04-01T11:34:30.485+0000][512167][safepoint   ] Safepoint "Cleanup", Time since last: 1000152089 ns, Reaching safepoint: 301328 ns, At safepoint: 11970 ns, Total: 313298 ns
[2022-04-01T11:34:33.498+0000][512167][safepoint   ] Safepoint "Cleanup", Time since last: 3010750410 ns, Reaching safepoint: 3048889 ns, At safepoint: 15248 ns, Total: 3064137 ns
[2022-04-01T11:34:34.499+0000][512167][safepoint   ] Safepoint "Cleanup", Time since last: 1000570487 ns, Reaching safepoint: 182587 ns, At safepoint: 5260 ns, Total: 187847 ns
[2022-04-01T11:34:35.503+0000][512167][safepoint   ] Safepoint "Cleanup", Time since last: 1003332920 ns, Reaching safepoint: 749652 ns, At safepoint: 21772 ns, Total: 771424 ns
[2022-04-01T11:34:39.513+0000][512167][safepoint   ] Safepoint "Cleanup", Time since last: 4009180603 ns, Reaching safepoint: 359987 ns, At safepoint: 12943 ns, Total: 372930 ns
[2022-04-01T11:34:41.517+0000][512167][safepoint   ] Safepoint "Cleanup", Time since last: 2003711393 ns, Reaching safepoint: 251093 ns, At safepoint: 12285 ns, Total: 263378 ns
[2022-04-01T11:34:42.517+0000][512167][safepoint   ] Safepoint "Cleanup", Time since last: 1000246623 ns, Reaching safepoint: 162344 ns, At safepoint: 5324 ns, Total: 167668 ns
[2022-04-01T11:34:46.518+0000][512167][safepoint   ] Safepoint "Cleanup", Time since last: 4000906001 ns, Reaching safepoint: 230201 ns, At safepoint: 10436 ns, Total: 240637 ns
[2022-04-01T11:34:47.520+0000][512167][safepoint   ] Safepoint "Cleanup", Time since last: 1001044175 ns, Reaching safepoint: 544423 ns, At safepoint: 21296 ns, Total: 565719 ns
[2022-04-01T11:34:48.521+0000][512167][safepoint   ] Safepoint "Cleanup", Time since last: 1000399665 ns, Reaching safepoint: 399683 ns, At safepoint: 9195 ns, Total: 408878 ns
[2022-04-01T11:34:49.521+0000][512167][safepoint   ] Safepoint "Cleanup", Time since last: 1000179530 ns, Reaching safepoint: 386243 ns, At safepoint: 11416 ns, Total: 397659 ns
[2022-04-01T11:34:50.522+0000][512167][safepoint   ] Safepoint "Cleanup", Time since last: 1000165257 ns, Reaching safepoint: 141482 ns, At safepoint: 5370 ns, Total: 146852 ns
[2022-04-01T11:34:53.524+0000][512167][safepoint   ] Safepoint "Cleanup", Time since last: 3000897660 ns, Reaching safepoint: 1176989 ns, At safepoint: 8068 ns, Total: 1185057 ns
[2022-04-01T11:34:54.525+0000][512167][safepoint   ] Safepoint "Cleanup", Time since last: 1000686136 ns, Reaching safepoint: 484646 ns, At safepoint: 14160 ns, Total: 498806 ns
[2022-04-01T11:35:00.526+0000][512167][safepoint   ] Safepoint "Cleanup", Time since last: 6001050326 ns, Reaching safepoint: 237936 ns, At safepoint: 16633 ns, Total: 254569 ns
[2022-04-01T11:35:01.527+0000][512167][safepoint   ] Safepoint "Cleanup", Time since last: 1000483459 ns, Reaching safepoint: 684447 ns, At safepoint: 20653 ns, Total: 705100 ns
[2022-04-01T11:35:11.549+0000][512167][safepoint   ] Safepoint "Cleanup", Time since last: 10021416585 ns, Reaching safepoint: 344133 ns, At safepoint: 15445 ns, Total: 359578 ns
[2022-04-01T11:35:15.552+0000][512167][safepoint   ] Safepoint "Cleanup", Time since last: 4002499237 ns, Reaching safepoint: 162633 ns, At safepoint: 7769 ns, Total: 170402 ns
[2022-04-01T11:35:17.553+0000][512167][safepoint   ] Safepoint "Cleanup", Time since last: 2000649547 ns, Reaching safepoint: 166815 ns, At safepoint: 10176 ns, Total: 176991 ns
[2022-04-01T11:35:18.558+0000][512167][safepoint   ] Safepoint "Cleanup", Time since last: 1005419187 ns, Reaching safepoint: 263188 ns, At safepoint: 10873 ns, Total: 274061 ns
[2022-04-01T11:35:19.763+0000][512167][gc,start    ] GC(11) Pause Young (Normal) (G1 Evacuation Pause)
[2022-04-01T11:35:19.763+0000][512167][gc,task     ] GC(11) Using 4 workers of 4 for evacuation
[2022-04-01T11:35:19.763+0000][512167][gc,age      ] GC(11) Desired survivor size 36700160 bytes, new threshold 15 (max threshold 15)
[2022-04-01T11:35:19.867+0000][512167][gc,age      ] GC(11) Age table with threshold 15 (max threshold 15)
[2022-04-01T11:35:19.867+0000][512167][gc,age      ] GC(11) - age   1:   12971696 bytes,   12971696 total
[2022-04-01T11:35:19.867+0000][512167][gc,age      ] GC(11) - age   2:    7339968 bytes,   20311664 total
[2022-04-01T11:35:19.867+0000][512167][gc,phases   ] GC(11)   Pre Evacuate Collection Set: 1.4ms
[2022-04-01T11:35:19.868+0000][512167][gc,phases   ] GC(11)   Merge Heap Roots: 0.3ms
[2022-04-01T11:35:19.868+0000][512167][gc,phases   ] GC(11)   Evacuate Collection Set: 97.1ms
[2022-04-01T11:35:19.868+0000][512167][gc,phases   ] GC(11)   Post Evacuate Collection Set: 5.0ms
[2022-04-01T11:35:19.868+0000][512167][gc,phases   ] GC(11)   Other: 0.5ms
[2022-04-01T11:35:19.868+0000][512167][gc,heap     ] GC(11) Eden regions: 545->0(369)
[2022-04-01T11:35:19.868+0000][512167][gc,heap     ] GC(11) Survivor regions: 8->21(70)
[2022-04-01T11:35:19.868+0000][512167][gc,heap     ] GC(11) Old regions: 48->48
[2022-04-01T11:35:19.868+0000][512167][gc,heap     ] GC(11) Archive regions: 2->2
[2022-04-01T11:35:19.868+0000][512167][gc,heap     ] GC(11) Humongous regions: 1->1
[2022-04-01T11:35:19.868+0000][512167][gc,metaspace] GC(11) Metaspace: 82034K(85992K)->82034K(85992K) NonClass: 71155K(74088K)->71155K(74088K) Class: 10878K(11904K)->10878K(11904K)
[2022-04-01T11:35:19.868+0000][512167][gc          ] GC(11) Pause Young (Normal) (G1 Evacuation Pause) 602M->69M(1024M) 104.491ms
[2022-04-01T11:35:19.868+0000][512167][gc,cpu      ] GC(11) User=0.13s Sys=0.00s Real=0.11s
[2022-04-01T11:35:19.868+0000][512167][safepoint   ] Safepoint "G1CollectForAllocation", Time since last: 1204491449 ns, Reaching safepoint: 304964 ns, At safepoint: 104673690 ns, Total: 104978654 ns
[2022-04-01T11:35:20.869+0000][512167][safepoint   ] Safepoint "Cleanup", Time since last: 1000126333 ns, Reaching safepoint: 1121746 ns, At safepoint: 24166 ns, Total: 1145912 ns
[2022-04-01T11:35:22.870+0000][512167][safepoint   ] Safepoint "Cleanup", Time since last: 2000716938 ns, Reaching safepoint: 98872 ns, At safepoint: 4343 ns, Total: 103215 ns
[2022-04-01T11:35:29.876+0000][512167][safepoint   ] Safepoint "Cleanup", Time since last: 7005537958 ns, Reaching safepoint: 234724 ns, At safepoint: 18132 ns, Total: 252856 ns
[2022-04-01T11:35:31.883+0000][512167][safepoint   ] Safepoint "Cleanup", Time since last: 2006955651 ns, Reaching safepoint: 205308 ns, At safepoint: 7643 ns, Total: 212951 ns
[2022-04-01T11:35:32.883+0000][512167][safepoint   ] Safepoint "Cleanup", Time since last: 1000225528 ns, Reaching safepoint: 115538 ns, At safepoint: 7962 ns, Total: 123500 ns
[2022-04-01T11:35:34.884+0000][512167][safepoint   ] Safepoint "Cleanup", Time since last: 2000252603 ns, Reaching safepoint: 208208 ns, At safepoint: 11366 ns, Total: 219574 ns
[2022-04-01T11:35:39.886+0000][512167][safepoint   ] Safepoint "Cleanup", Time since last: 5002631479 ns, Reaching safepoint: 133580 ns, At safepoint: 9154 ns, Total: 142734 ns
[2022-04-01T11:35:41.891+0000][512167][safepoint   ] Safepoint "Cleanup", Time since last: 2004002225 ns, Reaching safepoint: 388303 ns, At safepoint: 6389 ns, Total: 394692 ns
[2022-04-01T11:35:45.895+0000][512167][safepoint   ] Safepoint "Cleanup", Time since last: 4003913884 ns, Reaching safepoint: 148208 ns, At safepoint: 6440 ns, Total: 154648 ns
[2022-04-01T11:35:46.895+0000][512167][safepoint   ] Safepoint "Cleanup", Time since last: 1000360964 ns, Reaching safepoint: 191739 ns, At safepoint: 7687 ns, Total: 199426 ns
[2022-04-01T11:35:48.896+0000][512167][safepoint   ] Safepoint "Cleanup", Time since last: 2000281399 ns, Reaching safepoint: 145248 ns, At safepoint: 9366 ns, Total: 154614 ns
[2022-04-01T11:35:49.896+0000][512167][safepoint   ] Safepoint "Cleanup", Time since last: 1000174008 ns, Reaching safepoint: 373753 ns, At safepoint: 23721 ns, Total: 397474 ns
[2022-04-01T11:35:50.897+0000][512167][safepoint   ] Safepoint "Cleanup", Time since last: 1000225201 ns, Reaching safepoint: 223475 ns, At safepoint: 13585 ns, Total: 237060 ns
[2022-04-01T11:35:54.898+0000][512167][safepoint   ] Safepoint "Cleanup", Time since last: 4001216348 ns, Reaching safepoint: 165608 ns, At safepoint: 9713 ns, Total: 175321 ns
[2022-04-01T11:36:02.900+0000][512167][safepoint   ] Safepoint "Cleanup", Time since last: 8000946601 ns, Reaching safepoint: 204497 ns, At safepoint: 9996 ns, Total: 214493 ns
[2022-04-01T11:36:03.900+0000][512167][safepoint   ] Safepoint "Cleanup", Time since last: 1000354932 ns, Reaching safepoint: 160894 ns, At safepoint: 10090 ns, Total: 170984 ns
[2022-04-01T11:36:04.900+0000][512167][safepoint   ] Safepoint "Cleanup", Time since last: 1000182932 ns, Reaching safepoint: 164716 ns, At safepoint: 6206 ns, Total: 170922 ns
[2022-04-01T11:36:07.904+0000][512167][safepoint   ] Safepoint "Cleanup", Time since last: 3003657378 ns, Reaching safepoint: 93714 ns, At safepoint: 4706 ns, Total: 98420 ns
[2022-04-01T11:36:12.905+0000][512167][safepoint   ] Safepoint "Cleanup", Time since last: 5000550566 ns, Reaching safepoint: 183779 ns, At safepoint: 11151 ns, Total: 194930 ns
[2022-04-01T11:36:14.905+0000][512167][safepoint   ] Safepoint "Cleanup", Time since last: 2000355942 ns, Reaching safepoint: 225670 ns, At safepoint: 9512 ns, Total: 235182 ns
[2022-04-01T11:36:21.907+0000][512167][safepoint   ] Safepoint "Cleanup", Time since last: 7000950129 ns, Reaching safepoint: 167342 ns, At safepoint: 7642 ns, Total: 174984 ns
[2022-04-01T11:36:23.908+0000][512167][safepoint   ] Safepoint "Cleanup", Time since last: 2000843634 ns, Reaching safepoint: 149289 ns, At safepoint: 8291 ns, Total: 157580 ns
[2022-04-01T11:36:36.917+0000][512167][safepoint   ] Safepoint "Cleanup", Time since last: 13009157788 ns, Reaching safepoint: 192233 ns, At safepoint: 7057 ns, Total: 199290 ns
[2022-04-01T11:36:42.918+0000][512167][safepoint   ] Safepoint "Cleanup", Time since last: 6001099956 ns, Reaching safepoint: 116833 ns, At safepoint: 6414 ns, Total: 123247 ns
[2022-04-01T11:36:44.919+0000][512167][safepoint   ] Safepoint "Cleanup", Time since last: 2000310282 ns, Reaching safepoint: 121488 ns, At safepoint: 11634 ns, Total: 133122 ns
[2022-04-01T11:36:46.919+0000][512167][safepoint   ] Safepoint "Cleanup", Time since last: 2000324563 ns, Reaching safepoint: 129493 ns, At safepoint: 6326 ns, Total: 135819 ns
[2022-04-01T11:36:51.921+0000][512167][safepoint   ] Safepoint "Cleanup", Time since last: 5001347020 ns, Reaching safepoint: 173857 ns, At safepoint: 7058 ns, Total: 180915 ns
[2022-04-01T11:36:54.922+0000][512167][safepoint   ] Safepoint "Cleanup", Time since last: 3000954522 ns, Reaching safepoint: 97421 ns, At safepoint: 4499 ns, Total: 101920 ns
[2022-04-01T11:36:56.927+0000][512167][safepoint   ] Safepoint "Cleanup", Time since last: 2004715693 ns, Reaching safepoint: 220064 ns, At safepoint: 8568 ns, Total: 228632 ns
[2022-04-01T11:36:59.938+0000][512167][safepoint   ] Safepoint "Cleanup", Time since last: 3011435130 ns, Reaching safepoint: 111525 ns, At safepoint: 5386 ns, Total: 116911 ns
[2022-04-01T11:37:05.939+0000][512167][safepoint   ] Safepoint "Cleanup", Time since last: 6001052226 ns, Reaching safepoint: 180556 ns, At safepoint: 13683 ns, Total: 194239 ns
[2022-04-01T11:37:08.940+0000][512167][safepoint   ] Safepoint "Cleanup", Time since last: 3000843166 ns, Reaching safepoint: 93832 ns, At safepoint: 7436 ns, Total: 101268 ns
[2022-04-01T11:37:19.942+0000][512167][safepoint   ] Safepoint "Cleanup", Time since last: 11001819845 ns, Reaching safepoint: 191470 ns, At safepoint: 11572 ns, Total: 203042 ns
[2022-04-01T11:37:20.943+0000][512167][safepoint   ] Safepoint "Cleanup", Time since last: 1000591892 ns, Reaching safepoint: 129627 ns, At safepoint: 6948 ns, Total: 136575 ns
[2022-04-01T11:37:21.944+0000][512167][safepoint   ] Safepoint "Cleanup", Time since last: 1000197054 ns, Reaching safepoint: 302428 ns, At safepoint: 9834 ns, Total: 312262 ns
[2022-04-01T11:37:22.944+0000][512167][safepoint   ] Safepoint "Cleanup", Time since last: 1000148441 ns, Reaching safepoint: 136002 ns, At safepoint: 9707 ns, Total: 145709 ns
[2022-04-01T11:37:24.944+0000][512167][safepoint   ] Safepoint "Cleanup", Time since last: 2000373260 ns, Reaching safepoint: 166455 ns, At safepoint: 14022 ns, Total: 180477 ns
[2022-04-01T11:37:28.945+0000][512167][safepoint   ] Safepoint "Cleanup", Time since last: 4000560212 ns, Reaching safepoint: 123160 ns, At safepoint: 5550 ns, Total: 128710 ns
[2022-04-01T11:37:32.946+0000][512167][safepoint   ] Safepoint "Cleanup", Time since last: 4000915112 ns, Reaching safepoint: 88942 ns, At safepoint: 4902 ns, Total: 93844 ns
[2022-04-01T11:37:35.948+0000][512167][safepoint   ] Safepoint "Cleanup", Time since last: 3001720182 ns, Reaching safepoint: 509106 ns, At safepoint: 14859 ns, Total: 523965 ns
[2022-04-01T11:37:39.995+0000][512167][safepoint   ] Safepoint "Cleanup", Time since last: 4007935134 ns, Reaching safepoint: 38556101 ns, At safepoint: 41715 ns, Total: 38597816 ns
[2022-04-01T11:37:40.995+0000][512167][safepoint   ] Safepoint "Cleanup", Time since last: 1000244012 ns, Reaching safepoint: 140073 ns, At safepoint: 48357 ns, Total: 188430 ns
[2022-04-01T11:37:41.996+0000][512167][safepoint   ] Safepoint "Cleanup", Time since last: 1000191979 ns, Reaching safepoint: 325627 ns, At safepoint: 14382 ns, Total: 340009 ns
[2022-04-01T11:37:43.997+0000][512167][safepoint   ] Safepoint "Cleanup", Time since last: 2000717721 ns, Reaching safepoint: 213758 ns, At safepoint: 21128 ns, Total: 234886 ns
[2022-04-01T11:37:44.997+0000][512167][safepoint   ] Safepoint "Cleanup", Time since last: 1000157987 ns, Reaching safepoint: 81141 ns, At safepoint: 4621 ns, Total: 85762 ns
[2022-04-01T11:37:45.997+0000][512167][safepoint   ] Safepoint "Cleanup", Time since last: 1000217373 ns, Reaching safepoint: 112325 ns, At safepoint: 6685 ns, Total: 119010 ns
[2022-04-01T11:37:51.998+0000][512167][safepoint   ] Safepoint "Cleanup", Time since last: 6000816879 ns, Reaching safepoint: 96121 ns, At safepoint: 4007 ns, Total: 100128 ns
[2022-04-01T11:37:52.999+0000][512167][safepoint   ] Safepoint "Cleanup", Time since last: 1000246435 ns, Reaching safepoint: 173136 ns, At safepoint: 6832 ns, Total: 179968 ns
[2022-04-01T11:37:58.000+0000][512167][safepoint   ] Safepoint "Cleanup", Time since last: 5001133318 ns, Reaching safepoint: 146629 ns, At safepoint: 7913 ns, Total: 154542 ns
[2022-04-01T11:37:59.001+0000][512167][safepoint   ] Safepoint "Cleanup", Time since last: 1000396103 ns, Reaching safepoint: 324903 ns, At safepoint: 14115 ns, Total: 339018 ns
[2022-04-01T11:38:04.006+0000][512167][safepoint   ] Safepoint "Cleanup", Time since last: 5005295270 ns, Reaching safepoint: 260532 ns, At safepoint: 9411 ns, Total: 269943 ns
[2022-04-01T11:38:08.007+0000][512167][safepoint   ] Safepoint "Cleanup", Time since last: 4000834360 ns, Reaching safepoint: 108467 ns, At safepoint: 6088 ns, Total: 114555 ns
[2022-04-01T11:38:10.008+0000][512167][safepoint   ] Safepoint "Cleanup", Time since last: 2000437769 ns, Reaching safepoint: 149075 ns, At safepoint: 6411 ns, Total: 155486 ns
[2022-04-01T11:38:11.013+0000][512167][safepoint   ] Safepoint "Cleanup", Time since last: 1004555491 ns, Reaching safepoint: 121881 ns, At safepoint: 6622 ns, Total: 128503 ns
[2022-04-01T11:38:13.013+0000][512167][safepoint   ] Safepoint "Cleanup", Time since last: 2000393159 ns, Reaching safepoint: 113438 ns, At safepoint: 6709 ns, Total: 120147 ns
[2022-04-01T11:38:16.014+0000][512167][safepoint   ] Safepoint "Cleanup", Time since last: 3000488283 ns, Reaching safepoint: 118016 ns, At safepoint: 5451 ns, Total: 123467 ns
[2022-04-01T11:38:18.015+0000][512167][safepoint   ] Safepoint "Cleanup", Time since last: 2000556030 ns, Reaching safepoint: 228747 ns, At safepoint: 14336 ns, Total: 243083 ns
[2022-04-01T11:38:22.016+0000][512167][safepoint   ] Safepoint "Cleanup", Time since last: 4000825850 ns, Reaching safepoint: 181809 ns, At safepoint: 8374 ns, Total: 190183 ns
[2022-04-01T11:38:23.016+0000][512167][safepoint   ] Safepoint "Cleanup", Time since last: 1000366025 ns, Reaching safepoint: 171605 ns, At safepoint: 6599 ns, Total: 178204 ns
[2022-04-01T11:38:25.210+0000][512167][safepoint   ] Safepoint "Cleanup", Time since last: 2193612089 ns, Reaching safepoint: 169267 ns, At safepoint: 10991 ns, Total: 180258 ns
[2022-04-01T11:38:29.211+0000][512167][safepoint   ] Safepoint "Cleanup", Time since last: 4001048070 ns, Reaching safepoint: 181852 ns, At safepoint: 10449 ns, Total: 192301 ns
[2022-04-01T11:38:31.212+0000][512167][safepoint   ] Safepoint "Cleanup", Time since last: 2000292387 ns, Reaching safepoint: 251118 ns, At safepoint: 8354 ns, Total: 259472 ns
[2022-04-01T11:38:43.214+0000][512167][safepoint   ] Safepoint "Cleanup", Time since last: 12002418822 ns, Reaching safepoint: 140717 ns, At safepoint: 9094 ns, Total: 149811 ns
[2022-04-01T11:38:44.215+0000][512167][safepoint   ] Safepoint "Cleanup", Time since last: 1000129274 ns, Reaching safepoint: 147070 ns, At safepoint: 8101 ns, Total: 155171 ns
[2022-04-01T11:38:48.216+0000][512167][safepoint   ] Safepoint "Cleanup", Time since last: 4000919483 ns, Reaching safepoint: 118361 ns, At safepoint: 8460 ns, Total: 126821 ns
[2022-04-01T11:38:49.216+0000][512167][safepoint   ] Safepoint "Cleanup", Time since last: 1000287366 ns, Reaching safepoint: 137090 ns, At safepoint: 8334 ns, Total: 145424 ns
[2022-04-01T11:38:51.217+0000][512167][safepoint   ] Safepoint "Cleanup", Time since last: 2000557300 ns, Reaching safepoint: 113457 ns, At safepoint: 11982 ns, Total: 125439 ns
[2022-04-01T11:38:52.217+0000][512167][safepoint   ] Safepoint "Cleanup", Time since last: 1000141821 ns, Reaching safepoint: 93148 ns, At safepoint: 5411 ns, Total: 98559 ns
[2022-04-01T11:39:05.222+0000][512167][safepoint   ] Safepoint "Cleanup", Time since last: 13004468572 ns, Reaching safepoint: 148264 ns, At safepoint: 7686 ns, Total: 155950 ns
[2022-04-01T11:39:06.222+0000][512167][safepoint   ] Safepoint "Cleanup", Time since last: 1000148675 ns, Reaching safepoint: 111453 ns, At safepoint: 5296 ns, Total: 116749 ns
[2022-04-01T11:39:17.230+0000][512167][safepoint   ] Safepoint "Cleanup", Time since last: 11007889646 ns, Reaching safepoint: 117389 ns, At safepoint: 15015 ns, Total: 132404 ns
[2022-04-01T11:39:24.231+0000][512167][safepoint   ] Safepoint "Cleanup", Time since last: 7001422712 ns, Reaching safepoint: 135796 ns, At safepoint: 6111 ns, Total: 141907 ns
[2022-04-01T11:39:25.232+0000][512167][safepoint   ] Safepoint "Cleanup", Time since last: 1000134286 ns, Reaching safepoint: 108538 ns, At safepoint: 5920 ns, Total: 114458 ns
[2022-04-01T11:39:26.232+0000][512167][safepoint   ] Safepoint "Cleanup", Time since last: 1000157157 ns, Reaching safepoint: 162609 ns, At safepoint: 9948 ns, Total: 172557 ns
[2022-04-01T11:39:28.233+0000][512167][safepoint   ] Safepoint "Cleanup", Time since last: 2000446892 ns, Reaching safepoint: 102488 ns, At safepoint: 9087 ns, Total: 111575 ns
[2022-04-01T11:39:30.233+0000][512167][safepoint   ] Safepoint "Cleanup", Time since last: 2000357319 ns, Reaching safepoint: 488814 ns, At safepoint: 12953 ns, Total: 501767 ns
[2022-04-01T11:39:36.235+0000][512167][safepoint   ] Safepoint "Cleanup", Time since last: 6001407248 ns, Reaching safepoint: 120408 ns, At safepoint: 7112 ns, Total: 127520 ns
[2022-04-01T11:39:46.237+0000][512167][safepoint   ] Safepoint "Cleanup", Time since last: 10002414564 ns, Reaching safepoint: 121677 ns, At safepoint: 7217 ns, Total: 128894 ns
[2022-04-01T11:39:52.238+0000][512167][safepoint   ] Safepoint "Cleanup", Time since last: 6000769184 ns, Reaching safepoint: 162103 ns, At safepoint: 7448 ns, Total: 169551 ns
[2022-04-01T11:39:55.239+0000][512167][safepoint   ] Safepoint "Cleanup", Time since last: 3000499933 ns, Reaching safepoint: 95267 ns, At safepoint: 6444 ns, Total: 101711 ns
[2022-04-01T11:40:02.240+0000][512167][safepoint   ] Safepoint "Cleanup", Time since last: 7001035265 ns, Reaching safepoint: 120744 ns, At safepoint: 5497 ns, Total: 126241 ns
[2022-04-01T11:40:25.326+0000][512167][gc,start    ] GC(12) Pause Young (Normal) (G1 Evacuation Pause)
[2022-04-01T11:40:25.326+0000][512167][gc,task     ] GC(12) Using 4 workers of 4 for evacuation
[2022-04-01T11:40:25.326+0000][512167][gc,age      ] GC(12) Desired survivor size 24641536 bytes, new threshold 15 (max threshold 15)
[2022-04-01T11:40:25.375+0000][512167][gc,age      ] GC(12) Age table with threshold 15 (max threshold 15)
[2022-04-01T11:40:25.375+0000][512167][gc,age      ] GC(12) - age   1:    2337664 bytes,    2337664 total
[2022-04-01T11:40:25.375+0000][512167][gc,age      ] GC(12) - age   2:   12773864 bytes,   15111528 total
[2022-04-01T11:40:25.375+0000][512167][gc,age      ] GC(12) - age   3:    7339968 bytes,   22451496 total
[2022-04-01T11:40:25.375+0000][512167][gc,phases   ] GC(12)   Pre Evacuate Collection Set: 0.3ms
[2022-04-01T11:40:25.375+0000][512167][gc,phases   ] GC(12)   Merge Heap Roots: 0.2ms
[2022-04-01T11:40:25.375+0000][512167][gc,phases   ] GC(12)   Evacuate Collection Set: 43.6ms
[2022-04-01T11:40:25.375+0000][512167][gc,phases   ] GC(12)   Post Evacuate Collection Set: 4.6ms
[2022-04-01T11:40:25.375+0000][512167][gc,phases   ] GC(12)   Other: 0.5ms
[2022-04-01T11:40:25.375+0000][512167][gc,heap     ] GC(12) Eden regions: 355->0(592)
[2022-04-01T11:40:25.375+0000][512167][gc,heap     ] GC(12) Survivor regions: 21->22(47)
[2022-04-01T11:40:25.375+0000][512167][gc,heap     ] GC(12) Old regions: 48->48
[2022-04-01T11:40:25.375+0000][512167][gc,heap     ] GC(12) Archive regions: 2->2
[2022-04-01T11:40:25.375+0000][512167][gc,heap     ] GC(12) Humongous regions: 1->1
[2022-04-01T11:40:25.375+0000][512167][gc,metaspace] GC(12) Metaspace: 82238K(85992K)->82238K(85992K) NonClass: 71356K(74088K)->71356K(74088K) Class: 10882K(11904K)->10882K(11904K)
[2022-04-01T11:40:25.375+0000][512167][gc          ] GC(12) Pause Young (Normal) (G1 Evacuation Pause) 424M->71M(1024M) 49.341ms
[2022-04-01T11:40:25.375+0000][512167][gc,cpu      ] GC(12) User=0.11s Sys=0.00s Real=0.04s
[2022-04-01T11:40:25.375+0000][512167][safepoint   ] Safepoint "G1CollectForAllocation", Time since last: 23085521768 ns, Reaching safepoint: 271986 ns, At safepoint: 49518772 ns, Total: 49790758 ns
[2022-04-01T11:40:29.376+0000][512167][safepoint   ] Safepoint "Cleanup", Time since last: 4000458282 ns, Reaching safepoint: 157376 ns, At safepoint: 7106 ns, Total: 164482 ns
[2022-04-01T11:40:32.390+0000][512167][safepoint   ] Safepoint "Cleanup", Time since last: 3014012202 ns, Reaching safepoint: 300724 ns, At safepoint: 11309 ns, Total: 312033 ns
[2022-04-01T11:40:35.392+0000][512167][safepoint   ] Safepoint "Cleanup", Time since last: 3001349930 ns, Reaching safepoint: 481091 ns, At safepoint: 11757 ns, Total: 492848 ns
[2022-04-01T11:40:41.399+0000][512167][safepoint   ] Safepoint "Cleanup", Time since last: 6006223512 ns, Reaching safepoint: 278820 ns, At safepoint: 12059 ns, Total: 290879 ns
[2022-04-01T11:40:47.402+0000][512167][safepoint   ] Safepoint "Cleanup", Time since last: 6002855724 ns, Reaching safepoint: 72916 ns, At safepoint: 4401 ns, Total: 77317 ns
[2022-04-01T11:40:48.402+0000][512167][safepoint   ] Safepoint "Cleanup", Time since last: 1000203783 ns, Reaching safepoint: 151450 ns, At safepoint: 8097 ns, Total: 159547 ns
[2022-04-01T11:40:56.406+0000][512167][safepoint   ] Safepoint "Cleanup", Time since last: 8003478267 ns, Reaching safepoint: 146683 ns, At safepoint: 6506 ns, Total: 153189 ns
[2022-04-01T11:41:01.411+0000][512167][safepoint   ] Safepoint "Cleanup", Time since last: 5004770610 ns, Reaching safepoint: 163827 ns, At safepoint: 31794 ns, Total: 195621 ns
[2022-04-01T11:41:03.411+0000][512167][safepoint   ] Safepoint "Cleanup", Time since last: 2000258338 ns, Reaching safepoint: 240841 ns, At safepoint: 11269 ns, Total: 252110 ns
[2022-04-01T11:41:10.422+0000][512167][safepoint   ] Safepoint "Cleanup", Time since last: 7010498993 ns, Reaching safepoint: 148371 ns, At safepoint: 12173 ns, Total: 160544 ns
[2022-04-01T11:41:18.429+0000][512167][safepoint   ] Safepoint "Cleanup", Time since last: 8006654427 ns, Reaching safepoint: 316869 ns, At safepoint: 19309 ns, Total: 336178 ns
[2022-04-01T11:41:45.435+0000][512167][safepoint   ] Safepoint "Cleanup", Time since last: 27006079592 ns, Reaching safepoint: 183479 ns, At safepoint: 14406 ns, Total: 197885 ns
[2022-04-01T11:41:51.439+0000][512167][safepoint   ] Safepoint "Cleanup", Time since last: 6003849177 ns, Reaching safepoint: 88795 ns, At safepoint: 3636 ns, Total: 92431 ns
[2022-04-01T11:41:56.440+0000][512167][safepoint   ] Safepoint "Cleanup", Time since last: 5000859963 ns, Reaching safepoint: 106440 ns, At safepoint: 4624 ns, Total: 111064 ns
[2022-04-01T11:42:09.443+0000][512167][safepoint   ] Safepoint "Cleanup", Time since last: 13002774044 ns, Reaching safepoint: 104017 ns, At safepoint: 6109 ns, Total: 110126 ns
[2022-04-01T11:42:12.447+0000][512167][safepoint   ] Safepoint "Cleanup", Time since last: 3004311318 ns, Reaching safepoint: 131688 ns, At safepoint: 7005 ns, Total: 138693 ns
[2022-04-01T11:42:13.448+0000][512167][safepoint   ] Safepoint "Cleanup", Time since last: 1000134812 ns, Reaching safepoint: 124478 ns, At safepoint: 6581 ns, Total: 131059 ns
[2022-04-01T11:42:15.448+0000][512167][safepoint   ] Safepoint "Cleanup", Time since last: 2000477516 ns, Reaching safepoint: 110478 ns, At safepoint: 8430 ns, Total: 118908 ns
[2022-04-01T11:42:18.449+0000][512167][safepoint   ] Safepoint "Cleanup", Time since last: 3000548568 ns, Reaching safepoint: 102131 ns, At safepoint: 5041 ns, Total: 107172 ns
[2022-04-01T11:42:22.450+0000][512167][safepoint   ] Safepoint "Cleanup", Time since last: 4000717915 ns, Reaching safepoint: 142625 ns, At safepoint: 11887 ns, Total: 154512 ns
[2022-04-01T11:42:28.451+0000][512167][safepoint   ] Safepoint "Cleanup", Time since last: 6001262010 ns, Reaching safepoint: 214394 ns, At safepoint: 29437 ns, Total: 243831 ns
[2022-04-01T11:42:31.453+0000][512167][safepoint   ] Safepoint "Cleanup", Time since last: 3001163725 ns, Reaching safepoint: 320723 ns, At safepoint: 22696 ns, Total: 343419 ns
[2022-04-01T11:42:32.453+0000][512167][safepoint   ] Safepoint "Cleanup", Time since last: 1000247707 ns, Reaching safepoint: 139436 ns, At safepoint: 6899 ns, Total: 146335 ns
[2022-04-01T11:42:44.456+0000][512167][safepoint   ] Safepoint "Cleanup", Time since last: 12003010106 ns, Reaching safepoint: 120840 ns, At safepoint: 8716 ns, Total: 129556 ns
[2022-04-01T11:42:50.630+0000][512167][safepoint   ] Safepoint "ICBufferFull", Time since last: 6173300639 ns, Reaching safepoint: 525997 ns, At safepoint: 21731 ns, Total: 547728 ns
[2022-04-01T11:42:50.716+0000][512167][gc,heap,exit] Heap
[2022-04-01T11:42:50.716+0000][512167][gc,heap,exit]  garbage-first heap   total 1048576K, used 271826K [0x00000000c0000000, 0x0000000100000000)
[2022-04-01T11:42:50.716+0000][512167][gc,heap,exit]   region size 1024K, 218 young (223232K), 22 survivors (22528K)
[2022-04-01T11:42:50.716+0000][512167][gc,heap,exit]  Metaspace       used 82705K, capacity 85646K, committed 86504K, reserved 1124352K
[2022-04-01T11:42:50.716+0000][512167][gc,heap,exit]   class space    used 10930K, capacity 11877K, committed 11904K, reserved 1048576K
