[2022-04-01T08:20:38.156+0000][230347][gc] Using G1
[2022-04-01T08:20:38.709+0000][230347][gc,init] Version: 15+36 (release)
[2022-04-01T08:20:38.709+0000][230347][gc,init] CPUs: 4 total, 4 available
[2022-04-01T08:20:38.709+0000][230347][gc,init] Memory: 15663M
[2022-04-01T08:20:38.710+0000][230347][gc,init] Large Page Support: Disabled
[2022-04-01T08:20:38.710+0000][230347][gc,init] NUMA Support: Disabled
[2022-04-01T08:20:38.710+0000][230347][gc,init] Compressed Oops: Enabled (32-bit)
[2022-04-01T08:20:38.710+0000][230347][gc,init] Heap Region Size: 1M
[2022-04-01T08:20:38.710+0000][230347][gc,init] Heap Min Capacity: 1G
[2022-04-01T08:20:38.710+0000][230347][gc,init] Heap Initial Capacity: 1G
[2022-04-01T08:20:38.710+0000][230347][gc,init] Heap Max Capacity: 1G
[2022-04-01T08:20:38.710+0000][230347][gc,init] Pre-touch: Enabled
[2022-04-01T08:20:38.710+0000][230347][gc,init] Parallel Workers: 4
[2022-04-01T08:20:38.710+0000][230347][gc,init] Concurrent Workers: 1
[2022-04-01T08:20:38.710+0000][230347][gc,init] Concurrent Refinement Workers: 4
[2022-04-01T08:20:38.710+0000][230347][gc,init] Periodic GC: Disabled
[2022-04-01T08:20:38.710+0000][230347][gc,cds ] Mark closed archive regions in map: [0x00000000fff00000, 0x00000000fff7bff8]
[2022-04-01T08:20:38.710+0000][230347][gc,cds ] Mark open archive regions in map: [0x00000000ffe00000, 0x00000000ffe51ff8]
[2022-04-01T08:20:38.710+0000][230347][gc,metaspace] CDS archive(s) mapped at: [0x0000000800000000-0x0000000800b29000-0x0000000800b29000), size 11702272, SharedBaseAddress: 0x0000000800000000, ArchiveRelocationMode: 0.
[2022-04-01T08:20:38.710+0000][230347][gc,metaspace] Compressed class space mapped at: 0x0000000800b2c000-0x0000000840b2c000, size: 1073741824
[2022-04-01T08:20:38.710+0000][230347][gc,metaspace] Narrow klass base: 0x0000000800000000, Narrow klass shift: 3, Narrow klass range: 0x100000000
[2022-04-01T08:20:39.291+0000][230347][safepoint   ] Safepoint "ICBufferFull", Time since last: 575377373 ns, Reaching safepoint: 146853 ns, At safepoint: 7028 ns, Total: 153881 ns
[2022-04-01T08:20:40.405+0000][230347][safepoint   ] Safepoint "Cleanup", Time since last: 1113802657 ns, Reaching safepoint: 113969 ns, At safepoint: 5921 ns, Total: 119890 ns
[2022-04-01T08:20:41.187+0000][230347][safepoint   ] Safepoint "ICBufferFull", Time since last: 781791229 ns, Reaching safepoint: 141358 ns, At safepoint: 9742 ns, Total: 151100 ns
[2022-04-01T08:20:41.219+0000][230347][gc,start    ] GC(0) Pause Young (Normal) (G1 Evacuation Pause)
[2022-04-01T08:20:41.231+0000][230347][gc,task     ] GC(0) Using 4 workers of 4 for evacuation
[2022-04-01T08:20:41.231+0000][230347][gc,age      ] GC(0) Desired survivor size 3670016 bytes, new threshold 15 (max threshold 15)
[2022-04-01T08:20:41.249+0000][230347][gc,age      ] GC(0) Age table with threshold 15 (max threshold 15)
[2022-04-01T08:20:41.249+0000][230347][gc,age      ] GC(0) - age   1:    5864896 bytes,    5864896 total
[2022-04-01T08:20:41.249+0000][230347][gc,phases   ] GC(0)   Pre Evacuate Collection Set: 0.1ms
[2022-04-01T08:20:41.249+0000][230347][gc,phases   ] GC(0)   Merge Heap Roots: 0.1ms
[2022-04-01T08:20:41.249+0000][230347][gc,phases   ] GC(0)   Evacuate Collection Set: 10.6ms
[2022-04-01T08:20:41.249+0000][230347][gc,phases   ] GC(0)   Post Evacuate Collection Set: 7.7ms
[2022-04-01T08:20:41.249+0000][230347][gc,phases   ] GC(0)   Other: 12.0ms
[2022-04-01T08:20:41.249+0000][230347][gc,heap     ] GC(0) Eden regions: 51->0(46)
[2022-04-01T08:20:41.250+0000][230347][gc,heap     ] GC(0) Survivor regions: 0->6(7)
[2022-04-01T08:20:41.250+0000][230347][gc,heap     ] GC(0) Old regions: 0->0
[2022-04-01T08:20:41.250+0000][230347][gc,heap     ] GC(0) Archive regions: 2->2
[2022-04-01T08:20:41.250+0000][230347][gc,heap     ] GC(0) Humongous regions: 1->1
[2022-04-01T08:20:41.250+0000][230347][gc,metaspace] GC(0) Metaspace: 13545K(14080K)->13545K(14080K) NonClass: 11939K(12288K)->11939K(12288K) Class: 1606K(1792K)->1606K(1792K)
[2022-04-01T08:20:41.250+0000][230347][gc          ] GC(0) Pause Young (Normal) (G1 Evacuation Pause) 52M->7M(1024M) 30.699ms
[2022-04-01T08:20:41.250+0000][230347][gc,cpu      ] GC(0) User=0.05s Sys=0.00s Real=0.03s
[2022-04-01T08:20:41.250+0000][230347][safepoint   ] Safepoint "G1CollectForAllocation", Time since last: 31551755 ns, Reaching safepoint: 131395 ns, At safepoint: 30798472 ns, Total: 30929867 ns
[2022-04-01T08:20:42.251+0000][230347][safepoint   ] Safepoint "Cleanup", Time since last: 1000237563 ns, Reaching safepoint: 621758 ns, At safepoint: 6041 ns, Total: 627799 ns
[2022-04-01T08:20:42.362+0000][230347][gc,start    ] GC(1) Pause Young (Normal) (G1 Evacuation Pause)
[2022-04-01T08:20:42.362+0000][230347][gc,task     ] GC(1) Using 4 workers of 4 for evacuation
[2022-04-01T08:20:42.362+0000][230347][gc,age      ] GC(1) Desired survivor size 3670016 bytes, new threshold 1 (max threshold 15)
[2022-04-01T08:20:42.373+0000][230347][gc,age      ] GC(1) Age table with threshold 1 (max threshold 15)
[2022-04-01T08:20:42.373+0000][230347][gc,age      ] GC(1) - age   1:    2208648 bytes,    2208648 total
[2022-04-01T08:20:42.373+0000][230347][gc,phases   ] GC(1)   Pre Evacuate Collection Set: 0.3ms
[2022-04-01T08:20:42.373+0000][230347][gc,phases   ] GC(1)   Merge Heap Roots: 0.1ms
[2022-04-01T08:20:42.374+0000][230347][gc,phases   ] GC(1)   Evacuate Collection Set: 10.3ms
[2022-04-01T08:20:42.374+0000][230347][gc,phases   ] GC(1)   Post Evacuate Collection Set: 0.5ms
[2022-04-01T08:20:42.374+0000][230347][gc,phases   ] GC(1)   Other: 0.2ms
[2022-04-01T08:20:42.374+0000][230347][gc,heap     ] GC(1) Eden regions: 46->0(59)
[2022-04-01T08:20:42.374+0000][230347][gc,heap     ] GC(1) Survivor regions: 6->3(7)
[2022-04-01T08:20:42.374+0000][230347][gc,heap     ] GC(1) Old regions: 0->6
[2022-04-01T08:20:42.374+0000][230347][gc,heap     ] GC(1) Archive regions: 2->2
[2022-04-01T08:20:42.374+0000][230347][gc,heap     ] GC(1) Humongous regions: 1->1
[2022-04-01T08:20:42.374+0000][230347][gc,metaspace] GC(1) Metaspace: 14393K(14976K)->14393K(14976K) NonClass: 12708K(13056K)->12708K(13056K) Class: 1685K(1920K)->1685K(1920K)
[2022-04-01T08:20:42.374+0000][230347][gc          ] GC(1) Pause Young (Normal) (G1 Evacuation Pause) 53M->9M(1024M) 11.569ms
[2022-04-01T08:20:42.374+0000][230347][gc,cpu      ] GC(1) User=0.03s Sys=0.00s Real=0.01s
[2022-04-01T08:20:42.374+0000][230347][safepoint   ] Safepoint "G1CollectForAllocation", Time since last: 110590105 ns, Reaching safepoint: 925145 ns, At safepoint: 11650074 ns, Total: 12575219 ns
[2022-04-01T08:20:42.506+0000][230347][safepoint   ] Safepoint "ICBufferFull", Time since last: 132730123 ns, Reaching safepoint: 85920 ns, At safepoint: 5779 ns, Total: 91699 ns
[2022-04-01T08:20:42.517+0000][230347][safepoint   ] Safepoint "ICBufferFull", Time since last: 10060046 ns, Reaching safepoint: 84818 ns, At safepoint: 6777 ns, Total: 91595 ns
[2022-04-01T08:20:42.524+0000][230347][safepoint   ] Safepoint "ICBufferFull", Time since last: 6827722 ns, Reaching safepoint: 133490 ns, At safepoint: 4625 ns, Total: 138115 ns
[2022-04-01T08:20:42.530+0000][230347][safepoint   ] Safepoint "ICBufferFull", Time since last: 6515011 ns, Reaching safepoint: 157097 ns, At safepoint: 5260 ns, Total: 162357 ns
[2022-04-01T08:20:42.538+0000][230347][safepoint   ] Safepoint "ICBufferFull", Time since last: 7915516 ns, Reaching safepoint: 154669 ns, At safepoint: 4149 ns, Total: 158818 ns
[2022-04-01T08:20:42.553+0000][230347][safepoint   ] Safepoint "ICBufferFull", Time since last: 14941697 ns, Reaching safepoint: 163456 ns, At safepoint: 5376 ns, Total: 168832 ns
[2022-04-01T08:20:42.558+0000][230347][safepoint   ] Safepoint "ICBufferFull", Time since last: 4452995 ns, Reaching safepoint: 58533 ns, At safepoint: 3652 ns, Total: 62185 ns
[2022-04-01T08:20:42.563+0000][230347][safepoint   ] Safepoint "ICBufferFull", Time since last: 4382730 ns, Reaching safepoint: 544016 ns, At safepoint: 6119 ns, Total: 550135 ns
[2022-04-01T08:20:42.568+0000][230347][safepoint   ] Safepoint "ICBufferFull", Time since last: 5122755 ns, Reaching safepoint: 186095 ns, At safepoint: 5950 ns, Total: 192045 ns
[2022-04-01T08:20:42.576+0000][230347][safepoint   ] Safepoint "ICBufferFull", Time since last: 7585183 ns, Reaching safepoint: 145677 ns, At safepoint: 5503 ns, Total: 151180 ns
[2022-04-01T08:20:42.580+0000][230347][safepoint   ] Safepoint "ICBufferFull", Time since last: 4320198 ns, Reaching safepoint: 130297 ns, At safepoint: 4212 ns, Total: 134509 ns
[2022-04-01T08:20:42.594+0000][230347][safepoint   ] Safepoint "ICBufferFull", Time since last: 13027148 ns, Reaching safepoint: 128551 ns, At safepoint: 4390 ns, Total: 132941 ns
[2022-04-01T08:20:42.600+0000][230347][safepoint   ] Safepoint "ICBufferFull", Time since last: 5989056 ns, Reaching safepoint: 738388 ns, At safepoint: 6516 ns, Total: 744904 ns
[2022-04-01T08:20:42.607+0000][230347][safepoint   ] Safepoint "ICBufferFull", Time since last: 6650228 ns, Reaching safepoint: 135868 ns, At safepoint: 4696 ns, Total: 140564 ns
[2022-04-01T08:20:42.623+0000][230347][safepoint   ] Safepoint "ICBufferFull", Time since last: 14917596 ns, Reaching safepoint: 1160516 ns, At safepoint: 14937 ns, Total: 1175453 ns
[2022-04-01T08:20:42.627+0000][230347][safepoint   ] Safepoint "ICBufferFull", Time since last: 3918274 ns, Reaching safepoint: 135737 ns, At safepoint: 5782 ns, Total: 141519 ns
[2022-04-01T08:20:42.632+0000][230347][safepoint   ] Safepoint "ICBufferFull", Time since last: 4177727 ns, Reaching safepoint: 124844 ns, At safepoint: 4579 ns, Total: 129423 ns
[2022-04-01T08:20:42.643+0000][230347][safepoint   ] Safepoint "ICBufferFull", Time since last: 10361735 ns, Reaching safepoint: 1284446 ns, At safepoint: 8405 ns, Total: 1292851 ns
[2022-04-01T08:20:42.650+0000][230347][safepoint   ] Safepoint "ICBufferFull", Time since last: 5836604 ns, Reaching safepoint: 795588 ns, At safepoint: 11484 ns, Total: 807072 ns
[2022-04-01T08:20:42.670+0000][230347][safepoint   ] Safepoint "ICBufferFull", Time since last: 16386522 ns, Reaching safepoint: 3798100 ns, At safepoint: 14310 ns, Total: 3812410 ns
[2022-04-01T08:20:42.690+0000][230347][safepoint   ] Safepoint "ICBufferFull", Time since last: 20050551 ns, Reaching safepoint: 120943 ns, At safepoint: 5723 ns, Total: 126666 ns
[2022-04-01T08:20:42.693+0000][230347][safepoint   ] Safepoint "ICBufferFull", Time since last: 2486159 ns, Reaching safepoint: 108744 ns, At safepoint: 3936 ns, Total: 112680 ns
[2022-04-01T08:20:42.701+0000][230347][safepoint   ] Safepoint "ICBufferFull", Time since last: 7659555 ns, Reaching safepoint: 123859 ns, At safepoint: 5159 ns, Total: 129018 ns
[2022-04-01T08:20:42.715+0000][230347][safepoint   ] Safepoint "ICBufferFull", Time since last: 14238802 ns, Reaching safepoint: 148476 ns, At safepoint: 10199 ns, Total: 158675 ns
[2022-04-01T08:20:42.717+0000][230347][safepoint   ] Safepoint "ICBufferFull", Time since last: 1415424 ns, Reaching safepoint: 75890 ns, At safepoint: 9363 ns, Total: 85253 ns
[2022-04-01T08:20:42.720+0000][230347][safepoint   ] Safepoint "ICBufferFull", Time since last: 3512118 ns, Reaching safepoint: 119754 ns, At safepoint: 5652 ns, Total: 125406 ns
[2022-04-01T08:20:42.730+0000][230347][safepoint   ] Safepoint "ICBufferFull", Time since last: 9924397 ns, Reaching safepoint: 96334 ns, At safepoint: 5812 ns, Total: 102146 ns
[2022-04-01T08:20:42.732+0000][230347][safepoint   ] Safepoint "ICBufferFull", Time since last: 1702593 ns, Reaching safepoint: 74110 ns, At safepoint: 5384 ns, Total: 79494 ns
[2022-04-01T08:20:42.734+0000][230347][safepoint   ] Safepoint "ICBufferFull", Time since last: 1949206 ns, Reaching safepoint: 153809 ns, At safepoint: 5331 ns, Total: 159140 ns
[2022-04-01T08:20:42.736+0000][230347][safepoint   ] Safepoint "ICBufferFull", Time since last: 1407583 ns, Reaching safepoint: 140272 ns, At safepoint: 4982 ns, Total: 145254 ns
[2022-04-01T08:20:42.739+0000][230347][safepoint   ] Safepoint "ICBufferFull", Time since last: 3585719 ns, Reaching safepoint: 124853 ns, At safepoint: 7073 ns, Total: 131926 ns
[2022-04-01T08:20:42.741+0000][230347][safepoint   ] Safepoint "ICBufferFull", Time since last: 1315006 ns, Reaching safepoint: 135345 ns, At safepoint: 4610 ns, Total: 139955 ns
[2022-04-01T08:20:42.742+0000][230347][safepoint   ] Safepoint "ICBufferFull", Time since last: 1286377 ns, Reaching safepoint: 129307 ns, At safepoint: 4138 ns, Total: 133445 ns
[2022-04-01T08:20:42.744+0000][230347][safepoint   ] Safepoint "ICBufferFull", Time since last: 1283574 ns, Reaching safepoint: 45935 ns, At safepoint: 4463 ns, Total: 50398 ns
[2022-04-01T08:20:42.750+0000][230347][safepoint   ] Safepoint "ICBufferFull", Time since last: 6115123 ns, Reaching safepoint: 51815 ns, At safepoint: 5041 ns, Total: 56856 ns
[2022-04-01T08:20:42.751+0000][230347][safepoint   ] Safepoint "ICBufferFull", Time since last: 1343854 ns, Reaching safepoint: 248658 ns, At safepoint: 5571 ns, Total: 254229 ns
[2022-04-01T08:20:42.765+0000][230347][safepoint   ] Safepoint "ICBufferFull", Time since last: 13893809 ns, Reaching safepoint: 217316 ns, At safepoint: 6091 ns, Total: 223407 ns
[2022-04-01T08:20:42.783+0000][230347][safepoint   ] Safepoint "ICBufferFull", Time since last: 17557194 ns, Reaching safepoint: 123207 ns, At safepoint: 6541 ns, Total: 129748 ns
[2022-04-01T08:20:42.785+0000][230347][safepoint   ] Safepoint "ICBufferFull", Time since last: 2097324 ns, Reaching safepoint: 135166 ns, At safepoint: 8525 ns, Total: 143691 ns
[2022-04-01T08:20:42.903+0000][230347][safepoint   ] Safepoint "ICBufferFull", Time since last: 117900317 ns, Reaching safepoint: 70497 ns, At safepoint: 6685 ns, Total: 77182 ns
[2022-04-01T08:20:42.905+0000][230347][safepoint   ] Safepoint "ICBufferFull", Time since last: 2018671 ns, Reaching safepoint: 59883 ns, At safepoint: 5960 ns, Total: 65843 ns
[2022-04-01T08:20:42.910+0000][230347][safepoint   ] Safepoint "ICBufferFull", Time since last: 4496135 ns, Reaching safepoint: 94160 ns, At safepoint: 56022 ns, Total: 150182 ns
[2022-04-01T08:20:42.912+0000][230347][safepoint   ] Safepoint "ICBufferFull", Time since last: 1497026 ns, Reaching safepoint: 145538 ns, At safepoint: 6077 ns, Total: 151615 ns
[2022-04-01T08:20:42.926+0000][230347][safepoint   ] Safepoint "ICBufferFull", Time since last: 14316183 ns, Reaching safepoint: 110114 ns, At safepoint: 8550 ns, Total: 118664 ns
[2022-04-01T08:20:42.929+0000][230347][safepoint   ] Safepoint "ICBufferFull", Time since last: 3055081 ns, Reaching safepoint: 69005 ns, At safepoint: 3977 ns, Total: 72982 ns
[2022-04-01T08:20:42.931+0000][230347][safepoint   ] Safepoint "ICBufferFull", Time since last: 1285771 ns, Reaching safepoint: 50255 ns, At safepoint: 3390 ns, Total: 53645 ns
[2022-04-01T08:20:42.932+0000][230347][safepoint   ] Safepoint "ICBufferFull", Time since last: 1227686 ns, Reaching safepoint: 56971 ns, At safepoint: 3856 ns, Total: 60827 ns
[2022-04-01T08:20:42.933+0000][230347][safepoint   ] Safepoint "ICBufferFull", Time since last: 1167887 ns, Reaching safepoint: 67185 ns, At safepoint: 5549 ns, Total: 72734 ns
[2022-04-01T08:20:42.934+0000][230347][safepoint   ] Safepoint "ICBufferFull", Time since last: 1239834 ns, Reaching safepoint: 70640 ns, At safepoint: 6218 ns, Total: 76858 ns
[2022-04-01T08:20:42.937+0000][230347][safepoint   ] Safepoint "ICBufferFull", Time since last: 1891377 ns, Reaching safepoint: 328171 ns, At safepoint: 9228 ns, Total: 337399 ns
[2022-04-01T08:20:42.938+0000][230347][safepoint   ] Safepoint "ICBufferFull", Time since last: 1378744 ns, Reaching safepoint: 48288 ns, At safepoint: 3252 ns, Total: 51540 ns
[2022-04-01T08:20:42.942+0000][230347][safepoint   ] Safepoint "ICBufferFull", Time since last: 3303876 ns, Reaching safepoint: 60095 ns, At safepoint: 3018 ns, Total: 63113 ns
[2022-04-01T08:20:42.943+0000][230347][safepoint   ] Safepoint "ICBufferFull", Time since last: 1214201 ns, Reaching safepoint: 46606 ns, At safepoint: 2764 ns, Total: 49370 ns
[2022-04-01T08:20:42.944+0000][230347][safepoint   ] Safepoint "ICBufferFull", Time since last: 1144165 ns, Reaching safepoint: 129603 ns, At safepoint: 6210 ns, Total: 135813 ns
[2022-04-01T08:20:42.945+0000][230347][safepoint   ] Safepoint "ICBufferFull", Time since last: 1137045 ns, Reaching safepoint: 53120 ns, At safepoint: 2810 ns, Total: 55930 ns
[2022-04-01T08:20:42.946+0000][230347][safepoint   ] Safepoint "ICBufferFull", Time since last: 1155839 ns, Reaching safepoint: 49663 ns, At safepoint: 3235 ns, Total: 52898 ns
[2022-04-01T08:20:42.949+0000][230347][safepoint   ] Safepoint "ICBufferFull", Time since last: 2073713 ns, Reaching safepoint: 68979 ns, At safepoint: 3805 ns, Total: 72784 ns
[2022-04-01T08:20:42.952+0000][230347][safepoint   ] Safepoint "ICBufferFull", Time since last: 2951473 ns, Reaching safepoint: 49715 ns, At safepoint: 2873 ns, Total: 52588 ns
[2022-04-01T08:20:42.953+0000][230347][safepoint   ] Safepoint "ICBufferFull", Time since last: 1261777 ns, Reaching safepoint: 136911 ns, At safepoint: 6636 ns, Total: 143547 ns
[2022-04-01T08:20:43.078+0000][230347][gc,start    ] GC(2) Pause Young (Normal) (G1 Evacuation Pause)
[2022-04-01T08:20:43.078+0000][230347][gc,task     ] GC(2) Using 4 workers of 4 for evacuation
[2022-04-01T08:20:43.078+0000][230347][gc,age      ] GC(2) Desired survivor size 4194304 bytes, new threshold 15 (max threshold 15)
[2022-04-01T08:20:43.096+0000][230347][gc,age      ] GC(2) Age table with threshold 15 (max threshold 15)
[2022-04-01T08:20:43.096+0000][230347][gc,age      ] GC(2) - age   1:    3455504 bytes,    3455504 total
[2022-04-01T08:20:43.096+0000][230347][gc,age      ] GC(2) - age   2:     965304 bytes,    4420808 total
[2022-04-01T08:20:43.096+0000][230347][gc,phases   ] GC(2)   Pre Evacuate Collection Set: 0.2ms
[2022-04-01T08:20:43.096+0000][230347][gc,phases   ] GC(2)   Merge Heap Roots: 0.1ms
[2022-04-01T08:20:43.096+0000][230347][gc,phases   ] GC(2)   Evacuate Collection Set: 17.1ms
[2022-04-01T08:20:43.096+0000][230347][gc,phases   ] GC(2)   Post Evacuate Collection Set: 0.6ms
[2022-04-01T08:20:43.096+0000][230347][gc,phases   ] GC(2)   Other: 0.3ms
[2022-04-01T08:20:43.096+0000][230347][gc,heap     ] GC(2) Eden regions: 59->0(609)
[2022-04-01T08:20:43.096+0000][230347][gc,heap     ] GC(2) Survivor regions: 3->5(8)
[2022-04-01T08:20:43.096+0000][230347][gc,heap     ] GC(2) Old regions: 6->6
[2022-04-01T08:20:43.096+0000][230347][gc,heap     ] GC(2) Archive regions: 2->2
[2022-04-01T08:20:43.096+0000][230347][gc,heap     ] GC(2) Humongous regions: 2->1
[2022-04-01T08:20:43.096+0000][230347][gc,metaspace] GC(2) Metaspace: 16127K(16768K)->16127K(16768K) NonClass: 14186K(14592K)->14186K(14592K) Class: 1941K(2176K)->1941K(2176K)
[2022-04-01T08:20:43.096+0000][230347][gc          ] GC(2) Pause Young (Normal) (G1 Evacuation Pause) 69M->11M(1024M) 18.246ms
[2022-04-01T08:20:43.096+0000][230347][gc,cpu      ] GC(2) User=0.03s Sys=0.00s Real=0.02s
[2022-04-01T08:20:43.096+0000][230347][safepoint   ] Safepoint "G1CollectForAllocation", Time since last: 124744772 ns, Reaching safepoint: 173020 ns, At safepoint: 18321091 ns, Total: 18494111 ns
[2022-04-01T08:20:43.264+0000][230347][safepoint   ] Safepoint "ICBufferFull", Time since last: 164816277 ns, Reaching safepoint: 2420949 ns, At safepoint: 10282 ns, Total: 2431231 ns
[2022-04-01T08:20:43.265+0000][230347][safepoint   ] Safepoint "ICBufferFull", Time since last: 1734234 ns, Reaching safepoint: 137641 ns, At safepoint: 5146 ns, Total: 142787 ns
[2022-04-01T08:20:43.268+0000][230347][safepoint   ] Safepoint "ICBufferFull", Time since last: 2067393 ns, Reaching safepoint: 986643 ns, At safepoint: 9114 ns, Total: 995757 ns
[2022-04-01T08:20:43.278+0000][230347][safepoint   ] Safepoint "ICBufferFull", Time since last: 9622539 ns, Reaching safepoint: 138859 ns, At safepoint: 5400 ns, Total: 144259 ns
[2022-04-01T08:20:43.283+0000][230347][safepoint   ] Safepoint "ICBufferFull", Time since last: 2616735 ns, Reaching safepoint: 1745537 ns, At safepoint: 61161 ns, Total: 1806698 ns
[2022-04-01T08:20:43.285+0000][230347][safepoint   ] Safepoint "ICBufferFull", Time since last: 2697615 ns, Reaching safepoint: 131131 ns, At safepoint: 5475 ns, Total: 136606 ns
[2022-04-01T08:20:43.287+0000][230347][safepoint   ] Safepoint "ICBufferFull", Time since last: 1627899 ns, Reaching safepoint: 198863 ns, At safepoint: 10429 ns, Total: 209292 ns
[2022-04-01T08:20:43.292+0000][230347][safepoint   ] Safepoint "ICBufferFull", Time since last: 4948122 ns, Reaching safepoint: 138030 ns, At safepoint: 4738 ns, Total: 142768 ns
[2022-04-01T08:20:43.297+0000][230347][safepoint   ] Safepoint "ICBufferFull", Time since last: 4696562 ns, Reaching safepoint: 136808 ns, At safepoint: 5109 ns, Total: 141917 ns
[2022-04-01T08:20:43.302+0000][230347][safepoint   ] Safepoint "ICBufferFull", Time since last: 4819919 ns, Reaching safepoint: 137041 ns, At safepoint: 5551 ns, Total: 142592 ns
[2022-04-01T08:20:43.304+0000][230347][safepoint   ] Safepoint "ICBufferFull", Time since last: 1516486 ns, Reaching safepoint: 135316 ns, At safepoint: 4753 ns, Total: 140069 ns
[2022-04-01T08:20:43.308+0000][230347][safepoint   ] Safepoint "ICBufferFull", Time since last: 3611561 ns, Reaching safepoint: 126753 ns, At safepoint: 4493 ns, Total: 131246 ns
[2022-04-01T08:20:43.309+0000][230347][safepoint   ] Safepoint "ICBufferFull", Time since last: 1294324 ns, Reaching safepoint: 116268 ns, At safepoint: 3830 ns, Total: 120098 ns
[2022-04-01T08:20:43.317+0000][230347][safepoint   ] Safepoint "ICBufferFull", Time since last: 6908527 ns, Reaching safepoint: 1360153 ns, At safepoint: 15823 ns, Total: 1375976 ns
[2022-04-01T08:20:43.319+0000][230347][safepoint   ] Safepoint "ICBufferFull", Time since last: 1255600 ns, Reaching safepoint: 124383 ns, At safepoint: 4548 ns, Total: 128931 ns
[2022-04-01T08:20:43.323+0000][230347][safepoint   ] Safepoint "ICBufferFull", Time since last: 4433320 ns, Reaching safepoint: 125299 ns, At safepoint: 4404 ns, Total: 129703 ns
[2022-04-01T08:20:43.326+0000][230347][safepoint   ] Safepoint "ICBufferFull", Time since last: 2130408 ns, Reaching safepoint: 134328 ns, At safepoint: 4228 ns, Total: 138556 ns
[2022-04-01T08:20:43.333+0000][230347][safepoint   ] Safepoint "ICBufferFull", Time since last: 7195431 ns, Reaching safepoint: 149236 ns, At safepoint: 4479 ns, Total: 153715 ns
[2022-04-01T08:20:43.348+0000][230347][safepoint   ] Safepoint "ICBufferFull", Time since last: 14861812 ns, Reaching safepoint: 355046 ns, At safepoint: 9878 ns, Total: 364924 ns
[2022-04-01T08:20:44.882+0000][230347][safepoint   ] Safepoint "ICBufferFull", Time since last: 1533310307 ns, Reaching safepoint: 173900 ns, At safepoint: 7900 ns, Total: 181800 ns
[2022-04-01T08:20:45.882+0000][230347][safepoint   ] Safepoint "Cleanup", Time since last: 1000125659 ns, Reaching safepoint: 385418 ns, At safepoint: 10378 ns, Total: 395796 ns
[2022-04-01T08:20:46.034+0000][230347][gc,start    ] GC(3) Pause Young (Normal) (G1 Evacuation Pause)
[2022-04-01T08:20:46.034+0000][230347][gc,task     ] GC(3) Using 4 workers of 4 for evacuation
[2022-04-01T08:20:46.034+0000][230347][gc,age      ] GC(3) Desired survivor size 40370176 bytes, new threshold 15 (max threshold 15)
[2022-04-01T08:20:46.050+0000][230347][gc,age      ] GC(3) Age table with threshold 15 (max threshold 15)
[2022-04-01T08:20:46.050+0000][230347][gc,age      ] GC(3) - age   1:    7689056 bytes,    7689056 total
[2022-04-01T08:20:46.050+0000][230347][gc,age      ] GC(3) - age   2:    1366632 bytes,    9055688 total
[2022-04-01T08:20:46.050+0000][230347][gc,age      ] GC(3) - age   3:     965064 bytes,   10020752 total
[2022-04-01T08:20:46.050+0000][230347][gc,phases   ] GC(3)   Pre Evacuate Collection Set: 0.2ms
[2022-04-01T08:20:46.050+0000][230347][gc,phases   ] GC(3)   Merge Heap Roots: 0.1ms
[2022-04-01T08:20:46.050+0000][230347][gc,phases   ] GC(3)   Evacuate Collection Set: 14.0ms
[2022-04-01T08:20:46.050+0000][230347][gc,phases   ] GC(3)   Post Evacuate Collection Set: 1.0ms
[2022-04-01T08:20:46.051+0000][230347][gc,phases   ] GC(3)   Other: 0.8ms
[2022-04-01T08:20:46.051+0000][230347][gc,heap     ] GC(3) Eden regions: 609->0(604)
[2022-04-01T08:20:46.051+0000][230347][gc,heap     ] GC(3) Survivor regions: 5->10(77)
[2022-04-01T08:20:46.051+0000][230347][gc,heap     ] GC(3) Old regions: 6->6
[2022-04-01T08:20:46.051+0000][230347][gc,heap     ] GC(3) Archive regions: 2->2
[2022-04-01T08:20:46.051+0000][230347][gc,heap     ] GC(3) Humongous regions: 1->1
[2022-04-01T08:20:46.051+0000][230347][gc,metaspace] GC(3) Metaspace: 19818K(20864K)->19818K(20864K) NonClass: 17448K(18176K)->17448K(18176K) Class: 2370K(2688K)->2370K(2688K)
[2022-04-01T08:20:46.051+0000][230347][gc          ] GC(3) Pause Young (Normal) (G1 Evacuation Pause) 620M->17M(1024M) 16.343ms
[2022-04-01T08:20:46.051+0000][230347][gc,cpu      ] GC(3) User=0.04s Sys=0.00s Real=0.02s
[2022-04-01T08:20:46.051+0000][230347][safepoint   ] Safepoint "G1CollectForAllocation", Time since last: 152092190 ns, Reaching safepoint: 143161 ns, At safepoint: 16420680 ns, Total: 16563841 ns
[2022-04-01T08:20:47.059+0000][230347][gc,start    ] GC(4) Pause Young (Concurrent Start) (Metadata GC Threshold)
[2022-04-01T08:20:47.059+0000][230347][gc,task     ] GC(4) Using 4 workers of 4 for evacuation
[2022-04-01T08:20:47.059+0000][230347][gc,age      ] GC(4) Desired survivor size 40370176 bytes, new threshold 15 (max threshold 15)
[2022-04-01T08:20:47.072+0000][230347][gc,age      ] GC(4) Age table with threshold 15 (max threshold 15)
[2022-04-01T08:20:47.072+0000][230347][gc,age      ] GC(4) - age   1:    1891624 bytes,    1891624 total
[2022-04-01T08:20:47.072+0000][230347][gc,age      ] GC(4) - age   2:    6383624 bytes,    8275248 total
[2022-04-01T08:20:47.072+0000][230347][gc,age      ] GC(4) - age   3:    1366632 bytes,    9641880 total
[2022-04-01T08:20:47.072+0000][230347][gc,age      ] GC(4) - age   4:     964920 bytes,   10606800 total
[2022-04-01T08:20:47.072+0000][230347][gc,phases   ] GC(4)   Pre Evacuate Collection Set: 0.2ms
[2022-04-01T08:20:47.072+0000][230347][gc,phases   ] GC(4)   Merge Heap Roots: 0.1ms
[2022-04-01T08:20:47.072+0000][230347][gc,phases   ] GC(4)   Evacuate Collection Set: 11.7ms
[2022-04-01T08:20:47.072+0000][230347][gc,phases   ] GC(4)   Post Evacuate Collection Set: 1.0ms
[2022-04-01T08:20:47.072+0000][230347][gc,phases   ] GC(4)   Other: 0.4ms
[2022-04-01T08:20:47.072+0000][230347][gc,heap     ] GC(4) Eden regions: 344->0(603)
[2022-04-01T08:20:47.072+0000][230347][gc,heap     ] GC(4) Survivor regions: 10->11(77)
[2022-04-01T08:20:47.072+0000][230347][gc,heap     ] GC(4) Old regions: 6->6
[2022-04-01T08:20:47.072+0000][230347][gc,heap     ] GC(4) Archive regions: 2->2
[2022-04-01T08:20:47.072+0000][230347][gc,heap     ] GC(4) Humongous regions: 1->1
[2022-04-01T08:20:47.072+0000][230347][gc,metaspace] GC(4) Metaspace: 20093K(21248K)->20093K(21248K) NonClass: 17670K(18432K)->17670K(18432K) Class: 2422K(2816K)->2422K(2816K)
[2022-04-01T08:20:47.072+0000][230347][gc          ] GC(4) Pause Young (Concurrent Start) (Metadata GC Threshold) 361M->18M(1024M) 13.548ms
[2022-04-01T08:20:47.072+0000][230347][gc,cpu      ] GC(4) User=0.02s Sys=0.00s Real=0.01s
[2022-04-01T08:20:47.072+0000][230347][gc          ] GC(5) Concurrent Cycle
[2022-04-01T08:20:47.072+0000][230347][gc,marking  ] GC(5) Concurrent Clear Claimed Marks
[2022-04-01T08:20:47.072+0000][230347][gc,marking  ] GC(5) Concurrent Clear Claimed Marks 0.038ms
[2022-04-01T08:20:47.072+0000][230347][gc,marking  ] GC(5) Concurrent Scan Root Regions
[2022-04-01T08:20:47.072+0000][230347][safepoint   ] Safepoint "CollectForMetadataAllocation", Time since last: 1007584197 ns, Reaching safepoint: 136587 ns, At safepoint: 13853395 ns, Total: 13989982 ns
[2022-04-01T08:20:47.078+0000][230347][gc,marking  ] GC(5) Concurrent Scan Root Regions 5.698ms
[2022-04-01T08:20:47.078+0000][230347][gc,marking  ] GC(5) Concurrent Mark (8.932s)
[2022-04-01T08:20:47.078+0000][230347][gc,marking  ] GC(5) Concurrent Mark From Roots
[2022-04-01T08:20:47.078+0000][230347][gc,task     ] GC(5) Using 1 workers of 1 for marking
[2022-04-01T08:20:47.114+0000][230347][safepoint   ] Safepoint "CollectForMetadataAllocation", Time since last: 40993362 ns, Reaching safepoint: 876223 ns, At safepoint: 185419 ns, Total: 1061642 ns
[2022-04-01T08:20:47.116+0000][230347][gc,marking  ] GC(5) Concurrent Mark From Roots 37.829ms
[2022-04-01T08:20:47.116+0000][230347][gc,marking  ] GC(5) Concurrent Preclean
[2022-04-01T08:20:47.116+0000][230347][gc,marking  ] GC(5) Concurrent Preclean 0.124ms
[2022-04-01T08:20:47.116+0000][230347][gc,marking  ] GC(5) Concurrent Mark (8.932s, 8.970s) 38.045ms
[2022-04-01T08:20:47.116+0000][230347][gc,start    ] GC(5) Pause Remark
[2022-04-01T08:20:47.121+0000][230347][gc          ] GC(5) Pause Remark 20M->20M(1024M) 5.212ms
[2022-04-01T08:20:47.121+0000][230347][gc,cpu      ] GC(5) User=0.01s Sys=0.00s Real=0.01s
[2022-04-01T08:20:47.122+0000][230347][safepoint   ] Safepoint "G1Concurrent", Time since last: 1681495 ns, Reaching safepoint: 137151 ns, At safepoint: 5298077 ns, Total: 5435228 ns
[2022-04-01T08:20:47.122+0000][230347][gc,marking  ] GC(5) Concurrent Rebuild Remembered Sets
[2022-04-01T08:20:47.130+0000][230347][gc,marking  ] GC(5) Concurrent Rebuild Remembered Sets 8.834ms
[2022-04-01T08:20:47.131+0000][230347][gc,start    ] GC(5) Pause Cleanup
[2022-04-01T08:20:47.132+0000][230347][gc          ] GC(5) Pause Cleanup 24M->24M(1024M) 0.439ms
[2022-04-01T08:20:47.132+0000][230347][gc,cpu      ] GC(5) User=0.00s Sys=0.00s Real=0.00s
[2022-04-01T08:20:47.132+0000][230347][safepoint   ] Safepoint "G1Concurrent", Time since last: 8984206 ns, Reaching safepoint: 747392 ns, At safepoint: 533736 ns, Total: 1281128 ns
[2022-04-01T08:20:47.132+0000][230347][gc,marking  ] GC(5) Concurrent Cleanup for Next Mark
[2022-04-01T08:20:47.133+0000][230347][gc,marking  ] GC(5) Concurrent Cleanup for Next Mark 1.478ms
[2022-04-01T08:20:47.133+0000][230347][gc          ] GC(5) Concurrent Cycle 61.224ms
[2022-04-01T08:20:48.132+0000][230347][safepoint   ] Safepoint "Cleanup", Time since last: 1000100194 ns, Reaching safepoint: 203860 ns, At safepoint: 6810 ns, Total: 210670 ns
[2022-04-01T08:20:49.139+0000][230347][safepoint   ] Safepoint "ICBufferFull", Time since last: 1007051664 ns, Reaching safepoint: 210778 ns, At safepoint: 12979 ns, Total: 223757 ns
[2022-04-01T08:20:50.147+0000][230347][safepoint   ] Safepoint "Cleanup", Time since last: 1000154294 ns, Reaching safepoint: 7546221 ns, At safepoint: 17007 ns, Total: 7563228 ns
[2022-04-01T08:20:51.149+0000][230347][safepoint   ] Safepoint "Cleanup", Time since last: 1002117042 ns, Reaching safepoint: 150644 ns, At safepoint: 8215 ns, Total: 158859 ns
[2022-04-01T08:20:52.382+0000][230347][gc,start    ] GC(6) Pause Young (Concurrent Start) (G1 Evacuation Pause)
[2022-04-01T08:20:52.382+0000][230347][gc,task     ] GC(6) Using 4 workers of 4 for evacuation
[2022-04-01T08:20:52.382+0000][230347][gc,age      ] GC(6) Desired survivor size 40370176 bytes, new threshold 15 (max threshold 15)
[2022-04-01T08:20:52.457+0000][230347][gc,age      ] GC(6) Age table with threshold 15 (max threshold 15)
[2022-04-01T08:20:52.458+0000][230347][gc,age      ] GC(6) - age   1:   27028352 bytes,   27028352 total
[2022-04-01T08:20:52.458+0000][230347][gc,age      ] GC(6) - age   2:    1763776 bytes,   28792128 total
[2022-04-01T08:20:52.458+0000][230347][gc,age      ] GC(6) - age   3:    6339824 bytes,   35131952 total
[2022-04-01T08:20:52.458+0000][230347][gc,age      ] GC(6) - age   4:    1342240 bytes,   36474192 total
[2022-04-01T08:20:52.458+0000][230347][gc,age      ] GC(6) - age   5:     918336 bytes,   37392528 total
[2022-04-01T08:20:52.458+0000][230347][gc,phases   ] GC(6)   Pre Evacuate Collection Set: 0.2ms
[2022-04-01T08:20:52.458+0000][230347][gc,phases   ] GC(6)   Merge Heap Roots: 0.1ms
[2022-04-01T08:20:52.458+0000][230347][gc,phases   ] GC(6)   Evacuate Collection Set: 65.8ms
[2022-04-01T08:20:52.458+0000][230347][gc,phases   ] GC(6)   Post Evacuate Collection Set: 9.5ms
[2022-04-01T08:20:52.458+0000][230347][gc,phases   ] GC(6)   Other: 0.4ms
[2022-04-01T08:20:52.458+0000][230347][gc,heap     ] GC(6) Eden regions: 603->0(577)
[2022-04-01T08:20:52.458+0000][230347][gc,heap     ] GC(6) Survivor regions: 11->37(77)
[2022-04-01T08:20:52.458+0000][230347][gc,heap     ] GC(6) Old regions: 6->6
[2022-04-01T08:20:52.458+0000][230347][gc,heap     ] GC(6) Archive regions: 2->2
[2022-04-01T08:20:52.458+0000][230347][gc,heap     ] GC(6) Humongous regions: 1->1
[2022-04-01T08:20:52.458+0000][230347][gc,metaspace] GC(6) Metaspace: 30051K(32256K)->30051K(32256K) NonClass: 26333K(27904K)->26333K(27904K) Class: 3717K(4352K)->3717K(4352K)
[2022-04-01T08:20:52.458+0000][230347][gc          ] GC(6) Pause Young (Concurrent Start) (G1 Evacuation Pause) 621M->44M(1024M) 76.142ms
[2022-04-01T08:20:52.458+0000][230347][gc,cpu      ] GC(6) User=0.18s Sys=0.00s Real=0.07s
[2022-04-01T08:20:52.458+0000][230347][safepoint   ] Safepoint "G1CollectForAllocation", Time since last: 1232131288 ns, Reaching safepoint: 149689 ns, At safepoint: 76229410 ns, Total: 76379099 ns
[2022-04-01T08:20:52.458+0000][230347][gc          ] GC(7) Concurrent Cycle
[2022-04-01T08:20:52.458+0000][230347][gc,marking  ] GC(7) Concurrent Clear Claimed Marks
[2022-04-01T08:20:52.458+0000][230347][gc,marking  ] GC(7) Concurrent Clear Claimed Marks 0.054ms
[2022-04-01T08:20:52.458+0000][230347][gc,marking  ] GC(7) Concurrent Scan Root Regions
[2022-04-01T08:20:52.547+0000][230347][gc,marking  ] GC(7) Concurrent Scan Root Regions 88.575ms
[2022-04-01T08:20:52.547+0000][230347][gc,marking  ] GC(7) Concurrent Mark (14.400s)
[2022-04-01T08:20:52.547+0000][230347][gc,marking  ] GC(7) Concurrent Mark From Roots
[2022-04-01T08:20:52.547+0000][230347][gc,task     ] GC(7) Using 1 workers of 1 for marking
[2022-04-01T08:20:52.581+0000][230347][gc,marking  ] GC(7) Concurrent Mark From Roots 34.435ms
[2022-04-01T08:20:52.581+0000][230347][gc,marking  ] GC(7) Concurrent Preclean
[2022-04-01T08:20:52.582+0000][230347][gc,marking  ] GC(7) Concurrent Preclean 0.399ms
[2022-04-01T08:20:52.582+0000][230347][gc,marking  ] GC(7) Concurrent Mark (14.400s, 14.435s) 34.940ms
[2022-04-01T08:20:52.583+0000][230347][gc,start    ] GC(7) Pause Remark
[2022-04-01T08:20:52.594+0000][230347][gc          ] GC(7) Pause Remark 51M->51M(1024M) 11.308ms
[2022-04-01T08:20:52.594+0000][230347][gc,cpu      ] GC(7) User=0.03s Sys=0.00s Real=0.01s
[2022-04-01T08:20:52.594+0000][230347][safepoint   ] Safepoint "G1Concurrent", Time since last: 124447634 ns, Reaching safepoint: 668768 ns, At safepoint: 11408744 ns, Total: 12077512 ns
[2022-04-01T08:20:52.598+0000][230347][gc,marking  ] GC(7) Concurrent Rebuild Remembered Sets
[2022-04-01T08:20:52.611+0000][230347][gc,marking  ] GC(7) Concurrent Rebuild Remembered Sets 12.945ms
[2022-04-01T08:20:52.612+0000][230347][gc,start    ] GC(7) Pause Cleanup
[2022-04-01T08:20:52.612+0000][230347][gc          ] GC(7) Pause Cleanup 52M->52M(1024M) 0.249ms
[2022-04-01T08:20:52.612+0000][230347][gc,cpu      ] GC(7) User=0.00s Sys=0.00s Real=0.00s
[2022-04-01T08:20:52.612+0000][230347][safepoint   ] Safepoint "G1Concurrent", Time since last: 16733955 ns, Reaching safepoint: 375061 ns, At safepoint: 318530 ns, Total: 693591 ns
[2022-04-01T08:20:52.612+0000][230347][gc,marking  ] GC(7) Concurrent Cleanup for Next Mark
[2022-04-01T08:20:52.614+0000][230347][gc,marking  ] GC(7) Concurrent Cleanup for Next Mark 2.318ms
[2022-04-01T08:20:52.614+0000][230347][gc          ] GC(7) Concurrent Cycle 156.364ms
[2022-04-01T08:20:53.621+0000][230347][safepoint   ] Safepoint "Cleanup", Time since last: 1008997034 ns, Reaching safepoint: 260448 ns, At safepoint: 6950 ns, Total: 267398 ns
[2022-04-01T08:20:54.646+0000][230347][safepoint   ] Safepoint "Cleanup", Time since last: 1024673844 ns, Reaching safepoint: 192180 ns, At safepoint: 5099 ns, Total: 197279 ns
[2022-04-01T08:20:55.656+0000][230347][safepoint   ] Safepoint "Cleanup", Time since last: 1000510631 ns, Reaching safepoint: 9839910 ns, At safepoint: 17310 ns, Total: 9857220 ns
[2022-04-01T08:20:56.363+0000][230347][gc,start    ] GC(8) Pause Young (Concurrent Start) (Metadata GC Threshold)
[2022-04-01T08:20:56.363+0000][230347][gc,task     ] GC(8) Using 4 workers of 4 for evacuation
[2022-04-01T08:20:56.363+0000][230347][gc,age      ] GC(8) Desired survivor size 40370176 bytes, new threshold 15 (max threshold 15)
[2022-04-01T08:20:56.435+0000][230347][gc,age      ] GC(8) Age table with threshold 15 (max threshold 15)
[2022-04-01T08:20:56.435+0000][230347][gc,age      ] GC(8) - age   1:   12869032 bytes,   12869032 total
[2022-04-01T08:20:56.435+0000][230347][gc,age      ] GC(8) - age   2:   26534920 bytes,   39403952 total
[2022-04-01T08:20:56.435+0000][230347][gc,age      ] GC(8) - age   3:    1758144 bytes,   41162096 total
[2022-04-01T08:20:56.435+0000][230347][gc,age      ] GC(8) - age   4:    6324704 bytes,   47486800 total
[2022-04-01T08:20:56.435+0000][230347][gc,age      ] GC(8) - age   5:    1332968 bytes,   48819768 total
[2022-04-01T08:20:56.435+0000][230347][gc,age      ] GC(8) - age   6:     915456 bytes,   49735224 total
[2022-04-01T08:20:56.435+0000][230347][gc,phases   ] GC(8)   Pre Evacuate Collection Set: 0.2ms
[2022-04-01T08:20:56.435+0000][230347][gc,phases   ] GC(8)   Merge Heap Roots: 0.1ms
[2022-04-01T08:20:56.435+0000][230347][gc,phases   ] GC(8)   Evacuate Collection Set: 69.7ms
[2022-04-01T08:20:56.435+0000][230347][gc,phases   ] GC(8)   Post Evacuate Collection Set: 1.7ms
[2022-04-01T08:20:56.435+0000][230347][gc,phases   ] GC(8)   Other: 0.4ms
[2022-04-01T08:20:56.435+0000][230347][gc,heap     ] GC(8) Eden regions: 234->0(63)
[2022-04-01T08:20:56.435+0000][230347][gc,heap     ] GC(8) Survivor regions: 37->49(77)
[2022-04-01T08:20:56.435+0000][230347][gc,heap     ] GC(8) Old regions: 6->6
[2022-04-01T08:20:56.435+0000][230347][gc,heap     ] GC(8) Archive regions: 2->2
[2022-04-01T08:20:56.435+0000][230347][gc,heap     ] GC(8) Humongous regions: 1->1
[2022-04-01T08:20:56.435+0000][230347][gc,metaspace] GC(8) Metaspace: 51033K(53760K)->51033K(53760K) NonClass: 44249K(46080K)->44249K(46080K) Class: 6783K(7680K)->6783K(7680K)
[2022-04-01T08:20:56.435+0000][230347][gc          ] GC(8) Pause Young (Concurrent Start) (Metadata GC Threshold) 277M->55M(1024M) 72.187ms
[2022-04-01T08:20:56.435+0000][230347][gc,cpu      ] GC(8) User=0.19s Sys=0.00s Real=0.07s
[2022-04-01T08:20:56.435+0000][230347][gc          ] GC(9) Concurrent Cycle
[2022-04-01T08:20:56.435+0000][230347][gc,marking  ] GC(9) Concurrent Clear Claimed Marks
[2022-04-01T08:20:56.435+0000][230347][gc,marking  ] GC(9) Concurrent Clear Claimed Marks 0.054ms
[2022-04-01T08:20:56.435+0000][230347][gc,marking  ] GC(9) Concurrent Scan Root Regions
[2022-04-01T08:20:56.435+0000][230347][safepoint   ] Safepoint "CollectForMetadataAllocation", Time since last: 706222921 ns, Reaching safepoint: 123515 ns, At safepoint: 72409795 ns, Total: 72533310 ns
[2022-04-01T08:20:56.487+0000][230347][gc,marking  ] GC(9) Concurrent Scan Root Regions 51.516ms
[2022-04-01T08:20:56.490+0000][230347][gc,marking  ] GC(9) Concurrent Mark (18.343s)
[2022-04-01T08:20:56.490+0000][230347][gc,marking  ] GC(9) Concurrent Mark From Roots
[2022-04-01T08:20:56.490+0000][230347][gc,task     ] GC(9) Using 1 workers of 1 for marking
[2022-04-01T08:20:56.494+0000][230347][safepoint   ] Safepoint "CollectForMetadataAllocation", Time since last: 58527557 ns, Reaching safepoint: 150719 ns, At safepoint: 149647 ns, Total: 300366 ns
[2022-04-01T08:20:56.526+0000][230347][gc,marking  ] GC(9) Concurrent Mark From Roots 36.414ms
[2022-04-01T08:20:56.526+0000][230347][gc,marking  ] GC(9) Concurrent Preclean
[2022-04-01T08:20:56.526+0000][230347][gc,marking  ] GC(9) Concurrent Preclean 0.141ms
[2022-04-01T08:20:56.526+0000][230347][gc,marking  ] GC(9) Concurrent Mark (18.343s, 18.380s) 36.664ms
[2022-04-01T08:20:56.526+0000][230347][gc,start    ] GC(9) Pause Remark
[2022-04-01T08:20:56.532+0000][230347][gc          ] GC(9) Pause Remark 59M->59M(1024M) 5.897ms
[2022-04-01T08:20:56.532+0000][230347][gc,cpu      ] GC(9) User=0.01s Sys=0.00s Real=0.00s
[2022-04-01T08:20:56.532+0000][230347][safepoint   ] Safepoint "G1Concurrent", Time since last: 32427878 ns, Reaching safepoint: 152099 ns, At safepoint: 6020007 ns, Total: 6172106 ns
[2022-04-01T08:20:56.533+0000][230347][gc,marking  ] GC(9) Concurrent Rebuild Remembered Sets
[2022-04-01T08:20:56.542+0000][230347][gc,marking  ] GC(9) Concurrent Rebuild Remembered Sets 9.412ms
[2022-04-01T08:20:56.543+0000][230347][gc,start    ] GC(9) Pause Cleanup
[2022-04-01T08:20:56.544+0000][230347][gc          ] GC(9) Pause Cleanup 59M->59M(1024M) 0.261ms
[2022-04-01T08:20:56.544+0000][230347][gc,cpu      ] GC(9) User=0.00s Sys=0.00s Real=0.00s
[2022-04-01T08:20:56.544+0000][230347][safepoint   ] Safepoint "G1Concurrent", Time since last: 9706601 ns, Reaching safepoint: 1085989 ns, At safepoint: 362036 ns, Total: 1448025 ns
[2022-04-01T08:20:56.544+0000][230347][gc,marking  ] GC(9) Concurrent Cleanup for Next Mark
[2022-04-01T08:20:56.545+0000][230347][gc,marking  ] GC(9) Concurrent Cleanup for Next Mark 1.446ms
[2022-04-01T08:20:56.545+0000][230347][gc          ] GC(9) Concurrent Cycle 110.259ms
[2022-04-01T08:20:57.544+0000][230347][safepoint   ] Safepoint "Cleanup", Time since last: 1000121694 ns, Reaching safepoint: 361818 ns, At safepoint: 16134 ns, Total: 377952 ns
[2022-04-01T08:20:58.551+0000][230347][safepoint   ] Safepoint "Cleanup", Time since last: 1006649615 ns, Reaching safepoint: 352172 ns, At safepoint: 8391 ns, Total: 360563 ns
[2022-04-01T08:20:59.556+0000][230347][safepoint   ] Safepoint "Cleanup", Time since last: 1000271090 ns, Reaching safepoint: 4103304 ns, At safepoint: 19884 ns, Total: 4123188 ns
[2022-04-01T08:21:00.102+0000][230347][gc,start    ] GC(10) Pause Young (Concurrent Start) (G1 Evacuation Pause)
[2022-04-01T08:21:00.102+0000][230347][gc,task     ] GC(10) Using 4 workers of 4 for evacuation
[2022-04-01T08:21:00.102+0000][230347][gc,age      ] GC(10) Desired survivor size 11534336 bytes, new threshold 1 (max threshold 15)
[2022-04-01T08:21:00.232+0000][230347][gc,age      ] GC(10) Age table with threshold 1 (max threshold 15)
[2022-04-01T08:21:00.232+0000][230347][gc,age      ] GC(10) - age   1:    5888712 bytes,    5888712 total
[2022-04-01T08:21:00.232+0000][230347][gc,phases   ] GC(10)   Pre Evacuate Collection Set: 0.2ms
[2022-04-01T08:21:00.232+0000][230347][gc,phases   ] GC(10)   Merge Heap Roots: 0.1ms
[2022-04-01T08:21:00.232+0000][230347][gc,phases   ] GC(10)   Evacuate Collection Set: 127.1ms
[2022-04-01T08:21:00.232+0000][230347][gc,phases   ] GC(10)   Post Evacuate Collection Set: 2.3ms
[2022-04-01T08:21:00.232+0000][230347][gc,phases   ] GC(10)   Other: 0.3ms
[2022-04-01T08:21:00.232+0000][230347][gc,heap     ] GC(10) Eden regions: 127->0(607)
[2022-04-01T08:21:00.232+0000][230347][gc,heap     ] GC(10) Survivor regions: 49->7(22)
[2022-04-01T08:21:00.232+0000][230347][gc,heap     ] GC(10) Old regions: 6->54
[2022-04-01T08:21:00.232+0000][230347][gc,heap     ] GC(10) Archive regions: 2->2
[2022-04-01T08:21:00.232+0000][230347][gc,heap     ] GC(10) Humongous regions: 1->1
[2022-04-01T08:21:00.232+0000][230347][gc,metaspace] GC(10) Metaspace: 66416K(69580K)->66416K(69580K) NonClass: 57434K(59648K)->57434K(59648K) Class: 8982K(9932K)->8982K(9932K)
[2022-04-01T08:21:00.232+0000][230347][gc          ] GC(10) Pause Young (Concurrent Start) (G1 Evacuation Pause) 182M->62M(1024M) 130.098ms
[2022-04-01T08:21:00.232+0000][230347][gc,cpu      ] GC(10) User=0.20s Sys=0.00s Real=0.13s
[2022-04-01T08:21:00.232+0000][230347][gc          ] GC(11) Concurrent Cycle
[2022-04-01T08:21:00.232+0000][230347][gc,marking  ] GC(11) Concurrent Clear Claimed Marks
[2022-04-01T08:21:00.232+0000][230347][gc,marking  ] GC(11) Concurrent Clear Claimed Marks 0.065ms
[2022-04-01T08:21:00.232+0000][230347][gc,marking  ] GC(11) Concurrent Scan Root Regions
[2022-04-01T08:21:00.232+0000][230347][safepoint   ] Safepoint "G1CollectForAllocation", Time since last: 546024427 ns, Reaching safepoint: 134334 ns, At safepoint: 130193556 ns, Total: 130327890 ns
[2022-04-01T08:21:00.299+0000][230347][gc,marking  ] GC(11) Concurrent Scan Root Regions 66.515ms
[2022-04-01T08:21:00.299+0000][230347][gc,marking  ] GC(11) Concurrent Mark (22.152s)
[2022-04-01T08:21:00.299+0000][230347][gc,marking  ] GC(11) Concurrent Mark From Roots
[2022-04-01T08:21:00.299+0000][230347][gc,task     ] GC(11) Using 1 workers of 1 for marking
[2022-04-01T08:21:00.324+0000][230347][gc,marking  ] GC(11) Concurrent Mark From Roots 25.874ms
[2022-04-01T08:21:00.325+0000][230347][gc,marking  ] GC(11) Concurrent Preclean
[2022-04-01T08:21:00.325+0000][230347][gc,marking  ] GC(11) Concurrent Preclean 0.143ms
[2022-04-01T08:21:00.325+0000][230347][gc,marking  ] GC(11) Concurrent Mark (22.152s, 22.178s) 26.129ms
[2022-04-01T08:21:00.325+0000][230347][gc,start    ] GC(11) Pause Remark
[2022-04-01T08:21:00.332+0000][230347][gc          ] GC(11) Pause Remark 66M->66M(1024M) 6.627ms
[2022-04-01T08:21:00.332+0000][230347][gc,cpu      ] GC(11) User=0.01s Sys=0.00s Real=0.01s
[2022-04-01T08:21:00.332+0000][230347][safepoint   ] Safepoint "G1Concurrent", Time since last: 92857017 ns, Reaching safepoint: 431675 ns, At safepoint: 6727726 ns, Total: 7159401 ns
[2022-04-01T08:21:00.332+0000][230347][gc,marking  ] GC(11) Concurrent Rebuild Remembered Sets
[2022-04-01T08:21:00.417+0000][230347][gc,marking  ] GC(11) Concurrent Rebuild Remembered Sets 84.702ms
[2022-04-01T08:21:00.417+0000][230347][gc,start    ] GC(11) Pause Cleanup
[2022-04-01T08:21:00.417+0000][230347][gc          ] GC(11) Pause Cleanup 69M->69M(1024M) 0.263ms
[2022-04-01T08:21:00.417+0000][230347][gc,cpu      ] GC(11) User=0.00s Sys=0.00s Real=0.00s
[2022-04-01T08:21:00.418+0000][230347][safepoint   ] Safepoint "G1Concurrent", Time since last: 84881562 ns, Reaching safepoint: 353848 ns, At safepoint: 345536 ns, Total: 699384 ns
[2022-04-01T08:21:00.418+0000][230347][gc,marking  ] GC(11) Concurrent Cleanup for Next Mark
[2022-04-01T08:21:00.419+0000][230347][gc,marking  ] GC(11) Concurrent Cleanup for Next Mark 1.469ms
[2022-04-01T08:21:00.419+0000][230347][gc          ] GC(11) Concurrent Cycle 187.177ms
[2022-04-01T08:21:01.424+0000][230347][safepoint   ] Safepoint "Cleanup", Time since last: 1006031256 ns, Reaching safepoint: 231420 ns, At safepoint: 4858 ns, Total: 236278 ns
[2022-04-01T08:21:02.430+0000][230347][safepoint   ] Safepoint "Cleanup", Time since last: 1006423317 ns, Reaching safepoint: 247169 ns, At safepoint: 6087 ns, Total: 253256 ns
[2022-04-01T08:21:03.767+0000][230347][safepoint   ] Safepoint "Cleanup", Time since last: 1335904447 ns, Reaching safepoint: 160495 ns, At safepoint: 11094 ns, Total: 171589 ns
[2022-04-01T08:21:04.767+0000][230347][safepoint   ] Safepoint "Cleanup", Time since last: 1000350230 ns, Reaching safepoint: 92140 ns, At safepoint: 7639 ns, Total: 99779 ns
[2022-04-01T08:21:05.767+0000][230347][safepoint   ] Safepoint "Cleanup", Time since last: 1000415433 ns, Reaching safepoint: 88423 ns, At safepoint: 4380 ns, Total: 92803 ns
[2022-04-01T08:21:06.768+0000][230347][safepoint   ] Safepoint "Cleanup", Time since last: 1000243678 ns, Reaching safepoint: 109877 ns, At safepoint: 3739 ns, Total: 113616 ns
[2022-04-01T08:21:07.770+0000][230347][safepoint   ] Safepoint "Cleanup", Time since last: 1002435478 ns, Reaching safepoint: 94122 ns, At safepoint: 5323 ns, Total: 99445 ns
[2022-04-01T08:21:08.771+0000][230347][safepoint   ] Safepoint "Cleanup", Time since last: 1000222430 ns, Reaching safepoint: 106214 ns, At safepoint: 4942 ns, Total: 111156 ns
[2022-04-01T08:21:09.771+0000][230347][safepoint   ] Safepoint "Cleanup", Time since last: 1000265898 ns, Reaching safepoint: 98236 ns, At safepoint: 6105 ns, Total: 104341 ns
[2022-04-01T08:21:10.771+0000][230347][safepoint   ] Safepoint "Cleanup", Time since last: 1000255626 ns, Reaching safepoint: 104930 ns, At safepoint: 5148 ns, Total: 110078 ns
[2022-04-01T08:21:11.772+0000][230347][safepoint   ] Safepoint "Cleanup", Time since last: 1000247596 ns, Reaching safepoint: 102224 ns, At safepoint: 4965 ns, Total: 107189 ns
[2022-04-01T08:21:12.772+0000][230347][safepoint   ] Safepoint "Cleanup", Time since last: 1000140849 ns, Reaching safepoint: 225965 ns, At safepoint: 8092 ns, Total: 234057 ns
[2022-04-01T08:21:13.775+0000][230347][safepoint   ] Safepoint "Cleanup", Time since last: 1002506517 ns, Reaching safepoint: 171618 ns, At safepoint: 4735 ns, Total: 176353 ns
[2022-04-01T08:21:14.775+0000][230347][safepoint   ] Safepoint "Cleanup", Time since last: 1000344367 ns, Reaching safepoint: 140605 ns, At safepoint: 5641 ns, Total: 146246 ns
[2022-04-01T08:21:15.776+0000][230347][safepoint   ] Safepoint "Cleanup", Time since last: 1000311268 ns, Reaching safepoint: 135566 ns, At safepoint: 6782 ns, Total: 142348 ns
[2022-04-01T08:21:16.776+0000][230347][safepoint   ] Safepoint "Cleanup", Time since last: 1000132793 ns, Reaching safepoint: 129794 ns, At safepoint: 6487 ns, Total: 136281 ns
[2022-04-01T08:21:17.777+0000][230347][safepoint   ] Safepoint "Cleanup", Time since last: 1000787674 ns, Reaching safepoint: 245590 ns, At safepoint: 10386 ns, Total: 255976 ns
[2022-04-01T08:21:18.778+0000][230347][safepoint   ] Safepoint "Cleanup", Time since last: 1000350422 ns, Reaching safepoint: 96289 ns, At safepoint: 6230 ns, Total: 102519 ns
[2022-04-01T08:21:19.778+0000][230347][safepoint   ] Safepoint "Cleanup", Time since last: 1000128787 ns, Reaching safepoint: 185740 ns, At safepoint: 6729 ns, Total: 192469 ns
[2022-04-01T08:21:20.779+0000][230347][safepoint   ] Safepoint "Cleanup", Time since last: 1000604661 ns, Reaching safepoint: 83867 ns, At safepoint: 4988 ns, Total: 88855 ns
[2022-04-01T08:21:21.779+0000][230347][safepoint   ] Safepoint "Cleanup", Time since last: 1000188531 ns, Reaching safepoint: 119975 ns, At safepoint: 7213 ns, Total: 127188 ns
[2022-04-01T08:21:22.780+0000][230347][safepoint   ] Safepoint "Cleanup", Time since last: 1001230991 ns, Reaching safepoint: 220541 ns, At safepoint: 6892 ns, Total: 227433 ns
[2022-04-01T08:21:23.781+0000][230347][safepoint   ] Safepoint "Cleanup", Time since last: 1000125707 ns, Reaching safepoint: 123872 ns, At safepoint: 8875 ns, Total: 132747 ns
[2022-04-01T08:21:25.781+0000][230347][safepoint   ] Safepoint "Cleanup", Time since last: 2000504289 ns, Reaching safepoint: 159281 ns, At safepoint: 5937 ns, Total: 165218 ns
[2022-04-01T08:21:26.784+0000][230347][safepoint   ] Safepoint "Cleanup", Time since last: 1002452428 ns, Reaching safepoint: 100763 ns, At safepoint: 7184 ns, Total: 107947 ns
[2022-04-01T08:21:27.784+0000][230347][safepoint   ] Safepoint "Cleanup", Time since last: 1000243278 ns, Reaching safepoint: 164921 ns, At safepoint: 7927 ns, Total: 172848 ns
[2022-04-01T08:21:28.785+0000][230347][safepoint   ] Safepoint "Cleanup", Time since last: 1000294736 ns, Reaching safepoint: 193358 ns, At safepoint: 4988 ns, Total: 198346 ns
[2022-04-01T08:21:29.785+0000][230347][safepoint   ] Safepoint "Cleanup", Time since last: 1000420226 ns, Reaching safepoint: 253386 ns, At safepoint: 12033 ns, Total: 265419 ns
[2022-04-01T08:21:30.787+0000][230347][safepoint   ] Safepoint "Cleanup", Time since last: 1000916162 ns, Reaching safepoint: 202740 ns, At safepoint: 11917 ns, Total: 214657 ns
[2022-04-01T08:21:31.787+0000][230347][safepoint   ] Safepoint "Cleanup", Time since last: 1000197461 ns, Reaching safepoint: 99773 ns, At safepoint: 4719 ns, Total: 104492 ns
[2022-04-01T08:21:32.787+0000][230347][safepoint   ] Safepoint "Cleanup", Time since last: 1000252740 ns, Reaching safepoint: 299408 ns, At safepoint: 13068 ns, Total: 312476 ns
[2022-04-01T08:21:33.790+0000][230347][safepoint   ] Safepoint "Cleanup", Time since last: 1002726577 ns, Reaching safepoint: 189308 ns, At safepoint: 5980 ns, Total: 195288 ns
[2022-04-01T08:21:34.791+0000][230347][safepoint   ] Safepoint "Cleanup", Time since last: 1000376771 ns, Reaching safepoint: 133125 ns, At safepoint: 11191 ns, Total: 144316 ns
[2022-04-01T08:21:35.791+0000][230347][safepoint   ] Safepoint "Cleanup", Time since last: 1000377927 ns, Reaching safepoint: 103679 ns, At safepoint: 7775 ns, Total: 111454 ns
[2022-04-01T08:21:37.792+0000][230347][safepoint   ] Safepoint "Cleanup", Time since last: 2000201011 ns, Reaching safepoint: 105777 ns, At safepoint: 7081 ns, Total: 112858 ns
[2022-04-01T08:21:38.792+0000][230347][safepoint   ] Safepoint "Cleanup", Time since last: 1000209088 ns, Reaching safepoint: 118723 ns, At safepoint: 7447 ns, Total: 126170 ns
[2022-04-01T08:21:39.792+0000][230347][safepoint   ] Safepoint "Cleanup", Time since last: 1000256748 ns, Reaching safepoint: 126426 ns, At safepoint: 7185 ns, Total: 133611 ns
[2022-04-01T08:21:40.793+0000][230347][safepoint   ] Safepoint "Cleanup", Time since last: 1000132714 ns, Reaching safepoint: 109043 ns, At safepoint: 5348 ns, Total: 114391 ns
[2022-04-01T08:21:41.793+0000][230347][safepoint   ] Safepoint "Cleanup", Time since last: 1000351467 ns, Reaching safepoint: 170784 ns, At safepoint: 5213 ns, Total: 175997 ns
[2022-04-01T08:21:43.796+0000][230347][safepoint   ] Safepoint "Cleanup", Time since last: 2002966267 ns, Reaching safepoint: 186522 ns, At safepoint: 7717 ns, Total: 194239 ns
[2022-04-01T08:21:44.797+0000][230347][safepoint   ] Safepoint "Cleanup", Time since last: 1000281942 ns, Reaching safepoint: 139886 ns, At safepoint: 7447 ns, Total: 147333 ns
[2022-04-01T08:21:45.797+0000][230347][safepoint   ] Safepoint "Cleanup", Time since last: 1000257575 ns, Reaching safepoint: 95155 ns, At safepoint: 5588 ns, Total: 100743 ns
[2022-04-01T08:21:46.797+0000][230347][safepoint   ] Safepoint "Cleanup", Time since last: 1000215097 ns, Reaching safepoint: 109468 ns, At safepoint: 5698 ns, Total: 115166 ns
[2022-04-01T08:21:47.798+0000][230347][safepoint   ] Safepoint "Cleanup", Time since last: 1000244186 ns, Reaching safepoint: 90233 ns, At safepoint: 4520 ns, Total: 94753 ns
[2022-04-01T08:21:48.798+0000][230347][safepoint   ] Safepoint "Cleanup", Time since last: 1000235831 ns, Reaching safepoint: 114675 ns, At safepoint: 5660 ns, Total: 120335 ns
[2022-04-01T08:21:49.798+0000][230347][safepoint   ] Safepoint "Cleanup", Time since last: 1000227248 ns, Reaching safepoint: 97260 ns, At safepoint: 6300 ns, Total: 103560 ns
[2022-04-01T08:21:52.799+0000][230347][safepoint   ] Safepoint "Cleanup", Time since last: 3000694990 ns, Reaching safepoint: 87703 ns, At safepoint: 5657 ns, Total: 93360 ns
[2022-04-01T08:21:53.800+0000][230347][safepoint   ] Safepoint "Cleanup", Time since last: 1000263747 ns, Reaching safepoint: 87091 ns, At safepoint: 6549 ns, Total: 93640 ns
[2022-04-01T08:21:54.800+0000][230347][safepoint   ] Safepoint "Cleanup", Time since last: 1000254140 ns, Reaching safepoint: 130264 ns, At safepoint: 4536 ns, Total: 134800 ns
[2022-04-01T08:21:55.800+0000][230347][safepoint   ] Safepoint "Cleanup", Time since last: 1000206629 ns, Reaching safepoint: 83597 ns, At safepoint: 5293 ns, Total: 88890 ns
[2022-04-01T08:21:56.803+0000][230347][safepoint   ] Safepoint "Cleanup", Time since last: 1002399988 ns, Reaching safepoint: 158951 ns, At safepoint: 8687 ns, Total: 167638 ns
[2022-04-01T08:21:57.803+0000][230347][safepoint   ] Safepoint "Cleanup", Time since last: 1000115619 ns, Reaching safepoint: 295963 ns, At safepoint: 33979 ns, Total: 329942 ns
[2022-04-01T08:21:58.804+0000][230347][safepoint   ] Safepoint "Cleanup", Time since last: 1000775403 ns, Reaching safepoint: 136002 ns, At safepoint: 5021 ns, Total: 141023 ns
[2022-04-01T08:21:59.805+0000][230347][safepoint   ] Safepoint "Cleanup", Time since last: 1000316504 ns, Reaching safepoint: 135660 ns, At safepoint: 5690 ns, Total: 141350 ns
[2022-04-01T08:22:00.805+0000][230347][safepoint   ] Safepoint "Cleanup", Time since last: 1000157446 ns, Reaching safepoint: 138999 ns, At safepoint: 5375 ns, Total: 144374 ns
[2022-04-01T08:22:02.805+0000][230347][safepoint   ] Safepoint "Cleanup", Time since last: 2000203315 ns, Reaching safepoint: 256373 ns, At safepoint: 18051 ns, Total: 274424 ns
[2022-04-01T08:22:05.807+0000][230347][safepoint   ] Safepoint "Cleanup", Time since last: 3001156328 ns, Reaching safepoint: 164221 ns, At safepoint: 10157 ns, Total: 174378 ns
[2022-04-01T08:22:06.808+0000][230347][safepoint   ] Safepoint "Cleanup", Time since last: 1000987473 ns, Reaching safepoint: 280069 ns, At safepoint: 10770 ns, Total: 290839 ns
[2022-04-01T08:22:07.808+0000][230347][safepoint   ] Safepoint "Cleanup", Time since last: 1000147475 ns, Reaching safepoint: 79725 ns, At safepoint: 4253 ns, Total: 83978 ns
[2022-04-01T08:22:08.809+0000][230347][safepoint   ] Safepoint "Cleanup", Time since last: 1000240610 ns, Reaching safepoint: 108831 ns, At safepoint: 3574 ns, Total: 112405 ns
[2022-04-01T08:22:09.809+0000][230347][safepoint   ] Safepoint "Cleanup", Time since last: 1000233573 ns, Reaching safepoint: 110463 ns, At safepoint: 5924 ns, Total: 116387 ns
[2022-04-01T08:22:10.809+0000][230347][safepoint   ] Safepoint "Cleanup", Time since last: 1000137004 ns, Reaching safepoint: 88624 ns, At safepoint: 4538 ns, Total: 93162 ns
[2022-04-01T08:22:11.810+0000][230347][safepoint   ] Safepoint "Cleanup", Time since last: 1000249015 ns, Reaching safepoint: 137932 ns, At safepoint: 3516 ns, Total: 141448 ns
[2022-04-01T08:22:12.811+0000][230347][safepoint   ] Safepoint "Cleanup", Time since last: 1000735512 ns, Reaching safepoint: 150007 ns, At safepoint: 3403 ns, Total: 153410 ns
[2022-04-01T08:22:13.813+0000][230347][safepoint   ] Safepoint "Cleanup", Time since last: 1002204837 ns, Reaching safepoint: 365655 ns, At safepoint: 10489 ns, Total: 376144 ns
[2022-04-01T08:22:14.818+0000][230347][safepoint   ] Safepoint "Cleanup", Time since last: 1004923323 ns, Reaching safepoint: 174936 ns, At safepoint: 5768 ns, Total: 180704 ns
[2022-04-01T08:22:16.819+0000][230347][safepoint   ] Safepoint "Cleanup", Time since last: 2000468155 ns, Reaching safepoint: 152186 ns, At safepoint: 9776 ns, Total: 161962 ns
[2022-04-01T08:22:18.820+0000][230347][safepoint   ] Safepoint "Cleanup", Time since last: 2000650135 ns, Reaching safepoint: 134814 ns, At safepoint: 6803 ns, Total: 141617 ns
[2022-04-01T08:22:19.820+0000][230347][safepoint   ] Safepoint "Cleanup", Time since last: 1000122463 ns, Reaching safepoint: 100110 ns, At safepoint: 3787 ns, Total: 103897 ns
[2022-04-01T08:22:20.820+0000][230347][safepoint   ] Safepoint "Cleanup", Time since last: 1000224313 ns, Reaching safepoint: 115969 ns, At safepoint: 21761 ns, Total: 137730 ns
[2022-04-01T08:22:21.821+0000][230347][safepoint   ] Safepoint "Cleanup", Time since last: 1000152489 ns, Reaching safepoint: 171998 ns, At safepoint: 7335 ns, Total: 179333 ns
[2022-04-01T08:22:22.821+0000][230347][safepoint   ] Safepoint "Cleanup", Time since last: 1000478324 ns, Reaching safepoint: 189134 ns, At safepoint: 9776 ns, Total: 198910 ns
[2022-04-01T08:22:24.822+0000][230347][safepoint   ] Safepoint "Cleanup", Time since last: 2000278436 ns, Reaching safepoint: 100941 ns, At safepoint: 3986 ns, Total: 104927 ns
[2022-04-01T08:22:25.822+0000][230347][safepoint   ] Safepoint "Cleanup", Time since last: 1000303511 ns, Reaching safepoint: 181032 ns, At safepoint: 5219 ns, Total: 186251 ns
[2022-04-01T08:22:27.827+0000][230347][safepoint   ] Safepoint "Cleanup", Time since last: 2004318596 ns, Reaching safepoint: 170203 ns, At safepoint: 5206 ns, Total: 175409 ns
[2022-04-01T08:22:29.827+0000][230347][safepoint   ] Safepoint "Cleanup", Time since last: 2000545944 ns, Reaching safepoint: 98746 ns, At safepoint: 7837 ns, Total: 106583 ns
[2022-04-01T08:22:31.828+0000][230347][safepoint   ] Safepoint "Cleanup", Time since last: 2000227973 ns, Reaching safepoint: 105623 ns, At safepoint: 6913 ns, Total: 112536 ns
[2022-04-01T08:22:33.828+0000][230347][safepoint   ] Safepoint "Cleanup", Time since last: 2000372915 ns, Reaching safepoint: 147666 ns, At safepoint: 10256 ns, Total: 157922 ns
[2022-04-01T08:22:34.829+0000][230347][safepoint   ] Safepoint "Cleanup", Time since last: 1000729728 ns, Reaching safepoint: 378257 ns, At safepoint: 14237 ns, Total: 392494 ns
[2022-04-01T08:22:35.830+0000][230347][safepoint   ] Safepoint "Cleanup", Time since last: 1000155726 ns, Reaching safepoint: 102226 ns, At safepoint: 5508 ns, Total: 107734 ns
[2022-04-01T08:22:36.830+0000][230347][safepoint   ] Safepoint "Cleanup", Time since last: 1000265254 ns, Reaching safepoint: 161326 ns, At safepoint: 12742 ns, Total: 174068 ns
[2022-04-01T08:22:37.831+0000][230347][safepoint   ] Safepoint "Cleanup", Time since last: 1000591822 ns, Reaching safepoint: 123398 ns, At safepoint: 6447 ns, Total: 129845 ns
[2022-04-01T08:22:38.831+0000][230347][safepoint   ] Safepoint "Cleanup", Time since last: 1000309104 ns, Reaching safepoint: 107032 ns, At safepoint: 5613 ns, Total: 112645 ns
[2022-04-01T08:22:39.832+0000][230347][safepoint   ] Safepoint "Cleanup", Time since last: 1000299349 ns, Reaching safepoint: 137724 ns, At safepoint: 6094 ns, Total: 143818 ns
[2022-04-01T08:22:40.832+0000][230347][safepoint   ] Safepoint "Cleanup", Time since last: 1000149800 ns, Reaching safepoint: 191237 ns, At safepoint: 5145 ns, Total: 196382 ns
[2022-04-01T08:22:41.834+0000][230347][safepoint   ] Safepoint "Cleanup", Time since last: 1001996505 ns, Reaching safepoint: 227238 ns, At safepoint: 6270 ns, Total: 233508 ns
[2022-04-01T08:22:43.835+0000][230347][safepoint   ] Safepoint "Cleanup", Time since last: 2000212432 ns, Reaching safepoint: 157972 ns, At safepoint: 6868 ns, Total: 164840 ns
[2022-04-01T08:22:44.835+0000][230347][safepoint   ] Safepoint "Cleanup", Time since last: 1000113200 ns, Reaching safepoint: 119354 ns, At safepoint: 5418 ns, Total: 124772 ns
[2022-04-01T08:22:45.835+0000][230347][safepoint   ] Safepoint "Cleanup", Time since last: 1000272236 ns, Reaching safepoint: 250645 ns, At safepoint: 15448 ns, Total: 266093 ns
[2022-04-01T08:22:46.836+0000][230347][safepoint   ] Safepoint "Cleanup", Time since last: 1000478440 ns, Reaching safepoint: 204271 ns, At safepoint: 19847 ns, Total: 224118 ns
[2022-04-01T08:22:48.839+0000][230347][safepoint   ] Safepoint "Cleanup", Time since last: 2000495529 ns, Reaching safepoint: 2776039 ns, At safepoint: 29669 ns, Total: 2805708 ns
[2022-04-01T08:22:49.840+0000][230347][safepoint   ] Safepoint "Cleanup", Time since last: 1000237371 ns, Reaching safepoint: 209373 ns, At safepoint: 14262 ns, Total: 223635 ns
[2022-04-01T08:22:50.840+0000][230347][safepoint   ] Safepoint "Cleanup", Time since last: 1000197635 ns, Reaching safepoint: 106364 ns, At safepoint: 3515 ns, Total: 109879 ns
[2022-04-01T08:22:51.841+0000][230347][safepoint   ] Safepoint "Cleanup", Time since last: 1000243721 ns, Reaching safepoint: 204884 ns, At safepoint: 3780 ns, Total: 208664 ns
[2022-04-01T08:22:52.865+0000][230347][safepoint   ] Safepoint "Cleanup", Time since last: 1024102543 ns, Reaching safepoint: 166956 ns, At safepoint: 9625 ns, Total: 176581 ns
[2022-04-01T08:22:53.865+0000][230347][safepoint   ] Safepoint "Cleanup", Time since last: 1000309167 ns, Reaching safepoint: 141858 ns, At safepoint: 7427 ns, Total: 149285 ns
[2022-04-01T08:22:56.867+0000][230347][safepoint   ] Safepoint "Cleanup", Time since last: 3000966294 ns, Reaching safepoint: 360578 ns, At safepoint: 14060 ns, Total: 374638 ns
[2022-04-01T08:22:57.867+0000][230347][safepoint   ] Safepoint "Cleanup", Time since last: 1000680609 ns, Reaching safepoint: 150793 ns, At safepoint: 8277 ns, Total: 159070 ns
[2022-04-01T08:22:58.868+0000][230347][safepoint   ] Safepoint "Cleanup", Time since last: 1000129463 ns, Reaching safepoint: 207116 ns, At safepoint: 8876 ns, Total: 215992 ns
[2022-04-01T08:23:00.868+0000][230347][safepoint   ] Safepoint "Cleanup", Time since last: 2000524014 ns, Reaching safepoint: 125740 ns, At safepoint: 9621 ns, Total: 135361 ns
[2022-04-01T08:23:02.870+0000][230347][safepoint   ] Safepoint "Cleanup", Time since last: 2001130058 ns, Reaching safepoint: 191546 ns, At safepoint: 39854 ns, Total: 231400 ns
[2022-04-01T08:23:03.871+0000][230347][safepoint   ] Safepoint "Cleanup", Time since last: 1001124097 ns, Reaching safepoint: 138988 ns, At safepoint: 7440 ns, Total: 146428 ns
[2022-04-01T08:23:04.871+0000][230347][safepoint   ] Safepoint "Cleanup", Time since last: 1000143679 ns, Reaching safepoint: 185840 ns, At safepoint: 5033 ns, Total: 190873 ns
[2022-04-01T08:23:06.872+0000][230347][safepoint   ] Safepoint "Cleanup", Time since last: 2000206612 ns, Reaching safepoint: 172448 ns, At safepoint: 5645 ns, Total: 178093 ns
[2022-04-01T08:23:07.872+0000][230347][safepoint   ] Safepoint "Cleanup", Time since last: 1000132514 ns, Reaching safepoint: 129899 ns, At safepoint: 8253 ns, Total: 138152 ns
[2022-04-01T08:23:08.873+0000][230347][safepoint   ] Safepoint "Cleanup", Time since last: 1000300814 ns, Reaching safepoint: 146510 ns, At safepoint: 9074 ns, Total: 155584 ns
[2022-04-01T08:23:09.873+0000][230347][safepoint   ] Safepoint "Cleanup", Time since last: 1000350598 ns, Reaching safepoint: 396979 ns, At safepoint: 17456 ns, Total: 414435 ns
[2022-04-01T08:23:10.875+0000][230347][safepoint   ] Safepoint "Cleanup", Time since last: 1001625968 ns, Reaching safepoint: 208984 ns, At safepoint: 7357 ns, Total: 216341 ns
[2022-04-01T08:23:11.875+0000][230347][safepoint   ] Safepoint "Cleanup", Time since last: 1000159246 ns, Reaching safepoint: 179524 ns, At safepoint: 5395 ns, Total: 184919 ns
[2022-04-01T08:23:20.886+0000][230347][safepoint   ] Safepoint "Cleanup", Time since last: 9010466623 ns, Reaching safepoint: 140197 ns, At safepoint: 6468 ns, Total: 146665 ns
[2022-04-01T08:23:22.887+0000][230347][safepoint   ] Safepoint "Cleanup", Time since last: 2000378767 ns, Reaching safepoint: 118174 ns, At safepoint: 8079 ns, Total: 126253 ns
[2022-04-01T08:23:23.887+0000][230347][safepoint   ] Safepoint "Cleanup", Time since last: 1000247043 ns, Reaching safepoint: 142834 ns, At safepoint: 14545 ns, Total: 157379 ns
[2022-04-01T08:23:24.887+0000][230347][safepoint   ] Safepoint "Cleanup", Time since last: 1000275080 ns, Reaching safepoint: 132637 ns, At safepoint: 6463 ns, Total: 139100 ns
[2022-04-01T08:23:25.888+0000][230347][safepoint   ] Safepoint "Cleanup", Time since last: 1000296660 ns, Reaching safepoint: 150735 ns, At safepoint: 7163 ns, Total: 157898 ns
[2022-04-01T08:23:26.888+0000][230347][safepoint   ] Safepoint "Cleanup", Time since last: 1000136096 ns, Reaching safepoint: 194355 ns, At safepoint: 8565 ns, Total: 202920 ns
[2022-04-01T08:23:32.889+0000][230347][safepoint   ] Safepoint "Cleanup", Time since last: 6000895555 ns, Reaching safepoint: 361209 ns, At safepoint: 11942 ns, Total: 373151 ns
[2022-04-01T08:23:34.891+0000][230347][safepoint   ] Safepoint "Cleanup", Time since last: 2001137805 ns, Reaching safepoint: 129700 ns, At safepoint: 8278 ns, Total: 137978 ns
[2022-04-01T08:23:35.891+0000][230347][safepoint   ] Safepoint "Cleanup", Time since last: 1000295314 ns, Reaching safepoint: 272188 ns, At safepoint: 12065 ns, Total: 284253 ns
[2022-04-01T08:23:39.892+0000][230347][safepoint   ] Safepoint "Cleanup", Time since last: 4000923816 ns, Reaching safepoint: 204617 ns, At safepoint: 6270 ns, Total: 210887 ns
[2022-04-01T08:23:40.894+0000][230347][safepoint   ] Safepoint "Cleanup", Time since last: 1001466601 ns, Reaching safepoint: 570517 ns, At safepoint: 6693 ns, Total: 577210 ns
[2022-04-01T08:23:41.895+0000][230347][safepoint   ] Safepoint "Cleanup", Time since last: 1000297322 ns, Reaching safepoint: 192674 ns, At safepoint: 6125 ns, Total: 198799 ns
[2022-04-01T08:23:43.896+0000][230347][safepoint   ] Safepoint "Cleanup", Time since last: 2000415884 ns, Reaching safepoint: 118175 ns, At safepoint: 6247 ns, Total: 124422 ns
[2022-04-01T08:23:44.897+0000][230347][safepoint   ] Safepoint "Cleanup", Time since last: 1000186234 ns, Reaching safepoint: 1136061 ns, At safepoint: 18982 ns, Total: 1155043 ns
[2022-04-01T08:23:46.897+0000][230347][safepoint   ] Safepoint "Cleanup", Time since last: 2000340259 ns, Reaching safepoint: 107604 ns, At safepoint: 5679 ns, Total: 113283 ns
[2022-04-01T08:23:47.898+0000][230347][safepoint   ] Safepoint "Cleanup", Time since last: 1000226593 ns, Reaching safepoint: 148693 ns, At safepoint: 13592 ns, Total: 162285 ns
[2022-04-01T08:23:48.899+0000][230347][safepoint   ] Safepoint "Cleanup", Time since last: 1000709145 ns, Reaching safepoint: 163667 ns, At safepoint: 7574 ns, Total: 171241 ns
[2022-04-01T08:23:54.901+0000][230347][safepoint   ] Safepoint "Cleanup", Time since last: 6002201981 ns, Reaching safepoint: 198706 ns, At safepoint: 8593 ns, Total: 207299 ns
[2022-04-01T08:23:55.904+0000][230347][safepoint   ] Safepoint "Cleanup", Time since last: 1003002822 ns, Reaching safepoint: 179806 ns, At safepoint: 7893 ns, Total: 187699 ns
[2022-04-01T08:23:57.905+0000][230347][safepoint   ] Safepoint "Cleanup", Time since last: 2000274677 ns, Reaching safepoint: 133487 ns, At safepoint: 8368 ns, Total: 141855 ns
[2022-04-01T08:24:03.926+0000][230347][safepoint   ] Safepoint "Cleanup", Time since last: 6020764884 ns, Reaching safepoint: 133857 ns, At safepoint: 5118 ns, Total: 138975 ns
[2022-04-01T08:24:04.926+0000][230347][safepoint   ] Safepoint "Cleanup", Time since last: 1000301457 ns, Reaching safepoint: 425666 ns, At safepoint: 17307 ns, Total: 442973 ns
[2022-04-01T08:24:08.927+0000][230347][safepoint   ] Safepoint "Cleanup", Time since last: 4000790551 ns, Reaching safepoint: 126235 ns, At safepoint: 5932 ns, Total: 132167 ns
[2022-04-01T08:24:10.928+0000][230347][safepoint   ] Safepoint "Cleanup", Time since last: 2000417602 ns, Reaching safepoint: 213374 ns, At safepoint: 5924 ns, Total: 219298 ns
[2022-04-01T08:24:11.939+0000][230347][safepoint   ] Safepoint "Cleanup", Time since last: 1010660778 ns, Reaching safepoint: 254236 ns, At safepoint: 7930 ns, Total: 262166 ns
[2022-04-01T08:24:17.940+0000][230347][safepoint   ] Safepoint "Cleanup", Time since last: 6000884628 ns, Reaching safepoint: 97952 ns, At safepoint: 5517 ns, Total: 103469 ns
[2022-04-01T08:24:20.940+0000][230347][safepoint   ] Safepoint "Cleanup", Time since last: 3000380789 ns, Reaching safepoint: 104554 ns, At safepoint: 5667 ns, Total: 110221 ns
[2022-04-01T08:24:21.941+0000][230347][safepoint   ] Safepoint "Cleanup", Time since last: 1000223055 ns, Reaching safepoint: 119538 ns, At safepoint: 5047 ns, Total: 124585 ns
[2022-04-01T08:24:26.941+0000][230347][safepoint   ] Safepoint "Cleanup", Time since last: 5000536904 ns, Reaching safepoint: 125725 ns, At safepoint: 8336 ns, Total: 134061 ns
[2022-04-01T08:24:27.942+0000][230347][safepoint   ] Safepoint "Cleanup", Time since last: 1000261015 ns, Reaching safepoint: 99819 ns, At safepoint: 4147 ns, Total: 103966 ns
[2022-04-01T08:24:31.942+0000][230347][safepoint   ] Safepoint "Cleanup", Time since last: 4000712882 ns, Reaching safepoint: 136461 ns, At safepoint: 4686 ns, Total: 141147 ns
[2022-04-01T08:24:37.945+0000][230347][safepoint   ] Safepoint "Cleanup", Time since last: 6002882498 ns, Reaching safepoint: 109490 ns, At safepoint: 5683 ns, Total: 115173 ns
[2022-04-01T08:24:38.946+0000][230347][safepoint   ] Safepoint "Cleanup", Time since last: 1000239091 ns, Reaching safepoint: 125001 ns, At safepoint: 15701 ns, Total: 140702 ns
[2022-04-01T08:24:45.947+0000][230347][safepoint   ] Safepoint "Cleanup", Time since last: 7001128581 ns, Reaching safepoint: 216462 ns, At safepoint: 8126 ns, Total: 224588 ns
[2022-04-01T08:24:47.948+0000][230347][safepoint   ] Safepoint "Cleanup", Time since last: 2000468179 ns, Reaching safepoint: 89353 ns, At safepoint: 6193 ns, Total: 95546 ns
[2022-04-01T08:24:50.948+0000][230347][safepoint   ] Safepoint "Cleanup", Time since last: 3000310708 ns, Reaching safepoint: 233978 ns, At safepoint: 8198 ns, Total: 242176 ns
[2022-04-01T08:24:55.952+0000][230347][safepoint   ] Safepoint "Cleanup", Time since last: 5003691364 ns, Reaching safepoint: 170104 ns, At safepoint: 8997 ns, Total: 179101 ns
[2022-04-01T08:25:00.953+0000][230347][safepoint   ] Safepoint "Cleanup", Time since last: 5000752660 ns, Reaching safepoint: 129213 ns, At safepoint: 5960 ns, Total: 135173 ns
[2022-04-01T08:25:04.954+0000][230347][safepoint   ] Safepoint "Cleanup", Time since last: 4000464946 ns, Reaching safepoint: 133017 ns, At safepoint: 7250 ns, Total: 140267 ns
[2022-04-01T08:25:05.954+0000][230347][safepoint   ] Safepoint "Cleanup", Time since last: 1000121198 ns, Reaching safepoint: 129213 ns, At safepoint: 6996 ns, Total: 136209 ns
[2022-04-01T08:25:07.959+0000][230347][safepoint   ] Safepoint "Cleanup", Time since last: 2004866396 ns, Reaching safepoint: 122591 ns, At safepoint: 4942 ns, Total: 127533 ns
[2022-04-01T08:25:08.959+0000][230347][safepoint   ] Safepoint "Cleanup", Time since last: 1000124477 ns, Reaching safepoint: 189956 ns, At safepoint: 7893 ns, Total: 197849 ns
[2022-04-01T08:25:13.962+0000][230347][safepoint   ] Safepoint "Cleanup", Time since last: 5002898404 ns, Reaching safepoint: 205599 ns, At safepoint: 10662 ns, Total: 216261 ns
[2022-04-01T08:25:15.964+0000][230347][safepoint   ] Safepoint "Cleanup", Time since last: 2001440732 ns, Reaching safepoint: 111817 ns, At safepoint: 3475 ns, Total: 115292 ns
[2022-04-01T08:25:20.965+0000][230347][safepoint   ] Safepoint "Cleanup", Time since last: 5000652220 ns, Reaching safepoint: 117223 ns, At safepoint: 5766 ns, Total: 122989 ns
[2022-04-01T08:25:26.966+0000][230347][safepoint   ] Safepoint "Cleanup", Time since last: 6000994650 ns, Reaching safepoint: 121721 ns, At safepoint: 4475 ns, Total: 126196 ns
[2022-04-01T08:25:27.969+0000][230347][safepoint   ] Safepoint "Cleanup", Time since last: 1002762253 ns, Reaching safepoint: 100331 ns, At safepoint: 9082 ns, Total: 109413 ns
[2022-04-01T08:25:37.973+0000][230347][safepoint   ] Safepoint "Cleanup", Time since last: 10003943414 ns, Reaching safepoint: 112948 ns, At safepoint: 7322 ns, Total: 120270 ns
[2022-04-01T08:25:40.973+0000][230347][safepoint   ] Safepoint "Cleanup", Time since last: 3000449848 ns, Reaching safepoint: 179691 ns, At safepoint: 4903 ns, Total: 184594 ns
[2022-04-01T08:25:47.975+0000][230347][safepoint   ] Safepoint "Cleanup", Time since last: 7001350010 ns, Reaching safepoint: 127741 ns, At safepoint: 8367 ns, Total: 136108 ns
[2022-04-01T08:25:48.976+0000][230347][safepoint   ] Safepoint "Cleanup", Time since last: 1000919241 ns, Reaching safepoint: 229571 ns, At safepoint: 12541 ns, Total: 242112 ns
[2022-04-01T08:25:50.977+0000][230347][safepoint   ] Safepoint "Cleanup", Time since last: 2000702781 ns, Reaching safepoint: 264447 ns, At safepoint: 12685 ns, Total: 277132 ns
[2022-04-01T08:25:52.981+0000][230347][safepoint   ] Safepoint "Cleanup", Time since last: 2004053878 ns, Reaching safepoint: 168586 ns, At safepoint: 7238 ns, Total: 175824 ns
[2022-04-01T08:25:58.982+0000][230347][safepoint   ] Safepoint "Cleanup", Time since last: 6000893787 ns, Reaching safepoint: 141255 ns, At safepoint: 9723 ns, Total: 150978 ns
[2022-04-01T08:25:59.985+0000][230347][safepoint   ] Safepoint "Cleanup", Time since last: 1002880729 ns, Reaching safepoint: 319459 ns, At safepoint: 13956 ns, Total: 333415 ns
[2022-04-01T08:26:02.986+0000][230347][safepoint   ] Safepoint "Cleanup", Time since last: 3000807320 ns, Reaching safepoint: 110072 ns, At safepoint: 3920 ns, Total: 113992 ns
[2022-04-01T08:26:09.990+0000][230347][safepoint   ] Safepoint "Cleanup", Time since last: 7003444284 ns, Reaching safepoint: 171065 ns, At safepoint: 6282 ns, Total: 177347 ns
[2022-04-01T08:26:24.999+0000][230347][safepoint   ] Safepoint "Cleanup", Time since last: 15008933346 ns, Reaching safepoint: 105959 ns, At safepoint: 5966 ns, Total: 111925 ns
[2022-04-01T08:26:28.000+0000][230347][safepoint   ] Safepoint "Cleanup", Time since last: 3000400580 ns, Reaching safepoint: 149346 ns, At safepoint: 8023 ns, Total: 157369 ns
[2022-04-01T08:26:34.009+0000][230347][safepoint   ] Safepoint "Cleanup", Time since last: 6009281404 ns, Reaching safepoint: 237639 ns, At safepoint: 10714 ns, Total: 248353 ns
[2022-04-01T08:26:47.011+0000][230347][safepoint   ] Safepoint "Cleanup", Time since last: 13001533395 ns, Reaching safepoint: 91827 ns, At safepoint: 5227 ns, Total: 97054 ns
[2022-04-01T08:26:48.011+0000][230347][safepoint   ] Safepoint "Cleanup", Time since last: 1000245141 ns, Reaching safepoint: 105281 ns, At safepoint: 8360 ns, Total: 113641 ns
[2022-04-01T08:26:53.012+0000][230347][safepoint   ] Safepoint "Cleanup", Time since last: 5000592460 ns, Reaching safepoint: 106761 ns, At safepoint: 6495 ns, Total: 113256 ns
[2022-04-01T08:27:00.014+0000][230347][safepoint   ] Safepoint "Cleanup", Time since last: 7001967086 ns, Reaching safepoint: 165028 ns, At safepoint: 8442 ns, Total: 173470 ns
[2022-04-01T08:27:07.020+0000][230347][safepoint   ] Safepoint "Cleanup", Time since last: 7005915795 ns, Reaching safepoint: 120853 ns, At safepoint: 4200 ns, Total: 125053 ns
[2022-04-01T08:27:09.020+0000][230347][safepoint   ] Safepoint "Cleanup", Time since last: 2000296198 ns, Reaching safepoint: 114356 ns, At safepoint: 6693 ns, Total: 121049 ns
[2022-04-01T08:27:10.021+0000][230347][safepoint   ] Safepoint "Cleanup", Time since last: 1000515508 ns, Reaching safepoint: 229951 ns, At safepoint: 5473 ns, Total: 235424 ns
[2022-04-01T08:27:16.025+0000][230347][safepoint   ] Safepoint "Cleanup", Time since last: 6003738929 ns, Reaching safepoint: 152643 ns, At safepoint: 7659 ns, Total: 160302 ns
[2022-04-01T08:27:24.026+0000][230347][safepoint   ] Safepoint "Cleanup", Time since last: 8000956188 ns, Reaching safepoint: 199294 ns, At safepoint: 9929 ns, Total: 209223 ns
[2022-04-01T08:27:27.027+0000][230347][safepoint   ] Safepoint "Cleanup", Time since last: 3000670635 ns, Reaching safepoint: 126194 ns, At safepoint: 6563 ns, Total: 132757 ns
[2022-04-01T08:27:28.028+0000][230347][safepoint   ] Safepoint "Cleanup", Time since last: 1000298698 ns, Reaching safepoint: 119922 ns, At safepoint: 7712 ns, Total: 127634 ns
[2022-04-01T08:27:29.028+0000][230347][safepoint   ] Safepoint "Cleanup", Time since last: 1000142649 ns, Reaching safepoint: 352612 ns, At safepoint: 11425 ns, Total: 364037 ns
[2022-04-01T08:27:34.029+0000][230347][safepoint   ] Safepoint "Cleanup", Time since last: 5001077843 ns, Reaching safepoint: 137033 ns, At safepoint: 7351 ns, Total: 144384 ns
[2022-04-01T08:27:41.039+0000][230347][safepoint   ] Safepoint "Cleanup", Time since last: 7009056788 ns, Reaching safepoint: 269303 ns, At safepoint: 18570 ns, Total: 287873 ns
[2022-04-01T08:27:55.047+0000][230347][safepoint   ] Safepoint "Cleanup", Time since last: 14007926662 ns, Reaching safepoint: 130576 ns, At safepoint: 7732 ns, Total: 138308 ns
[2022-04-01T08:28:02.048+0000][230347][safepoint   ] Safepoint "Cleanup", Time since last: 7001106142 ns, Reaching safepoint: 97311 ns, At safepoint: 7522 ns, Total: 104833 ns
[2022-04-01T08:28:04.048+0000][230347][safepoint   ] Safepoint "Cleanup", Time since last: 2000190621 ns, Reaching safepoint: 118653 ns, At safepoint: 5795 ns, Total: 124448 ns
[2022-04-01T08:28:05.048+0000][230347][safepoint   ] Safepoint "Cleanup", Time since last: 1000121625 ns, Reaching safepoint: 125184 ns, At safepoint: 5544 ns, Total: 130728 ns
[2022-04-01T08:28:08.049+0000][230347][safepoint   ] Safepoint "Cleanup", Time since last: 3000432165 ns, Reaching safepoint: 168519 ns, At safepoint: 6565 ns, Total: 175084 ns
[2022-04-01T08:28:10.058+0000][230347][safepoint   ] Safepoint "Cleanup", Time since last: 2007980961 ns, Reaching safepoint: 1175444 ns, At safepoint: 26278 ns, Total: 1201722 ns
[2022-04-01T08:28:11.059+0000][230347][safepoint   ] Safepoint "Cleanup", Time since last: 1000210064 ns, Reaching safepoint: 185408 ns, At safepoint: 5733 ns, Total: 191141 ns
[2022-04-01T08:28:14.247+0000][230347][gc,start    ] GC(12) Pause Young (Normal) (G1 Evacuation Pause)
[2022-04-01T08:28:14.248+0000][230347][gc,task     ] GC(12) Using 4 workers of 4 for evacuation
[2022-04-01T08:28:14.248+0000][230347][gc,age      ] GC(12) Desired survivor size 40370176 bytes, new threshold 15 (max threshold 15)
[2022-04-01T08:28:14.302+0000][230347][gc,age      ] GC(12) Age table with threshold 15 (max threshold 15)
[2022-04-01T08:28:14.302+0000][230347][gc,age      ] GC(12) - age   1:    9512760 bytes,    9512760 total
[2022-04-01T08:28:14.302+0000][230347][gc,age      ] GC(12) - age   2:    5734840 bytes,   15247600 total
[2022-04-01T08:28:14.302+0000][230347][gc,phases   ] GC(12)   Pre Evacuate Collection Set: 0.2ms
[2022-04-01T08:28:14.302+0000][230347][gc,phases   ] GC(12)   Merge Heap Roots: 0.3ms
[2022-04-01T08:28:14.302+0000][230347][gc,phases   ] GC(12)   Evacuate Collection Set: 52.1ms
[2022-04-01T08:28:14.302+0000][230347][gc,phases   ] GC(12)   Post Evacuate Collection Set: 1.8ms
[2022-04-01T08:28:14.302+0000][230347][gc,phases   ] GC(12)   Other: 0.3ms
[2022-04-01T08:28:14.302+0000][230347][gc,heap     ] GC(12) Eden regions: 607->0(598)
[2022-04-01T08:28:14.302+0000][230347][gc,heap     ] GC(12) Survivor regions: 7->16(77)
[2022-04-01T08:28:14.302+0000][230347][gc,heap     ] GC(12) Old regions: 54->54
[2022-04-01T08:28:14.302+0000][230347][gc,heap     ] GC(12) Archive regions: 2->2
[2022-04-01T08:28:14.302+0000][230347][gc,heap     ] GC(12) Humongous regions: 1->1
[2022-04-01T08:28:14.302+0000][230347][gc,metaspace] GC(12) Metaspace: 82076K(85324K)->82076K(85324K) NonClass: 71196K(73472K)->71196K(73472K) Class: 10879K(11852K)->10879K(11852K)
[2022-04-01T08:28:14.302+0000][230347][gc          ] GC(12) Pause Young (Normal) (G1 Evacuation Pause) 669M->70M(1024M) 54.812ms
[2022-04-01T08:28:14.302+0000][230347][gc,cpu      ] GC(12) User=0.08s Sys=0.00s Real=0.05s
[2022-04-01T08:28:14.302+0000][230347][safepoint   ] Safepoint "G1CollectForAllocation", Time since last: 3188710096 ns, Reaching safepoint: 140059 ns, At safepoint: 54923368 ns, Total: 55063427 ns
[2022-04-01T08:28:16.303+0000][230347][safepoint   ] Safepoint "Cleanup", Time since last: 2000160352 ns, Reaching safepoint: 114282 ns, At safepoint: 7357 ns, Total: 121639 ns
[2022-04-01T08:28:18.305+0000][230347][safepoint   ] Safepoint "Cleanup", Time since last: 2001167180 ns, Reaching safepoint: 1339490 ns, At safepoint: 8185 ns, Total: 1347675 ns
[2022-04-01T08:28:19.306+0000][230347][safepoint   ] Safepoint "Cleanup", Time since last: 1000650480 ns, Reaching safepoint: 280013 ns, At safepoint: 9468 ns, Total: 289481 ns
[2022-04-01T08:28:29.312+0000][230347][safepoint   ] Safepoint "Cleanup", Time since last: 10005354702 ns, Reaching safepoint: 207285 ns, At safepoint: 5679 ns, Total: 212964 ns
[2022-04-01T08:28:31.312+0000][230347][safepoint   ] Safepoint "Cleanup", Time since last: 2000448346 ns, Reaching safepoint: 143391 ns, At safepoint: 6708 ns, Total: 150099 ns
[2022-04-01T08:28:32.313+0000][230347][safepoint   ] Safepoint "Cleanup", Time since last: 1000240419 ns, Reaching safepoint: 159830 ns, At safepoint: 6071 ns, Total: 165901 ns
[2022-04-01T08:28:33.660+0000][230347][safepoint   ] Safepoint "Cleanup", Time since last: 1347397607 ns, Reaching safepoint: 282853 ns, At safepoint: 13328 ns, Total: 296181 ns
[2022-04-01T08:28:36.661+0000][230347][safepoint   ] Safepoint "Cleanup", Time since last: 3000709067 ns, Reaching safepoint: 105596 ns, At safepoint: 7072 ns, Total: 112668 ns
[2022-04-01T08:28:37.662+0000][230347][safepoint   ] Safepoint "Cleanup", Time since last: 1000200983 ns, Reaching safepoint: 148742 ns, At safepoint: 12481 ns, Total: 161223 ns
[2022-04-01T08:28:46.341+0000][230347][safepoint   ] Safepoint "Cleanup", Time since last: 8678867426 ns, Reaching safepoint: 135268 ns, At safepoint: 9024 ns, Total: 144292 ns
[2022-04-01T08:28:48.341+0000][230347][safepoint   ] Safepoint "Cleanup", Time since last: 2000340187 ns, Reaching safepoint: 175244 ns, At safepoint: 8541 ns, Total: 183785 ns
[2022-04-01T08:28:54.342+0000][230347][safepoint   ] Safepoint "Cleanup", Time since last: 6000698155 ns, Reaching safepoint: 124019 ns, At safepoint: 4963 ns, Total: 128982 ns
[2022-04-01T08:28:55.342+0000][230347][safepoint   ] Safepoint "Cleanup", Time since last: 1000338084 ns, Reaching safepoint: 123736 ns, At safepoint: 6225 ns, Total: 129961 ns
[2022-04-01T08:29:01.344+0000][230347][safepoint   ] Safepoint "Cleanup", Time since last: 6001892035 ns, Reaching safepoint: 182247 ns, At safepoint: 15555 ns, Total: 197802 ns
[2022-04-01T08:29:02.345+0000][230347][safepoint   ] Safepoint "Cleanup", Time since last: 1000306118 ns, Reaching safepoint: 185862 ns, At safepoint: 5997 ns, Total: 191859 ns
[2022-04-01T08:29:10.346+0000][230347][safepoint   ] Safepoint "Cleanup", Time since last: 8000662636 ns, Reaching safepoint: 132970 ns, At safepoint: 4635 ns, Total: 137605 ns
[2022-04-01T08:29:23.361+0000][230347][safepoint   ] Safepoint "Cleanup", Time since last: 13014855307 ns, Reaching safepoint: 125938 ns, At safepoint: 4902 ns, Total: 130840 ns
[2022-04-01T08:29:36.363+0000][230347][safepoint   ] Safepoint "Cleanup", Time since last: 13002150362 ns, Reaching safepoint: 258615 ns, At safepoint: 8867 ns, Total: 267482 ns
[2022-04-01T08:29:43.365+0000][230347][safepoint   ] Safepoint "Cleanup", Time since last: 7001473076 ns, Reaching safepoint: 207946 ns, At safepoint: 6682 ns, Total: 214628 ns
[2022-04-01T08:29:55.382+0000][230347][safepoint   ] Safepoint "Cleanup", Time since last: 12017304143 ns, Reaching safepoint: 124617 ns, At safepoint: 5466 ns, Total: 130083 ns
[2022-04-01T08:29:58.384+0000][230347][safepoint   ] Safepoint "Cleanup", Time since last: 3001136075 ns, Reaching safepoint: 123277 ns, At safepoint: 6392 ns, Total: 129669 ns
[2022-04-01T08:30:04.385+0000][230347][safepoint   ] Safepoint "Cleanup", Time since last: 6000830586 ns, Reaching safepoint: 148016 ns, At safepoint: 8495 ns, Total: 156511 ns
[2022-04-01T08:30:05.385+0000][230347][safepoint   ] Safepoint "Cleanup", Time since last: 1000289528 ns, Reaching safepoint: 546587 ns, At safepoint: 13118 ns, Total: 559705 ns
[2022-04-01T08:30:08.386+0000][230347][safepoint   ] Safepoint "Cleanup", Time since last: 3000637982 ns, Reaching safepoint: 190025 ns, At safepoint: 11457 ns, Total: 201482 ns
[2022-04-01T08:30:09.387+0000][230347][safepoint   ] Safepoint "Cleanup", Time since last: 1000218172 ns, Reaching safepoint: 201349 ns, At safepoint: 13696 ns, Total: 215045 ns
[2022-04-01T08:30:10.387+0000][230347][safepoint   ] Safepoint "Cleanup", Time since last: 1000139710 ns, Reaching safepoint: 155208 ns, At safepoint: 6299 ns, Total: 161507 ns
[2022-04-01T08:30:13.391+0000][230347][safepoint   ] Safepoint "Cleanup", Time since last: 3003369661 ns, Reaching safepoint: 296824 ns, At safepoint: 12328 ns, Total: 309152 ns
[2022-04-01T08:30:15.391+0000][230347][safepoint   ] Safepoint "Cleanup", Time since last: 2000412109 ns, Reaching safepoint: 118171 ns, At safepoint: 12528 ns, Total: 130699 ns
[2022-04-01T08:30:21.393+0000][230347][safepoint   ] Safepoint "Cleanup", Time since last: 6001190094 ns, Reaching safepoint: 226546 ns, At safepoint: 11636 ns, Total: 238182 ns
[2022-04-01T08:30:33.410+0000][230347][safepoint   ] Safepoint "Cleanup", Time since last: 12017392929 ns, Reaching safepoint: 221338 ns, At safepoint: 7145 ns, Total: 228483 ns
[2022-04-01T08:30:37.411+0000][230347][safepoint   ] Safepoint "Cleanup", Time since last: 4000708654 ns, Reaching safepoint: 129980 ns, At safepoint: 6353 ns, Total: 136333 ns
[2022-04-01T08:30:48.414+0000][230347][safepoint   ] Safepoint "Cleanup", Time since last: 11003056377 ns, Reaching safepoint: 148503 ns, At safepoint: 6855 ns, Total: 155358 ns
[2022-04-01T08:30:54.419+0000][230347][safepoint   ] Safepoint "Cleanup", Time since last: 6004032909 ns, Reaching safepoint: 293480 ns, At safepoint: 11337 ns, Total: 304817 ns
[2022-04-01T08:31:12.432+0000][230347][safepoint   ] Safepoint "Cleanup", Time since last: 18013237168 ns, Reaching safepoint: 398463 ns, At safepoint: 10893 ns, Total: 409356 ns
[2022-04-01T08:31:24.443+0000][230347][safepoint   ] Safepoint "Cleanup", Time since last: 12010784907 ns, Reaching safepoint: 134111 ns, At safepoint: 8637 ns, Total: 142748 ns
[2022-04-01T08:31:35.445+0000][230347][safepoint   ] Safepoint "Cleanup", Time since last: 11001816036 ns, Reaching safepoint: 352728 ns, At safepoint: 36458 ns, Total: 389186 ns
[2022-04-01T08:31:36.446+0000][230347][safepoint   ] Safepoint "Cleanup", Time since last: 1000270631 ns, Reaching safepoint: 166212 ns, At safepoint: 5640 ns, Total: 171852 ns
[2022-04-01T08:31:39.447+0000][230347][safepoint   ] Safepoint "Cleanup", Time since last: 3001086712 ns, Reaching safepoint: 148278 ns, At safepoint: 90250 ns, Total: 238528 ns
[2022-04-01T08:31:44.448+0000][230347][safepoint   ] Safepoint "Cleanup", Time since last: 5000843859 ns, Reaching safepoint: 189501 ns, At safepoint: 7591 ns, Total: 197092 ns
[2022-04-01T08:31:50.449+0000][230347][safepoint   ] Safepoint "Cleanup", Time since last: 6000558604 ns, Reaching safepoint: 131871 ns, At safepoint: 8025 ns, Total: 139896 ns
[2022-04-01T08:31:55.450+0000][230347][safepoint   ] Safepoint "Cleanup", Time since last: 5001271057 ns, Reaching safepoint: 128672 ns, At safepoint: 5054 ns, Total: 133726 ns
[2022-04-01T08:32:03.453+0000][230347][safepoint   ] Safepoint "Cleanup", Time since last: 8002188843 ns, Reaching safepoint: 153610 ns, At safepoint: 8472 ns, Total: 162082 ns
[2022-04-01T08:32:10.462+0000][230347][safepoint   ] Safepoint "Cleanup", Time since last: 7008805895 ns, Reaching safepoint: 120308 ns, At safepoint: 12241 ns, Total: 132549 ns
[2022-04-01T08:32:12.463+0000][230347][safepoint   ] Safepoint "Cleanup", Time since last: 2000598099 ns, Reaching safepoint: 1080596 ns, At safepoint: 18212 ns, Total: 1098808 ns
[2022-04-01T08:32:16.464+0000][230347][safepoint   ] Safepoint "Cleanup", Time since last: 4000382230 ns, Reaching safepoint: 125992 ns, At safepoint: 8908 ns, Total: 134900 ns
[2022-04-01T08:32:22.467+0000][230347][safepoint   ] Safepoint "Cleanup", Time since last: 6002684043 ns, Reaching safepoint: 134986 ns, At safepoint: 5630 ns, Total: 140616 ns
[2022-04-01T08:32:29.478+0000][230347][safepoint   ] Safepoint "Cleanup", Time since last: 7011429100 ns, Reaching safepoint: 202806 ns, At safepoint: 5759 ns, Total: 208565 ns
[2022-04-01T08:32:36.480+0000][230347][safepoint   ] Safepoint "Cleanup", Time since last: 7001699898 ns, Reaching safepoint: 148841 ns, At safepoint: 5666 ns, Total: 154507 ns
[2022-04-01T08:32:39.481+0000][230347][safepoint   ] Safepoint "Cleanup", Time since last: 3000736716 ns, Reaching safepoint: 102736 ns, At safepoint: 6883 ns, Total: 109619 ns
[2022-04-01T08:32:40.481+0000][230347][safepoint   ] Safepoint "Cleanup", Time since last: 1000124210 ns, Reaching safepoint: 85234 ns, At safepoint: 3411 ns, Total: 88645 ns
[2022-04-01T08:32:42.486+0000][230347][safepoint   ] Safepoint "Cleanup", Time since last: 2004916997 ns, Reaching safepoint: 190301 ns, At safepoint: 7864 ns, Total: 198165 ns
[2022-04-01T08:32:56.491+0000][230347][safepoint   ] Safepoint "Cleanup", Time since last: 14003855271 ns, Reaching safepoint: 284008 ns, At safepoint: 12194 ns, Total: 296202 ns
[2022-04-01T08:33:01.492+0000][230347][safepoint   ] Safepoint "Cleanup", Time since last: 5001083310 ns, Reaching safepoint: 109879 ns, At safepoint: 5956 ns, Total: 115835 ns
[2022-04-01T08:33:02.492+0000][230347][safepoint   ] Safepoint "Cleanup", Time since last: 1000174091 ns, Reaching safepoint: 258402 ns, At safepoint: 8629 ns, Total: 267031 ns
[2022-04-01T08:33:12.493+0000][230347][safepoint   ] Safepoint "Cleanup", Time since last: 10001145424 ns, Reaching safepoint: 202517 ns, At safepoint: 5506 ns, Total: 208023 ns
[2022-04-01T08:33:18.495+0000][230347][safepoint   ] Safepoint "Cleanup", Time since last: 6001341986 ns, Reaching safepoint: 125972 ns, At safepoint: 5759 ns, Total: 131731 ns
[2022-04-01T08:33:20.495+0000][230347][safepoint   ] Safepoint "Cleanup", Time since last: 2000306222 ns, Reaching safepoint: 110334 ns, At safepoint: 5775 ns, Total: 116109 ns
[2022-04-01T08:33:25.496+0000][230347][safepoint   ] Safepoint "Cleanup", Time since last: 5000577682 ns, Reaching safepoint: 181889 ns, At safepoint: 8100 ns, Total: 189989 ns
[2022-04-01T08:33:29.497+0000][230347][safepoint   ] Safepoint "Cleanup", Time since last: 4000871250 ns, Reaching safepoint: 216055 ns, At safepoint: 5208 ns, Total: 221263 ns
[2022-04-01T08:33:31.499+0000][230347][safepoint   ] Safepoint "Cleanup", Time since last: 2000905851 ns, Reaching safepoint: 405985 ns, At safepoint: 13209 ns, Total: 419194 ns
[2022-04-01T08:33:48.505+0000][230347][safepoint   ] Safepoint "Cleanup", Time since last: 17005907397 ns, Reaching safepoint: 100464 ns, At safepoint: 4525 ns, Total: 104989 ns
[2022-04-01T08:33:51.505+0000][230347][safepoint   ] Safepoint "Cleanup", Time since last: 3000437494 ns, Reaching safepoint: 163837 ns, At safepoint: 7668 ns, Total: 171505 ns
[2022-04-01T08:34:00.508+0000][230347][safepoint   ] Safepoint "Cleanup", Time since last: 9002865618 ns, Reaching safepoint: 117008 ns, At safepoint: 7537 ns, Total: 124545 ns
[2022-04-01T08:34:20.515+0000][230347][safepoint   ] Safepoint "Cleanup", Time since last: 20006899218 ns, Reaching safepoint: 106169 ns, At safepoint: 4010 ns, Total: 110179 ns
[2022-04-01T08:34:21.515+0000][230347][safepoint   ] Safepoint "Cleanup", Time since last: 1000116177 ns, Reaching safepoint: 104284 ns, At safepoint: 4349 ns, Total: 108633 ns
[2022-04-01T08:34:27.517+0000][230347][safepoint   ] Safepoint "Cleanup", Time since last: 6001274058 ns, Reaching safepoint: 143599 ns, At safepoint: 8033 ns, Total: 151632 ns
[2022-04-01T08:34:32.518+0000][230347][safepoint   ] Safepoint "Cleanup", Time since last: 5001080986 ns, Reaching safepoint: 220001 ns, At safepoint: 6690 ns, Total: 226691 ns
[2022-04-01T08:34:33.519+0000][230347][safepoint   ] Safepoint "Cleanup", Time since last: 1000542334 ns, Reaching safepoint: 204555 ns, At safepoint: 4194 ns, Total: 208749 ns
[2022-04-01T08:34:38.525+0000][230347][safepoint   ] Safepoint "Cleanup", Time since last: 5006224999 ns, Reaching safepoint: 101278 ns, At safepoint: 3641 ns, Total: 104919 ns
[2022-04-01T08:34:46.528+0000][230347][safepoint   ] Safepoint "Cleanup", Time since last: 8002339754 ns, Reaching safepoint: 228658 ns, At safepoint: 7417 ns, Total: 236075 ns
[2022-04-01T08:35:09.557+0000][230347][safepoint   ] Safepoint "Cleanup", Time since last: 23028906064 ns, Reaching safepoint: 109855 ns, At safepoint: 6815 ns, Total: 116670 ns
[2022-04-01T08:35:16.836+0000][230347][safepoint   ] Safepoint "Cleanup", Time since last: 7260526768 ns, Reaching safepoint: 19114061 ns, At safepoint: 20948 ns, Total: 19135009 ns
[2022-04-01T08:35:17.407+0000][230347][safepoint   ] Safepoint "ICBufferFull", Time since last: 565187868 ns, Reaching safepoint: 5209396 ns, At safepoint: 25421 ns, Total: 5234817 ns
[2022-04-01T08:35:17.687+0000][230347][gc,heap,exit] Heap
[2022-04-01T08:35:17.687+0000][230347][gc,heap,exit]  garbage-first heap   total 1048576K, used 575428K [0x00000000c0000000, 0x0000000100000000)
[2022-04-01T08:35:17.687+0000][230347][gc,heap,exit]   region size 1024K, 508 young (520192K), 16 survivors (16384K)
[2022-04-01T08:35:17.687+0000][230347][gc,heap,exit]  Metaspace       used 82518K, capacity 85454K, committed 85708K, reserved 1122304K
[2022-04-01T08:35:17.687+0000][230347][gc,heap,exit]   class space    used 10925K, capacity 11877K, committed 11980K, reserved 1048576K
