[
  {
    "text": "+1",
    "entities": [],
    "predicted_entities": [
      {
        "entity": "exp_year",
        "start": 0,
        "end": 2,
        "confidence_entity": 0.9762932062149048,
        "value": "+1",
        "extractor": "DIETClassifier"
      }
    ]
  },
  {
    "text": "Years 6",
    "entities": [
      {
        "start": 6,
        "end": 7,
        "value": "6",
        "entity": "exp_year"
      }
    ],
    "predicted_entities": [
      {
        "entity": "gradyear",
        "start": 6,
        "end": 7,
        "confidence_entity": 0.5794519186019897,
        "value": "6",
        "extractor": "DIETClassifier"
      }
    ]
  },
  {
    "text": "Database Design",
    "entities": [
      {
        "start": 0,
        "end": 15,
        "value": "Database Design",
        "entity": "skill"
      }
    ],
    "predicted_entities": [
      {
        "entity": "skill",
        "start": 0,
        "end": 8,
        "confidence_entity": 0.9985684156417847,
        "value": "Database",
        "extractor": "DIETClassifier"
      }
    ]
  },
  {
    "text": "Information Technology",
    "entities": [
      {
        "start": 0,
        "end": 22,
        "value": "Information Technology",
        "entity": "skill"
      }
    ],
    "predicted_entities": [
      {
        "entity": "skill",
        "start": 0,
        "end": 11,
        "confidence_entity": 0.7708620429039001,
        "value": "Information",
        "extractor": "DIETClassifier"
      }
    ]
  },
  {
    "text": "Solution Delivery",
    "entities": [
      {
        "start": 0,
        "end": 17,
        "value": "Solution Delivery",
        "entity": "skill"
      }
    ],
    "predicted_entities": []
  },
  {
    "text": "Artificial Intelligence and Customer Relationship Management",
    "entities": [
      {
        "start": 0,
        "end": 23,
        "value": "",
        "entity": "skill"
      },
      {
        "start": 28,
        "end": 60,
        "value": "",
        "entity": "skill"
      }
    ],
    "predicted_entities": [
      {
        "entity": "skill",
        "start": 0,
        "end": 23,
        "confidence_entity": 0.995639443397522,
        "value": "",
        "extractor": "DIETClassifier",
        "processors": [
          "EntitySynonymMapper"
        ]
      },
      {
        "entity": "skill",
        "start": 50,
        "end": 60,
        "confidence_entity": 0.9986469149589539,
        "value": "Management",
        "extractor": "DIETClassifier"
      }
    ]
  },
  {
    "text": "Security, Solution Delivery, Storage",
    "entities": [
      {
        "start": 0,
        "end": 8,
        "value": "Security",
        "entity": "skill"
      },
      {
        "start": 10,
        "end": 27,
        "value": "Solution Delivery",
        "entity": "skill"
      },
      {
        "start": 29,
        "end": 36,
        "value": "Storage",
        "entity": "skill"
      }
    ],
    "predicted_entities": [
      {
        "entity": "skill",
        "start": 0,
        "end": 8,
        "confidence_entity": 0.9329760670661926,
        "value": "Security",
        "extractor": "DIETClassifier"
      },
      {
        "entity": "skill",
        "start": 29,
        "end": 36,
        "confidence_entity": 0.44384485483169556,
        "value": "Storage",
        "extractor": "DIETClassifier"
      }
    ]
  },
  {
    "text": "2003",
    "entities": [
      {
        "start": 0,
        "end": 4,
        "value": "2003",
        "entity": "gradyear"
      }
    ],
    "predicted_entities": [
      {
        "entity": "exp_year",
        "start": 0,
        "end": 4,
        "confidence_entity": 0.6289101243019104,
        "value": "2003",
        "extractor": "DIETClassifier"
      }
    ]
  },
  {
    "text": "e",
    "entities": [
      {
        "start": 0,
        "end": 1,
        "value": "e",
        "entity": "emp_name"
      }
    ],
    "predicted_entities": []
  },
  {
    "text": "m",
    "entities": [
      {
        "start": 0,
        "end": 1,
        "value": "m",
        "entity": "emp_name"
      }
    ],
    "predicted_entities": []
  },
  {
    "text": "v",
    "entities": [
      {
        "start": 0,
        "end": 1,
        "value": "v",
        "entity": "emp_name"
      }
    ],
    "predicted_entities": []
  },
  {
    "text": "What is Shashi Bhardwaj's job title?",
    "entities": [
      {
        "start": 8,
        "end": 25,
        "value": "Shashi Bhardwaj's",
        "entity": "emp_name"
      }
    ],
    "predicted_entities": [
      {
        "entity": "emp_name",
        "start": 24,
        "end": 25,
        "confidence_entity": 0.6047911047935486,
        "value": "s",
        "extractor": "DIETClassifier"
      }
    ]
  },
  {
    "text": "Who is Anuj Mishra's Senior QA Engineer?",
    "entities": [
      {
        "start": 7,
        "end": 20,
        "value": "Anuj Mishra's",
        "entity": "emp_name"
      }
    ],
    "predicted_entities": [
      {
        "entity": "emp_name",
        "start": 7,
        "end": 11,
        "confidence_entity": 0.997826874256134,
        "value": "Anuj",
        "extractor": "DIETClassifier"
      },
      {
        "entity": "emp_name",
        "start": 12,
        "end": 20,
        "confidence_entity": 0.6358864307403564,
        "value": "Mishra's",
        "extractor": "DIETClassifier"
      },
      {
        "entity": "emp_name",
        "start": 28,
        "end": 30,
        "confidence_entity": 0.6228230595588684,
        "value": "QA",
        "extractor": "DIETClassifier"
      }
    ]
  },
  {
    "text": "What is the salary of Sagar Gyanchandani?",
    "entities": [],
    "predicted_entities": [
      {
        "entity": "emp_name",
        "start": 22,
        "end": 40,
        "confidence_entity": 0.99918133020401,
        "value": "Sagar Gyanchandani",
        "extractor": "DIETClassifier"
      }
    ]
  },
  {
    "text": "What is the average salary of Akshita?",
    "entities": [],
    "predicted_entities": [
      {
        "entity": "emp_name",
        "start": 30,
        "end": 37,
        "confidence_entity": 0.995368480682373,
        "value": "Akshita",
        "extractor": "DIETClassifier"
      }
    ]
  },
  {
    "text": "Ronak Singhavi",
    "entities": [],
    "predicted_entities": [
      {
        "entity": "emp_name",
        "start": 0,
        "end": 14,
        "confidence_entity": 0.7858402132987976,
        "value": "Ronak Singhavi",
        "extractor": "DIETClassifier"
      }
    ]
  },
  {
    "text": "11",
    "entities": [
      {
        "start": 0,
        "end": 2,
        "value": "11",
        "entity": "exp_year"
      }
    ],
    "predicted_entities": [
      {
        "entity": "gradyear",
        "start": 0,
        "end": 2,
        "confidence_entity": 0.9473705291748047,
        "value": "11",
        "extractor": "DIETClassifier"
      }
    ]
  },
  {
    "text": "0",
    "entities": [
      {
        "start": 0,
        "end": 1,
        "value": "0",
        "entity": "exp_year"
      }
    ],
    "predicted_entities": [
      {
        "entity": "gradyear",
        "start": 0,
        "end": 1,
        "confidence_entity": 0.9473705291748047,
        "value": "0",
        "extractor": "DIETClassifier"
      }
    ]
  },
  {
    "text": "7",
    "entities": [
      {
        "start": 0,
        "end": 1,
        "value": "7",
        "entity": "exp_year"
      }
    ],
    "predicted_entities": [
      {
        "entity": "gradyear",
        "start": 0,
        "end": 1,
        "confidence_entity": 0.9473705291748047,
        "value": "7",
        "extractor": "DIETClassifier"
      }
    ]
  },
  {
    "text": "HTML",
    "entities": [
      {
        "start": 0,
        "end": 4,
        "value": "HTML",
        "entity": "skill"
      }
    ],
    "predicted_entities": [
      {
        "entity": "emp_name",
        "start": 0,
        "end": 4,
        "confidence_entity": 0.9908677339553833,
        "value": "HTML",
        "extractor": "DIETClassifier"
      }
    ]
  },
  {
    "text": "CSS",
    "entities": [
      {
        "start": 0,
        "end": 3,
        "value": "CSS",
        "entity": "skill"
      }
    ],
    "predicted_entities": []
  },
  {
    "text": "SQL Server",
    "entities": [
      {
        "start": 0,
        "end": 10,
        "value": "SQL Server",
        "entity": "skill"
      }
    ],
    "predicted_entities": []
  },
  {
    "text": "Statistical Analysis",
    "entities": [
      {
        "start": 0,
        "end": 20,
        "value": "Statistical Analysis",
        "entity": "skill"
      }
    ],
    "predicted_entities": [
      {
        "entity": "skill",
        "start": 0,
        "end": 11,
        "confidence_entity": 0.8687970042228699,
        "value": "Statistical",
        "extractor": "DIETClassifier"
      }
    ]
  },
  {
    "text": "share some details of nitin  at auriga",
    "entities": [
      {
        "start": 22,
        "end": 27,
        "value": "nitin",
        "entity": "emp_name"
      }
    ],
    "predicted_entities": []
  },
  {
    "text": "who is ANAGH KUMAR",
    "entities": [
      {
        "start": 7,
        "end": 18,
        "value": "ANAGH KUMAR",
        "entity": "emp_name"
      }
    ],
    "predicted_entities": []
  },
  {
    "text": "at what position Ankit Pariha is assigned in auriga",
    "entities": [
      {
        "start": 17,
        "end": 29,
        "value": "Ankit Pariha",
        "entity": "emp_name"
      }
    ],
    "predicted_entities": [
      {
        "entity": "emp_name",
        "start": 23,
        "end": 29,
        "confidence_entity": 0.8235092759132385,
        "value": "Pariha",
        "extractor": "DIETClassifier"
      }
    ]
  },
  {
    "text": "please describe about Anupam",
    "entities": [
      {
        "start": 22,
        "end": 28,
        "value": "Anupam",
        "entity": "emp_name"
      }
    ],
    "predicted_entities": []
  },
  {
    "text": "at what position Balvinder Singh is working",
    "entities": [
      {
        "start": 17,
        "end": 32,
        "value": "Balvinder Singh",
        "entity": "emp_name"
      }
    ],
    "predicted_entities": [
      {
        "entity": "emp_name",
        "start": 27,
        "end": 32,
        "confidence_entity": 0.9863385558128357,
        "value": "Singh",
        "extractor": "DIETClassifier"
      }
    ]
  },
  {
    "text": "Sagar Gyanchandani at auriga",
    "entities": [
      {
        "start": 0,
        "end": 18,
        "value": "Sagar Gyanchandani",
        "entity": "emp_name"
      }
    ],
    "predicted_entities": []
  },
  {
    "text": "Who is Operations Executive?",
    "entities": [],
    "predicted_entities": [
      {
        "entity": "emp_name",
        "start": 18,
        "end": 27,
        "confidence_entity": 0.6688550114631653,
        "value": "Executive",
        "extractor": "DIETClassifier"
      }
    ]
  },
  {
    "text": "Stitch",
    "entities": [],
    "predicted_entities": [
      {
        "entity": "skill",
        "start": 0,
        "end": 6,
        "confidence_entity": 0.4934248924255371,
        "value": "Stitch",
        "extractor": "DIETClassifier"
      }
    ]
  },
  {
    "text": "technology",
    "entities": [],
    "predicted_entities": [
      {
        "entity": "skill",
        "start": 0,
        "end": 10,
        "confidence_entity": 0.8765572309494019,
        "value": "technology",
        "extractor": "DIETClassifier"
      }
    ]
  },
  {
    "text": "Pawan Shrivastav",
    "entities": [],
    "predicted_entities": [
      {
        "entity": "emp_name",
        "start": 6,
        "end": 16,
        "confidence_entity": 0.8272107243537903,
        "value": "Shrivastav",
        "extractor": "DIETClassifier"
      }
    ]
  },
  {
    "text": "java programming",
    "entities": [],
    "predicted_entities": [
      {
        "entity": "skill",
        "start": 5,
        "end": 16,
        "confidence_entity": 0.8820027112960815,
        "value": "programming",
        "extractor": "DIETClassifier"
      }
    ]
  },
  {
    "text": "python language",
    "entities": [],
    "predicted_entities": [
      {
        "entity": "skill",
        "start": 0,
        "end": 6,
        "confidence_entity": 0.9931765794754028,
        "value": "python",
        "extractor": "DIETClassifier"
      }
    ]
  },
  {
    "text": "10",
    "entities": [
      {
        "start": 0,
        "end": 2,
        "value": "10",
        "entity": "exp_year"
      }
    ],
    "predicted_entities": [
      {
        "entity": "gradyear",
        "start": 0,
        "end": 2,
        "confidence_entity": 0.822586715221405,
        "value": "10",
        "extractor": "DIETClassifier"
      }
    ]
  },
  {
    "text": "2",
    "entities": [
      {
        "start": 0,
        "end": 1,
        "value": "2",
        "entity": "exp_year"
      }
    ],
    "predicted_entities": [
      {
        "entity": "gradyear",
        "start": 0,
        "end": 1,
        "confidence_entity": 0.822586715221405,
        "value": "2",
        "extractor": "DIETClassifier"
      }
    ]
  },
  {
    "text": "3",
    "entities": [
      {
        "start": 0,
        "end": 1,
        "value": "3",
        "entity": "exp_year"
      }
    ],
    "predicted_entities": [
      {
        "entity": "gradyear",
        "start": 0,
        "end": 1,
        "confidence_entity": 0.822586715221405,
        "value": "3",
        "extractor": "DIETClassifier"
      }
    ]
  },
  {
    "text": "5",
    "entities": [
      {
        "start": 0,
        "end": 1,
        "value": "5",
        "entity": "exp_year"
      }
    ],
    "predicted_entities": [
      {
        "entity": "gradyear",
        "start": 0,
        "end": 1,
        "confidence_entity": 0.822586715221405,
        "value": "5",
        "extractor": "DIETClassifier"
      }
    ]
  },
  {
    "text": "13",
    "entities": [
      {
        "start": 0,
        "end": 2,
        "value": "13",
        "entity": "exp_year"
      }
    ],
    "predicted_entities": [
      {
        "entity": "gradyear",
        "start": 0,
        "end": 2,
        "confidence_entity": 0.822586715221405,
        "value": "13",
        "extractor": "DIETClassifier"
      }
    ]
  },
  {
    "text": "15",
    "entities": [
      {
        "start": 0,
        "end": 2,
        "value": "15",
        "entity": "exp_year"
      }
    ],
    "predicted_entities": [
      {
        "entity": "gradyear",
        "start": 0,
        "end": 2,
        "confidence_entity": 0.822586715221405,
        "value": "15",
        "extractor": "DIETClassifier"
      }
    ]
  },
  {
    "text": "Java",
    "entities": [
      {
        "start": 0,
        "end": 4,
        "value": "Java",
        "entity": "skill"
      }
    ],
    "predicted_entities": []
  },
  {
    "text": "Machine Learning",
    "entities": [
      {
        "start": 0,
        "end": 16,
        "value": "Machine Learning",
        "entity": "skill"
      }
    ],
    "predicted_entities": []
  },
  {
    "text": "Unix",
    "entities": [
      {
        "start": 0,
        "end": 4,
        "value": "Unix",
        "entity": "skill"
      }
    ],
    "predicted_entities": [
      {
        "entity": "emp_name",
        "start": 0,
        "end": 4,
        "confidence_entity": 0.989838719367981,
        "value": "Unix",
        "extractor": "DIETClassifier"
      }
    ]
  },
  {
    "text": "Docker",
    "entities": [
      {
        "start": 0,
        "end": 6,
        "value": "Docker",
        "entity": "skill"
      }
    ],
    "predicted_entities": []
  },
  {
    "text": "tell something about Aman",
    "entities": [
      {
        "start": 21,
        "end": 25,
        "value": "Aman",
        "entity": "emp_name"
      }
    ],
    "predicted_entities": []
  },
  {
    "text": "which position is assigned to Mega Sharma in auriga",
    "entities": [
      {
        "start": 30,
        "end": 41,
        "value": "Mega Sharma",
        "entity": "emp_name"
      }
    ],
    "predicted_entities": [
      {
        "entity": "emp_name",
        "start": 35,
        "end": 41,
        "confidence_entity": 0.9996398687362671,
        "value": "Sharma",
        "extractor": "DIETClassifier"
      }
    ]
  },
  {
    "text": "Suyash Sharma job role at auriga",
    "entities": [
      {
        "start": 0,
        "end": 13,
        "value": "Suyash Sharma",
        "entity": "emp_name"
      }
    ],
    "predicted_entities": [
      {
        "entity": "emp_name",
        "start": 7,
        "end": 13,
        "confidence_entity": 0.9996947050094604,
        "value": "Sharma",
        "extractor": "DIETClassifier"
      }
    ]
  },
  {
    "text": "Solution",
    "entities": [],
    "predicted_entities": [
      {
        "entity": "skill",
        "start": 0,
        "end": 8,
        "confidence_entity": 0.9876936674118042,
        "value": "Solution",
        "extractor": "DIETClassifier"
      }
    ]
  },
  {
    "text": "Employees",
    "entities": [],
    "predicted_entities": [
      {
        "entity": "skill",
        "start": 0,
        "end": 9,
        "confidence_entity": 0.3782152533531189,
        "value": "Employees",
        "extractor": "DIETClassifier"
      }
    ]
  },
  {
    "text": "4",
    "entities": [
      {
        "start": 0,
        "end": 1,
        "value": "4",
        "entity": "exp_year"
      }
    ],
    "predicted_entities": [
      {
        "entity": "gradyear",
        "start": 0,
        "end": 1,
        "confidence_entity": 0.7780524492263794,
        "value": "4",
        "extractor": "DIETClassifier"
      }
    ]
  },
  {
    "text": "Azure",
    "entities": [
      {
        "start": 0,
        "end": 5,
        "value": "Azure",
        "entity": "skill"
      }
    ],
    "predicted_entities": []
  },
  {
    "text": "Coding",
    "entities": [
      {
        "start": 0,
        "end": 6,
        "value": "Coding",
        "entity": "skill"
      }
    ],
    "predicted_entities": []
  },
  {
    "text": "Operating Systems",
    "entities": [
      {
        "start": 0,
        "end": 17,
        "value": "Operating Systems",
        "entity": "skill"
      }
    ],
    "predicted_entities": [
      {
        "entity": "emp_name",
        "start": 10,
        "end": 17,
        "confidence_entity": 0.9220715761184692,
        "value": "Systems",
        "extractor": "DIETClassifier"
      }
    ]
  },
  {
    "text": "Programming",
    "entities": [
      {
        "start": 0,
        "end": 11,
        "value": "Programming",
        "entity": "skill"
      }
    ],
    "predicted_entities": []
  },
  {
    "text": "Chatbot Development",
    "entities": [
      {
        "start": 0,
        "end": 19,
        "value": "Chatbot Development",
        "entity": "skill"
      }
    ],
    "predicted_entities": []
  },
  {
    "text": "Chatbot Development and Artificial Intelligence",
    "entities": [
      {
        "start": 0,
        "end": 19,
        "value": "Chatbot Development",
        "entity": "skill"
      },
      {
        "start": 24,
        "end": 47,
        "value": "Artificial Intelligence",
        "entity": "skill"
      }
    ],
    "predicted_entities": [
      {
        "entity": "skill",
        "start": 24,
        "end": 47,
        "confidence_entity": 0.9981542229652405,
        "value": "",
        "extractor": "DIETClassifier",
        "processors": [
          "EntitySynonymMapper"
        ]
      }
    ]
  },
  {
    "text": "A",
    "entities": [
      {
        "start": 0,
        "end": 1,
        "value": "A",
        "entity": "emp_name"
      }
    ],
    "predicted_entities": []
  },
  {
    "text": "what about Akshat Jain at auriga",
    "entities": [
      {
        "start": 11,
        "end": 22,
        "value": "Akshat Jain",
        "entity": "emp_name"
      }
    ],
    "predicted_entities": [
      {
        "entity": "emp_name",
        "start": 18,
        "end": 22,
        "confidence_entity": 0.9996823072433472,
        "value": "Jain",
        "extractor": "DIETClassifier"
      }
    ]
  },
  {
    "text": "share something about AMIT SHARMA",
    "entities": [
      {
        "start": 22,
        "end": 33,
        "value": "AMIT SHARMA",
        "entity": "emp_name"
      }
    ],
    "predicted_entities": [
      {
        "entity": "emp_name",
        "start": 27,
        "end": 33,
        "confidence_entity": 0.9997777342796326,
        "value": "SHARMA",
        "extractor": "DIETClassifier"
      }
    ]
  },
  {
    "text": "what about Chhavi Jangid in auriga",
    "entities": [
      {
        "start": 11,
        "end": 24,
        "value": "Chhavi Jangid",
        "entity": "emp_name"
      }
    ],
    "predicted_entities": [
      {
        "entity": "emp_name",
        "start": 18,
        "end": 24,
        "confidence_entity": 0.9993405938148499,
        "value": "Jangid",
        "extractor": "DIETClassifier"
      }
    ]
  },
  {
    "text": "Who is a Customer Relationship Manager?",
    "entities": [],
    "predicted_entities": [
      {
        "entity": "skill",
        "start": 9,
        "end": 30,
        "confidence_entity": 0.9439888596534729,
        "value": "Customer Relationship",
        "extractor": "DIETClassifier"
      }
    ]
  },
  {
    "text": "Divye Tela",
    "entities": [],
    "predicted_entities": [
      {
        "entity": "skill",
        "start": 0,
        "end": 10,
        "confidence_entity": 0.51,
        "value": "Divye Tela",
        "extractor": "DIETClassifier"
      }
    ]
  },
  {
    "text": "Volkswagen",
    "entities": [],
    "predicted_entities": [
      {
        "entity": "emp_name",
        "start": 0,
        "end": 10,
        "confidence_entity": 0.9115363955497742,
        "value": "Volkswagen",
        "extractor": "DIETClassifier"
      }
    ]
  },
  {
    "text": "+1",
    "entities": [],
    "predicted_entities": [
      {
        "entity": "exp_year",
        "start": 0,
        "end": 2,
        "confidence_entity": 0.9852777123451233,
        "value": "+1",
        "extractor": "DIETClassifier"
      }
    ]
  },
  {
    "text": "Python",
    "entities": [
      {
        "start": 0,
        "end": 6,
        "value": "Python",
        "entity": "skill"
      }
    ],
    "predicted_entities": []
  },
  {
    "text": "Scrum",
    "entities": [
      {
        "start": 0,
        "end": 5,
        "value": "Scrum",
        "entity": "skill"
      }
    ],
    "predicted_entities": [
      {
        "entity": "emp_name",
        "start": 0,
        "end": 5,
        "confidence_entity": 0.9767409563064575,
        "value": "Scrum",
        "extractor": "DIETClassifier"
      }
    ]
  },
  {
    "text": "Git",
    "entities": [
      {
        "start": 0,
        "end": 3,
        "value": "Git",
        "entity": "skill"
      }
    ],
    "predicted_entities": [
      {
        "entity": "emp_name",
        "start": 0,
        "end": 3,
        "confidence_entity": 0.9941695928573608,
        "value": "Git",
        "extractor": "DIETClassifier"
      }
    ]
  },
  {
    "text": "GCP",
    "entities": [
      {
        "start": 0,
        "end": 3,
        "value": "GCP",
        "entity": "skill"
      }
    ],
    "predicted_entities": [
      {
        "entity": "emp_name",
        "start": 0,
        "end": 3,
        "confidence_entity": 0.9974971413612366,
        "value": "GCP",
        "extractor": "DIETClassifier"
      }
    ]
  },
  {
    "text": "Cloud/SaaS Services",
    "entities": [
      {
        "start": 0,
        "end": 19,
        "value": "Cloud/SaaS Services",
        "entity": "skill"
      }
    ],
    "predicted_entities": []
  },
  {
    "text": "2021",
    "entities": [
      {
        "start": 0,
        "end": 4,
        "value": "2021",
        "entity": "gradyear"
      }
    ],
    "predicted_entities": [
      {
        "entity": "exp_year",
        "start": 0,
        "end": 4,
        "confidence_entity": 0.7942447662353516,
        "value": "2021",
        "extractor": "DIETClassifier"
      }
    ]
  },
  {
    "text": "i want to know about raunak  at auriga",
    "entities": [
      {
        "start": 21,
        "end": 27,
        "value": "raunak",
        "entity": "emp_name"
      }
    ],
    "predicted_entities": []
  },
  {
    "text": "HR",
    "entities": [],
    "predicted_entities": [
      {
        "entity": "emp_name",
        "start": 0,
        "end": 2,
        "confidence_entity": 0.6728407144546509,
        "value": "HR",
        "extractor": "DIETClassifier"
      }
    ]
  },
  {
    "text": "Hiren Pandey",
    "entities": [],
    "predicted_entities": [
      {
        "entity": "emp_name",
        "start": 0,
        "end": 12,
        "confidence_entity": 0.859283447265625,
        "value": "Hiren Pandey",
        "extractor": "DIETClassifier"
      }
    ]
  },
  {
    "text": "Shashi Bhardwaj",
    "entities": [],
    "predicted_entities": [
      {
        "entity": "emp_name",
        "start": 0,
        "end": 15,
        "confidence_entity": 0.9161614775657654,
        "value": "Shashi Bhardwaj",
        "extractor": "DIETClassifier"
      }
    ]
  },
  {
    "text": "Team",
    "entities": [],
    "predicted_entities": [
      {
        "entity": "emp_name",
        "start": 0,
        "end": 4,
        "confidence_entity": 0.9918658137321472,
        "value": "Team",
        "extractor": "DIETClassifier"
      }
    ]
  },
  {
    "text": "Service",
    "entities": [],
    "predicted_entities": [
      {
        "entity": "skill",
        "start": 0,
        "end": 7,
        "confidence_entity": 0.3236290216445923,
        "value": "Service",
        "extractor": "DIETClassifier"
      }
    ]
  }
]