{
  "bot_challenge": {
    "precision": 0.8421052631578947,
    "recall": 0.8888888888888888,
    "f1-score": 0.8648648648648649,
    "support": 18,
    "confused_with": {
      "TechSkill": 1,
      "greet": 1
    }
  },
  "DOB": {
    "precision": 1.0,
    "recall": 1.0,
    "f1-score": 1.0,
    "support": 13,
    "confused_with": {}
  },
  "location": {
    "precision": 1.0,
    "recall": 0.9375,
    "f1-score": 0.967741935483871,
    "support": 16,
    "confused_with": {
      "apply": 1
    }
  },
  "salary": {
    "precision": 0.8888888888888888,
    "recall": 0.8888888888888888,
    "f1-score": 0.8888888888888888,
    "support": 9,
    "confused_with": {
      "employee": 1
    }
  },
  "employee": {
    "precision": 0.7874015748031497,
    "recall": 0.847457627118644,
    "f1-score": 0.8163265306122449,
    "support": 118,
    "confused_with": {
      "general_query": 10,
      "TechSkill": 1
    }
  },
  "creator": {
    "precision": 1.0,
    "recall": 0.8333333333333334,
    "f1-score": 0.9090909090909091,
    "support": 18,
    "confused_with": {
      "employee": 3
    }
  },
  "apply": {
    "precision": 0.36363636363636365,
    "recall": 0.38095238095238093,
    "f1-score": 0.37209302325581395,
    "support": 21,
    "confused_with": {
      "deny": 7,
      "general_query": 2
    }
  },
  "services": {
    "precision": 0.8113207547169812,
    "recall": 0.8269230769230769,
    "f1-score": 0.819047619047619,
    "support": 52,
    "confused_with": {
      "bot_services": 6,
      "deny": 1
    }
  },
  "GradYear": {
    "precision": 0.6875,
    "recall": 0.9166666666666666,
    "f1-score": 0.7857142857142857,
    "support": 24,
    "confused_with": {
      "ExpYear": 2
    }
  },
  "mood_great": {
    "precision": 0.6808510638297872,
    "recall": 0.8205128205128205,
    "f1-score": 0.7441860465116279,
    "support": 39,
    "confused_with": {
      "mood_unhappy": 4,
      "services": 1
    }
  },
  "ExpYear": {
    "precision": 0.8484848484848485,
    "recall": 0.7368421052631579,
    "f1-score": 0.7887323943661972,
    "support": 38,
    "confused_with": {
      "GradYear": 10
    }
  },
  "TechSkill": {
    "precision": 0.696969696969697,
    "recall": 0.5348837209302325,
    "f1-score": 0.6052631578947368,
    "support": 43,
    "confused_with": {
      "employee": 7,
      "apply": 4
    }
  },
  "greet": {
    "precision": 0.8285714285714286,
    "recall": 0.8055555555555556,
    "f1-score": 0.8169014084507044,
    "support": 36,
    "confused_with": {
      "services": 1,
      "apply": 1
    }
  },
  "mood_unhappy": {
    "precision": 0.7777777777777778,
    "recall": 0.7368421052631579,
    "f1-score": 0.7567567567567567,
    "support": 38,
    "confused_with": {
      "mood_great": 9,
      "deny": 1
    }
  },
  "bot_services": {
    "precision": 0.0,
    "recall": 0.0,
    "f1-score": 0.0,
    "support": 7,
    "confused_with": {
      "services": 7
    }
  },
  "looking_for_job": {
    "precision": 0.8301886792452831,
    "recall": 0.9166666666666666,
    "f1-score": 0.8712871287128713,
    "support": 48,
    "confused_with": {
      "TechSkill": 2,
      "greet": 1
    }
  },
  "general_query": {
    "precision": 0.7297297297297297,
    "recall": 0.6585365853658537,
    "f1-score": 0.6923076923076923,
    "support": 82,
    "confused_with": {
      "employee": 13,
      "TechSkill": 5
    }
  },
  "deny": {
    "precision": 0.25,
    "recall": 0.26666666666666666,
    "f1-score": 0.2580645161290323,
    "support": 15,
    "confused_with": {
      "apply": 5,
      "mood_unhappy": 2
    }
  },
  "goodbye": {
    "precision": 0.95,
    "recall": 0.76,
    "f1-score": 0.8444444444444444,
    "support": 25,
    "confused_with": {
      "mood_great": 2,
      "mood_unhappy": 1
    }
  },
  "accuracy": 0.759090909090909,
  "macro avg": {
    "precision": 0.7354434773585173,
    "recall": 0.7240587941576838,
    "f1-score": 0.7264058738175032,
    "support": 660
  },
  "weighted avg": {
    "precision": 0.7647464508673965,
    "recall": 0.759090909090909,
    "f1-score": 0.7587316362090938,
    "support": 660
  }
}